<?xml version="1.0" encoding="UTF-8" standalone="no"?>
<!-- Created with Inkscape (http://www.inkscape.org/) -->

<svg
   xmlns:dc="http://purl.org/dc/elements/1.1/"
   xmlns:cc="http://creativecommons.org/ns#"
   xmlns:rdf="http://www.w3.org/1999/02/22-rdf-syntax-ns#"
   xmlns:svg="http://www.w3.org/2000/svg"
   xmlns="http://www.w3.org/2000/svg"
   xmlns:sodipodi="http://sodipodi.sourceforge.net/DTD/sodipodi-0.dtd"
   xmlns:inkscape="http://www.inkscape.org/namespaces/inkscape"
   id="svg2240"
   sodipodi:version="0.32"
   inkscape:version="0.48.3.1 r9886"
   width="1221"
   height="914"
   version="1.0"
   sodipodi:docname="debian-package-cycle.svg"
   inkscape:output_extension="org.inkscape.output.svg.inkscape"
   sodipodi:modified="true">
  <metadata
     id="metadata2245">
    <rdf:RDF>
      <cc:Work
         rdf:about="">
        <dc:format>image/svg+xml</dc:format>
        <dc:type
           rdf:resource="http://purl.org/dc/dcmitype/StillImage" />
      </cc:Work>
    </rdf:RDF>
  </metadata>
  <defs
     id="defs2243">
    <marker
       inkscape:stockid="TriangleOutM"
       orient="auto"
       refY="0"
       refX="0"
       id="TriangleOutM"
       style="overflow:visible">
      <path
         id="path3457"
         d="M 5.77,0 L -2.88,5 L -2.88,-5 L 5.77,0 z "
         style="fill-rule:evenodd;stroke:#000000;stroke-width:1pt;marker-start:none"
         transform="scale(0.4,0.4)" />
    </marker>
  </defs>
  <sodipodi:namedview
     inkscape:window-height="739"
     inkscape:window-width="1337"
     inkscape:pageshadow="2"
     inkscape:pageopacity="0.0"
     guidetolerance="10.0"
     gridtolerance="10.0"
     objecttolerance="10.0"
     borderopacity="1.0"
     bordercolor="#666666"
     pagecolor="#ffffff"
     id="base"
     inkscape:zoom="0.58332442"
     inkscape:cx="848.36356"
     inkscape:cy="405.22656"
     inkscape:window-x="0"
     inkscape:window-y="27"
     inkscape:current-layer="layer5"
     showgrid="false"
     inkscape:window-maximized="0" />
  <g
     inkscape:groupmode="layer"
     id="layer5"
     inkscape:label="SubwhitePane"
     style="opacity:1;display:inline">
    <path
       style="fill:#ffffff;fill-opacity:1;stroke:#787878;stroke-width:2;stroke-miterlimit:4;stroke-dasharray:6, 6;stroke-dashoffset:0;stroke-opacity:1"
       d="M -42 -45.15625 L -42 921.71875 L 1298.5938 921.71875 L 1298.5938 -45.15625 L -42 -45.15625 z "
       id="rect3572" />
    <path
       style="fill:none;fill-rule:evenodd;stroke:#000000;stroke-width:1px;stroke-linecap:butt;stroke-linejoin:miter;stroke-opacity:1"
       d="M 583.37201,220.92374 L 595.19098,238.80372 L 599.73673,218.49934 L 592.76657,223.6512 L 583.37201,220.92374 z "
       id="path3683" />
    <path
       style="fill:none;fill-rule:evenodd;stroke:#000000;stroke-width:1px;stroke-linecap:butt;stroke-linejoin:miter;stroke-opacity:1"
       d="M 807.22663,183.06025 L 820.94112,175.98871 L 807.6552,167.20287"
       id="path3687"
       sodipodi:nodetypes="ccc" />
  </g>
  <g
     inkscape:groupmode="layer"
     id="layer3"
     inkscape:label="Boxes"
     style="opacity:1;display:inline">
    <path
       style="fill:#e5e5e5;fill-opacity:1;stroke:#505050;stroke-width:1;stroke-miterlimit:4;stroke-dasharray:none;stroke-opacity:1"
       d="M 977.15625,-2.3125 L 977.15625,-1.4375 L 552.875,-1.4375 L 552.875,132.28125 L 977.15625,132.28125 L 977.15625,299.40625 L 1220.5938,299.40625 L 1220.5938,132.28125 L 1224.0313,132.28125 L 1224.0313,-1.4375 L 1220.5938,-1.4375 L 1220.5938,-2.3125 L 977.15625,-2.3125 z "
       id="rect3193" />
    <rect
       style="fill:#4d4d4d;fill-opacity:1;stroke:none;stroke-width:2;stroke-miterlimit:4;stroke-dasharray:12, 12;stroke-dashoffset:0;stroke-opacity:1"
       id="rect3269"
       width="300.86176"
       height="55.715137"
       x="563.15149"
       y="15.700554" />
    <path
       sodipodi:type="arc"
       style="fill:#000000;fill-opacity:1;stroke:#000000;stroke-width:1;stroke-miterlimit:4;stroke-dasharray:none;stroke-dashoffset:0;stroke-opacity:1"
       id="path3705"
       sodipodi:cx="934.72858"
       sodipodi:cy="517.56537"
       sodipodi:rx="8.1429815"
       sodipodi:ry="8.1429815"
       d="M 942.87156 517.56537 A 8.1429815 8.1429815 0 1 1  926.5856,517.56537 A 8.1429815 8.1429815 0 1 1  942.87156 517.56537 z" />
    <path
       sodipodi:type="arc"
       style="fill:#000000;fill-opacity:1;stroke:#000000;stroke-width:1;stroke-miterlimit:4;stroke-dasharray:none;stroke-dashoffset:0;stroke-opacity:1"
       id="path3711"
       sodipodi:cx="769.72607"
       sodipodi:cy="561.92322"
       sodipodi:rx="7.2858257"
       sodipodi:ry="7.0715365"
       d="M 777.0119 561.92322 A 7.2858257 7.0715365 0 1 1  762.44025,561.92322 A 7.2858257 7.0715365 0 1 1  777.0119 561.92322 z" />
    <path
       sodipodi:type="arc"
       style="fill:#000000;fill-opacity:1;stroke:#000000;stroke-width:1;stroke-miterlimit:4;stroke-dasharray:none;stroke-dashoffset:0;stroke-opacity:1"
       id="path3713"
       sodipodi:cx="766.94031"
       sodipodi:cy="516.92249"
       sodipodi:rx="7.9286928"
       sodipodi:ry="7.0715365"
       d="M 774.869 516.92249 A 7.9286928 7.0715365 0 1 1  759.01161,516.92249 A 7.9286928 7.0715365 0 1 1  774.869 516.92249 z" />
    <path
       sodipodi:type="arc"
       style="fill:#000000;fill-opacity:1;stroke:#000000;stroke-width:1;stroke-miterlimit:4;stroke-dasharray:none;stroke-dashoffset:0;stroke-opacity:1"
       id="path3717"
       sodipodi:cx="932.58569"
       sodipodi:cy="842.85608"
       sodipodi:rx="8.5715599"
       sodipodi:ry="8.1429815"
       d="M 941.15725 842.85608 A 8.5715599 8.1429815 0 1 1  924.01413,842.85608 A 8.5715599 8.1429815 0 1 1  941.15725 842.85608 z" />
    <path
       sodipodi:type="arc"
       style="fill:#000000;fill-opacity:1;stroke:#000000;stroke-width:1;stroke-miterlimit:4;stroke-dasharray:none;stroke-dashoffset:0;stroke-opacity:1"
       id="path3727"
       sodipodi:cx="930.44281"
       sodipodi:cy="800.85541"
       sodipodi:rx="7.2858257"
       sodipodi:ry="6.0000916"
       d="M 937.72864 800.85541 A 7.2858257 6.0000916 0 1 1  923.15698,800.85541 A 7.2858257 6.0000916 0 1 1  937.72864 800.85541 z" />
    <path
       sodipodi:type="arc"
       style="fill:#000000;fill-opacity:1;stroke:#000000;stroke-width:1;stroke-miterlimit:4;stroke-dasharray:none;stroke-dashoffset:0;stroke-opacity:1"
       id="path3729"
       sodipodi:cx="771.65466"
       sodipodi:cy="804.49835"
       sodipodi:rx="8.3572702"
       sodipodi:ry="7.5001144"
       d="M 780.01193 804.49835 A 8.3572702 7.5001144 0 1 1  763.29739,804.49835 A 8.3572702 7.5001144 0 1 1  780.01193 804.49835 z" />
    <path
       sodipodi:type="arc"
       style="fill:#000000;fill-opacity:1;stroke:#000000;stroke-width:1;stroke-miterlimit:4;stroke-dasharray:none;stroke-dashoffset:0;stroke-opacity:1"
       id="path3731"
       sodipodi:cx="774.65472"
       sodipodi:cy="842.2132"
       sodipodi:rx="8.3572702"
       sodipodi:ry="8.3572702"
       d="M 783.01199 842.2132 A 8.3572702 8.3572702 0 1 1  766.29745,842.2132 A 8.3572702 8.3572702 0 1 1  783.01199 842.2132 z" />
    <path
       style="fill:#000000;fill-opacity:1;fill-rule:evenodd;stroke:#000000;stroke-width:1px;stroke-linecap:butt;stroke-linejoin:miter;stroke-opacity:1"
       d="M 908.58532,22.129223 L 908.15674,37.986608 L 921.87124,29.415049 L 908.58532,22.129223 z "
       id="path3733" />
  </g>
  <g
     inkscape:groupmode="layer"
     id="layer1"
     inkscape:label="SvgFormat"
     style="opacity:1;display:inline">
    <rect
       style="fill:#bfbfbf;fill-opacity:1;stroke:#000000;stroke-opacity:1"
       id="rect4446"
       width="255.77428"
       height="480.03183"
       x="467.90982"
       y="413.36072"
       mask="none" />
    <rect
       style="fill:#e5e5e5;fill-opacity:1;stroke:none;stroke-opacity:1"
       id="rect6394"
       width="219.40849"
       height="226.6817"
       x="483.66843"
       y="425.48276" />
    <a
       id="a6402">
      <rect
         y="539.42969"
         x="226.6817"
         height="113.94695"
         width="478.81964"
         id="rect6400"
         style="fill:#dddddd;fill-opacity:1;stroke:#282828;stroke-opacity:1" />
    </a>
    <a
       id="a6409">
      <rect
         y="567.31036"
         x="255.77454"
         height="56.973473"
         width="195.16446"
         id="rect6407"
         style="fill:#ffffff;fill-opacity:1;stroke:#000000;stroke-opacity:1" />
    </a>
    <a
       id="a6414">
      <rect
         y="340.62866"
         x="56.973476"
         height="77.580902"
         width="170.92043"
         id="rect6412"
         style="fill:#ffffff;fill-opacity:1;stroke:#000000;stroke-opacity:1" />
    </a>
    <a
       id="a6419">
      <rect
         y="340.62866"
         x="509.12466"
         height="50.912468"
         width="170.92043"
         id="rect6417"
         style="fill:#ffffff;fill-opacity:1;stroke:#000000;stroke-opacity:1" />
    </a>
    <rect
       style="fill:#e5e5e5;fill-opacity:1;stroke:#282828;stroke-width:1.05133772;stroke-opacity:1;display:inline"
       id="rect6427-2-6"
       width="208.07695"
       height="433.05847"
       x="1003.172"
       y="433.46671" />
    <rect
       style="fill:#e5e5e5;fill-opacity:1;stroke:#282828;stroke-opacity:1"
       id="rect6427"
       width="707.92572"
       height="115.15915"
       x="-2.0693576"
       y="764.39709" />
    <rect
       y="564.38385"
       x="508.26752"
       height="60.610081"
       width="170.92043"
       id="rect6432"
       style="fill:#4d4d4d;fill-opacity:1;stroke:#000000;stroke-opacity:1" />
    <rect
       y="792.27777"
       x="508.26752"
       height="59.397877"
       width="172.13263"
       id="rect6434"
       style="fill:#4d4d4d;fill-opacity:1;stroke:#000000;stroke-opacity:1" />
    <rect
       y="791.06555"
       x="27.023479"
       height="59.397877"
       width="180.61804"
       id="rect6436"
       style="fill:#4d4d4d;fill-opacity:1;stroke:#000000;stroke-opacity:1" />
    <rect
       y="451.64908"
       x="509.47974"
       height="55.761272"
       width="169.70822"
       id="rect6438"
       style="fill:#4d4d4d;fill-opacity:1;stroke:#000000;stroke-opacity:1" />
    <path
       sodipodi:nodetypes="ccccc"
       id="rect6452"
       d="m 536.14815,696.51378 115.15915,-29.09284 0,71.51989 -115.15915,0 0,-42.42705 z"
       style="fill:#ffffff;fill-opacity:1;stroke:#000000;stroke-opacity:1"
       inkscape:connector-curvature="0" />
    <a
       style="fill:#e5e5e5;fill-opacity:1"
       id="a6471"
       transform="translate(-0.857156,-1.7143119)">
      <rect
         y="213.34747"
         x="-1.2122016"
         height="98.188332"
         width="710.35016"
         id="rect6469"
         style="fill:#bfbfbf;fill-opacity:1;stroke:#000000;stroke-opacity:1" />
      <rect
         style="fill:#ffffff;fill-opacity:1;stroke:#000000;stroke-opacity:1"
         id="rect6474"
         width="193.95226"
         height="59.397877"
         x="254.56233"
         y="793.99207" />
      <path
         sodipodi:type="star"
         style="fill:#ffffff;fill-opacity:1;stroke:#000000;stroke-opacity:1"
         id="path6478"
         sodipodi:sides="4"
         sodipodi:cx="812.17505"
         sodipodi:cy="318.80902"
         sodipodi:r1="61.822281"
         sodipodi:r2="43.714954"
         sodipodi:arg1="1.5707963"
         sodipodi:arg2="2.3561945"
         inkscape:flatsided="true"
         inkscape:rounded="0"
         inkscape:randomized="0"
         d="m 812.17505,380.6313 -61.82228,-61.82228 61.82228,-61.82228 61.82228,61.82228 z" />
      <a
         id="a6484">
        <rect
           rx="36.338993"
           y="128.49338"
           x="283.65515"
           height="58.18565"
           width="172.13269"
           id="rect6480"
           style="fill:#ffffff;fill-opacity:1;stroke:#000000;stroke-opacity:1" />
        <a
           id="a6490">
          <path
             sodipodi:nodetypes="ccccccc"
             id="path6487"
             d="m 785.28389,572.51422 -26.1405,-33.70917 26.60751,-32.01935 130.67352,1.12679 27.20563,29.57045 -26.46045,36.15807 -131.88571,-1.12679 z"
             style="fill:#ffffff;fill-opacity:1;stroke:#000000;stroke-opacity:1"
             inkscape:connector-curvature="0" />
          <path
             style="fill:#ffffff;fill-opacity:1;stroke:#000000;stroke-opacity:1"
             d="m 786.85113,855.37569 -26.1405,-33.70917 26.60751,-32.01935 130.67352,1.12679 0,0 27.20563,29.57045 -26.46045,36.15807 -131.88571,-1.12679 z"
             id="path6493"
             sodipodi:nodetypes="cccccccc"
             inkscape:connector-curvature="0" />
          <path
             sodipodi:nodetypes="ccccccccccccccc"
             id="path6495"
             d="M 301.97049,75.930066 288.90024,59.075481 275.82999,42.220896 289.13375,26.211221 302.4375,10.201546 l 65.33676,0.563395 65.33676,0.563395 0,0 0,0 13.60282,14.785225 13.60281,14.785225 -13.23022,18.079035 -13.23023,18.079035 -65.94285,-0.563395 -65.94286,-0.563395 z"
             style="fill:#ffffff;fill-opacity:1;stroke:#000000;stroke-opacity:1"
             inkscape:connector-curvature="0" />
        </a>
      </a>
      <rect
         style="fill:#ffffff;fill-opacity:1;stroke:#000000;stroke-opacity:1"
         id="rect6482"
         width="140.61536"
         height="67.883286"
         x="86.066315"
         y="15.75862"
         rx="26.9" />
    </a>
    <path
       style="fill:#ffffff;fill-opacity:1;stroke:#000000;stroke-opacity:1"
       d="m 527.66274,295.27508 -15.65993,-28.63748 16.97082,-27.88063 133.24348,0.75684 15.65993,28.63748 -16.97082,27.88064 -133.24348,-0.75685 z"
       id="path6499"
       sodipodi:nodetypes="ccccccc"
       inkscape:connector-curvature="0" />
    <path
       sodipodi:nodetypes="ccccccc"
       id="path6502"
       d="m 87.633566,288.00187 -15.65993,-28.63748 16.97082,-27.88063 101.726234,0.75684 15.65993,28.63748 -16.97082,27.88064 -101.726234,-0.75685 z"
       style="fill:#ffffff;fill-opacity:1;stroke:#000000;stroke-opacity:1"
       inkscape:connector-curvature="0" />
    <path
       style="fill:#ffffff;fill-opacity:1;stroke:#000000;stroke-opacity:1"
       d="m 1021.0287,279.51646 -15.6599,-28.63748 16.9708,-27.88063 56.8748,0.75684 15.6599,28.63748 -16.9708,27.88064 -56.8748,-0.75685 z"
       id="path6504"
       sodipodi:nodetypes="ccccccc"
       inkscape:connector-curvature="0" />
    <path
       style="fill:#ffffff;fill-opacity:1;stroke:#000000;stroke-opacity:1"
       d="m 1119.217,229.81619 77.5809,-31.51724 1.2122,81.21751 -78.7931,0 0,-49.70027 z"
       id="rect6506"
       sodipodi:nodetypes="ccccc"
       inkscape:connector-curvature="0" />
    <a
       style="fill:#e5e5e5;fill-opacity:1"
       id="a6511"
       transform="translate(-0.857156,-1.7143119)">
      <path
         style="fill:#000000;fill-opacity:1;stroke:none"
         d="m 1128.0625,141.3125 0,0.5 0,43.65625 0,0.5 0.5,0 71.5313,0 0.5,0 0,-0.5 0,-43.65625 0,-0.5 -0.5,0 -71.5313,0 -0.5,0 z m 1,1 70.5313,0 0,42.65625 -70.5313,0 0,-42.65625 z"
         id="rect6509"
         inkscape:connector-curvature="0" />
      <a
         id="a6516" />
      <path
         style="fill:#000000;fill-opacity:1;stroke:none"
         d="m 1005.625,140.125 0,0.5 0,47.28125 0,0.5 0.5,0 58.1875,0 0.5,0 0,-0.5 0,-47.28125 0,-0.5 -0.5,0 -58.1875,0 -0.5,0 z m 1,1 57.1875,0 0,46.28125 -57.1875,0 0,-46.28125 z"
         id="rect6519"
         inkscape:connector-curvature="0" />
    </a>
    <path
       style="fill:#ffffff;fill-opacity:1;stroke:#000000;stroke-width:1;stroke-miterlimit:4;stroke-opacity:1"
       d="M 908.84812,171.22347 C 895.5139,188.19429 825.35754,185.83491 821.56961,171.22347 C 849.45025,150.00994 890.96815,156.07095 908.84812,171.22347 z M 908.54507,171.82957 L 909.15117,232.74269 C 881.37155,246.48098 852.98583,256.88571 822.17571,231.22744 L 821.87266,171.52652"
       id="rect3210"
       sodipodi:nodetypes="ccccccc" />
  </g>
  <g
     inkscape:groupmode="layer"
     id="layer2"
     inkscape:label="ColorClarification"
     style="opacity:1;display:inline">
    <path
       style="fill:#4d4d4d;fill-opacity:1;stroke:#000000;stroke-width:3;stroke-miterlimit:4;stroke-opacity:1"
       d="M 1066.1313,189.10344 L 1126.4384,189.10344 L 1126.7415,136.97878 L 1064.01,136.97878"
       id="path3208" />
    <path
       style="fill:#ffffff;fill-opacity:1;stroke:#000000;stroke-width:3;stroke-miterlimit:4;stroke-opacity:1"
       d="M 1126.4384,189.10344 L 1126.7415,136.97878 L 1202.504,136.97878 L 1202.504,189.10344 L 1126.4384,189.10344 z "
       id="path3206" />
    <path
       style="fill:#bfbfbf;fill-opacity:1;stroke:#000000;stroke-width:3;stroke-miterlimit:4;stroke-opacity:1"
       d="M 1065.2222,136.97878 L 1064.9191,189.10344 L 1004.9151,189.10344 L 1004.9151,136.97878 L 1065.2222,136.97878 z "
       id="rect3201" />
  </g>
  <g
     inkscape:groupmode="layer"
     id="layer4"
     inkscape:label="Connecter+Text"
     style="opacity:1;display:inline">
    <path
       style="fill:none;fill-rule:evenodd;stroke:#000000;stroke-width:1px;stroke-linecap:butt;stroke-linejoin:miter;stroke-opacity:1"
       d="M 680.58183,481.13624 L 753.44009,500.85083"
       id="path3221" />
    <path
       style="fill:none;fill-rule:evenodd;stroke:#000000;stroke-width:1px;stroke-linecap:butt;stroke-linejoin:miter;stroke-opacity:1"
       d="M 682.29614,600.28092 L 752.58293,578.85202"
       id="path3223" />
    <path
       style="fill:none;fill-rule:evenodd;stroke:#000000;stroke-width:1px;stroke-linecap:butt;stroke-linejoin:miter;stroke-opacity:1"
       d="M 1020.8727,485.42202 C 951.44312,501.70798 953.15743,502.56514 953.15743,502.56514"
       id="path3229" />
    <path
       style="fill:none;fill-rule:evenodd;stroke:#000000;stroke-width:2;stroke-linecap:butt;stroke-linejoin:miter;marker-end:none;stroke-miterlimit:4;stroke-dasharray:16, 8;stroke-dashoffset:2;stroke-opacity:1"
       d="M 1020.0156,751.99752 C 1020.0156,751.99752 976.30064,745.99743 946.30018,784.56945"
       id="path3231" />
    <path
       style="fill:none;fill-rule:evenodd;stroke:#000000;stroke-width:2;stroke-linecap:butt;stroke-linejoin:miter;marker-end:none;stroke-miterlimit:4;stroke-dasharray:8, 16;stroke-dashoffset:2;stroke-opacity:1"
       d="M 1022.5871,823.99862 C 1022.5871,823.99862 952.30027,852.28477 952.30027,849.7133"
       id="path3233" />
    <path
       style="fill:none;fill-rule:evenodd;stroke:#000000;stroke-width:1px;stroke-linecap:butt;stroke-linejoin:miter;marker-end:none;stroke-opacity:1"
       d="M 684.01046,823.14147 C 684.01046,823.14147 704.5822,823.14147 715.72523,808.56982 C 726.86825,793.99817 750.86862,801.71257 750.86862,801.71257"
       id="path3235" />
    <path
       style="fill:none;fill-rule:evenodd;stroke:#000000;stroke-width:1px;stroke-linecap:butt;stroke-linejoin:miter;stroke-opacity:1"
       d="M 595.72339,626.85275 L 595.72339,654.28174"
       id="path3237" />
    <path
       style="fill:none;fill-rule:evenodd;stroke:#000000;stroke-width:1px;stroke-linecap:butt;stroke-linejoin:miter;stroke-opacity:1"
       d="M 595.72339,509.42239 L 595.72339,538.56569"
       id="path3239" />
    <path
       style="fill:none;fill-rule:evenodd;stroke:#000000;stroke-width:1px;stroke-linecap:butt;stroke-linejoin:miter;stroke-opacity:1"
       d="M 594.86624,392.84918 L 596.58055,427.13541"
       id="path3241" />
    <path
       style="fill:none;fill-rule:evenodd;stroke:#000000;stroke-width:1px;stroke-linecap:butt;stroke-linejoin:miter;stroke-opacity:1"
       d="M 595.72339,739.99734 L 595.72339,769.14064"
       id="path3243" />
    <path
       style="fill:none;fill-rule:evenodd;stroke:#000000;stroke-width:1px;stroke-linecap:butt;stroke-linejoin:miter;stroke-opacity:1"
       d="M 447.43541,822.28431 L 485.15027,823.99862"
       id="path3245" />
    <path
       style="fill:none;fill-rule:evenodd;stroke:#000000;stroke-width:0.54274029px;stroke-linecap:butt;stroke-linejoin:miter;stroke-opacity:1"
       d="M 879.7281,30.535679 L 914.29932,30.865888"
       id="path3247"
       sodipodi:nodetypes="cc" />
    <path
       style="fill:none;fill-rule:evenodd;stroke:#000000;stroke-width:1px;stroke-linecap:butt;stroke-linejoin:miter;stroke-opacity:1"
       d="M 879.44202,57.701196 L 924.87128,57.701196 L 938.58578,57.701196"
       id="path3249"
       sodipodi:nodetypes="ccc" />
    <path
       style="fill:none;fill-rule:evenodd;stroke:#000000;stroke-width:1px;stroke-linecap:butt;stroke-linejoin:miter;stroke-opacity:1"
       d="M 924.87128,57.701196 L 937.72862,49.129636"
       id="path3251" />
    <path
       style="fill:none;fill-rule:evenodd;stroke:#000000;stroke-width:1px;stroke-linecap:butt;stroke-linejoin:miter;stroke-opacity:1"
       d="M 937.51433,65.844177 L 925.08557,57.486907"
       id="path3253"
       sodipodi:nodetypes="cc" />
    <path
       style="fill:none;fill-rule:evenodd;stroke:#000000;stroke-width:1px;stroke-linecap:butt;stroke-linejoin:miter;stroke-opacity:1"
       d="M 567.43725,113.41633 L 602.58064,113.41633"
       id="path3255"
       sodipodi:nodetypes="cc" />
    <path
       style="fill:none;fill-rule:evenodd;stroke:#000000;stroke-width:1px;stroke-linecap:butt;stroke-linejoin:miter;stroke-opacity:1"
       d="M 568.2944,85.987343 L 609.43789,86.844499"
       id="path3257"
       sodipodi:nodetypes="cc" />
    <path
       style="fill:none;fill-rule:evenodd;stroke:#000000;stroke-width:1px;stroke-linecap:butt;stroke-linejoin:miter;stroke-opacity:1"
       d="M 568.2944,28.557893 L 624.00954,28.557893"
       id="path3259" />
    <path
       style="fill:none;fill-rule:evenodd;stroke:#000000;stroke-width:2;stroke-linecap:butt;stroke-linejoin:miter;stroke-miterlimit:4;stroke-dasharray:12, 12;stroke-dashoffset:0;stroke-opacity:1"
       d="M 565.72293,57.701196 L 627.43816,58.558352"
       id="path3267" />
    <path
       style="fill:none;fill-rule:evenodd;stroke:#000000;stroke-width:1px;stroke-linecap:butt;stroke-linejoin:miter;stroke-opacity:1"
       d="M 368.57706,126.91654 L 368.79135,74.630026"
       id="path3281"
       sodipodi:nodetypes="cc" />
    <path
       style="fill:none;fill-rule:evenodd;stroke:#000000;stroke-width:1px;stroke-linecap:butt;stroke-linejoin:miter;stroke-opacity:1"
       d="M 376.72005,74.844315 L 368.79135,84.273031"
       id="path3283"
       sodipodi:nodetypes="cc" />
    <path
       style="fill:none;fill-rule:evenodd;stroke:#000000;stroke-width:1px;stroke-linecap:butt;stroke-linejoin:miter;stroke-opacity:1"
       d="M 361.29124,74.844315 L 368.57706,84.273031"
       id="path3285"
       sodipodi:nodetypes="cc" />
    <path
       style="fill:none;fill-rule:evenodd;stroke:#000000;stroke-width:1px;stroke-linecap:butt;stroke-linejoin:miter;stroke-opacity:1"
       d="M 375.86288,126.91654 L 368.57706,118.77356"
       id="path3287"
       sodipodi:nodetypes="cc" />
    <path
       style="fill:none;fill-rule:evenodd;stroke:#000000;stroke-width:1px;stroke-linecap:butt;stroke-linejoin:miter;stroke-opacity:1"
       d="M 361.07695,126.91654 L 368.57706,118.55927"
       id="path3291"
       sodipodi:nodetypes="cc" />
    <path
       style="fill:none;fill-rule:evenodd;stroke:#000000;stroke-width:1px;stroke-linecap:butt;stroke-linejoin:miter;stroke-opacity:1"
       d="M 150.00229,325.99101 L 134.57349,325.13386 L 142.28789,338.84835 L 150.00229,325.99101 z "
       id="path3295" />
    <path
       style="fill:none;fill-rule:evenodd;stroke:#000000;stroke-width:1px;stroke-linecap:butt;stroke-linejoin:miter;stroke-opacity:1"
       d="M 609.43789,78.272939 L 609.43789,92.84459 L 622.29523,86.844499 L 609.43789,78.272939 z "
       id="path3297"
       sodipodi:nodetypes="cccc" />
    <path
       style="fill:none;fill-rule:evenodd;stroke:#000000;stroke-width:1px;stroke-linecap:butt;stroke-linejoin:miter;stroke-opacity:1"
       d="M 588.86614,325.13386 L 603.4378,324.2767 L 594.86624,339.70551 L 588.86614,325.13386 z "
       id="path3299" />
    <path
       style="fill:none;fill-rule:evenodd;stroke:#000000;stroke-width:1px;stroke-linecap:butt;stroke-linejoin:miter;stroke-opacity:1"
       d="M 595.72339,295.99055 L 596.58055,325.99101"
       id="path3301" />
    <path
       style="fill:none;fill-rule:evenodd;stroke:#000000;stroke-width:1px;stroke-linecap:butt;stroke-linejoin:miter;stroke-opacity:1"
       d="M 142.28789,325.13386 L 140.57358,289.13331"
       id="path3305" />
    <path
       style="fill:none;fill-rule:evenodd;stroke:#000000;stroke-width:2;stroke-linecap:butt;stroke-linejoin:miter;stroke-miterlimit:4;stroke-dasharray:6, 6;stroke-dashoffset:0;stroke-opacity:1"
       d="M 163.71679,289.99046 L 204.86027,368.84881"
       id="path3307" />
    <path
       style="fill:none;fill-rule:evenodd;stroke:#000000;stroke-width:2;stroke-linecap:butt;stroke-linejoin:miter;stroke-miterlimit:4;stroke-dasharray:6, 6;stroke-dashoffset:0;stroke-opacity:1"
       d="M 228.00349,370.56312 C 228.00349,370.56312 477.43587,302.8478 498.00761,329.41964"
       id="path3309" />
    <path
       style="fill:none;fill-rule:evenodd;stroke:#000000;stroke-width:2;stroke-linecap:butt;stroke-linejoin:miter;stroke-miterlimit:4;stroke-dasharray:8, 2;stroke-dashoffset:0;stroke-opacity:1"
       d="M 226.28917,377.42037 C 226.28917,377.42037 522.00798,359.42009 526.29376,379.13468"
       id="path3311" />
    <path
       style="fill:none;fill-rule:evenodd;stroke:#000000;stroke-width:1px;stroke-linecap:butt;stroke-linejoin:miter;stroke-opacity:1"
       d="M 348.00532,551.42303 L 363.43413,553.13734 L 354.00541,567.70899 L 348.00532,551.42303 z "
       id="path3313" />
    <path
       style="fill:none;fill-rule:evenodd;stroke:#000000;stroke-width:2;stroke-linecap:butt;stroke-linejoin:miter;stroke-miterlimit:4;stroke-dasharray:6, 6;stroke-dashoffset:0;stroke-opacity:1"
       d="M 356.57688,551.42303 C 356.57688,551.42303 364.29128,411.70661 524.57945,379.99184"
       id="path3315" />
    <path
       style="fill:none;fill-rule:evenodd;stroke:#000000;stroke-width:2;stroke-linecap:butt;stroke-linejoin:miter;stroke-miterlimit:4;stroke-dasharray:6, 6;stroke-dashoffset:0;stroke-opacity:1"
       d="M 527.15092,380.84899 C 527.15092,380.84899 416.5778,395.42064 410.5777,537.70853"
       id="path3319" />
    <path
       style="fill:none;fill-rule:evenodd;stroke:#000000;stroke-width:1px;stroke-linecap:butt;stroke-linejoin:miter;stroke-opacity:1"
       d="M 309.4333,653.42459 L 305.14752,778.56936"
       id="path3321" />
    <path
       style="fill:none;fill-rule:evenodd;stroke:#000000;stroke-width:1px;stroke-linecap:butt;stroke-linejoin:miter;stroke-opacity:1"
       d="M 312.86193,780.28367 L 294.86165,780.28367 L 303.43321,792.28385 L 312.86193,780.28367 z "
       id="path3323" />
    <path
       style="fill:none;fill-rule:evenodd;stroke:#000000;stroke-width:1px;stroke-linecap:butt;stroke-linejoin:miter;stroke-opacity:1"
       d="M 111.43028,779.42652 L 125.03762,779.74795 L 117.32323,790.89098 L 111.43028,779.42652 z "
       id="path3325"
       sodipodi:nodetypes="cccc" />
    <path
       style="fill:none;fill-rule:evenodd;stroke:#000000;stroke-width:1px;stroke-linecap:butt;stroke-linejoin:miter;stroke-opacity:1"
       d="M 118.28752,779.42651 L 143.14505,416.84954 C 143.14505,416.84954 138.85927,529.13697 161.14532,525.70835 C 183.43138,522.27973 343.71954,299.41918 519.43651,353.42"
       id="path3327" />
    <path
       style="fill:none;fill-rule:evenodd;stroke:#000000;stroke-width:2;stroke-linecap:butt;stroke-linejoin:miter;stroke-miterlimit:4;stroke-dasharray:6, 6;stroke-dashoffset:0;stroke-opacity:1"
       d="M 402.8633,655.1389 L 401.14899,776.85505"
       id="path3329" />
    <path
       style="fill:none;fill-rule:evenodd;stroke:#000000;stroke-width:1px;stroke-linecap:butt;stroke-linejoin:miter;stroke-opacity:1"
       d="M 394.29174,781.14083 L 408.86339,780.28367 L 402.00615,792.28385 L 394.29174,781.14083 z "
       id="path3331" />
    <path
       style="fill:none;fill-rule:evenodd;stroke:#000000;stroke-width:1px;stroke-linecap:butt;stroke-linejoin:miter;stroke-opacity:1"
       d="M 672.46039,258.31876 C 691.81993,268.25851 694.29633,269.41872 694.29633,269.41872 L 677.04922,268.81262"
       id="path3335"
       sodipodi:nodetypes="ccc" />
    <path
       style="fill:none;fill-rule:evenodd;stroke:#000000;stroke-width:1px;stroke-linecap:butt;stroke-linejoin:miter;stroke-opacity:1"
       d="M 670.13998,280.8648 L 693.43917,270.27587 C 693.43917,270.27587 733.7255,268.56156 756.01156,235.98964 C 778.29761,203.41771 809.2503,212.79443 809.2503,212.79443 L 821.85658,212.1408 L 821.96057,204.27487 L 809.30676,212.7469 L 821.90858,219.40062"
       id="path3337"
       sodipodi:nodetypes="ccsccccc" />
    <path
       style="fill:none;fill-rule:evenodd;stroke:#000000;stroke-width:1px;stroke-linecap:butt;stroke-linejoin:miter;stroke-opacity:1"
       d="M 779.15477,291.70477 C 779.15477,291.70477 757.72587,274.56165 748.29715,290.84762 C 738.86844,307.13358 729.43972,338.84835 708.86798,344.84844"
       id="path3339" />
    <path
       style="fill:none;fill-rule:evenodd;stroke:#000000;stroke-width:1px;stroke-linecap:butt;stroke-linejoin:miter;stroke-opacity:1"
       d="M 680.58183,369.70597 L 750.86862,356.84863"
       id="path3341" />
    <path
       style="fill:none;stroke:#000000;stroke-width:1.60199332;stroke-linecap:butt;stroke-linejoin:miter;stroke-miterlimit:4;stroke-opacity:1;stroke-dasharray:4.80597989, 4.80597989;stroke-dashoffset:0"
       d="m 662.38256,368.64981 c 0,0 114.39259,35.10935 216.70145,23.99139 102.30885,-11.11796 153.86609,23.99138 153.86609,23.99138"
       id="path3345"
       inkscape:connector-curvature="0" />
    <path
       style="fill:none;stroke:#000000;stroke-width:1px;stroke-linecap:butt;stroke-linejoin:miter;stroke-opacity:1"
       d="m 1044.5877,417.42129 -0.8572,15.4288 -12.0001,-11.14302 12.8573,-4.28578 z"
       id="path3347"
       inkscape:connector-curvature="0" />
    <path
       style="fill:#bfbfbf;fill-opacity:1;fill-rule:evenodd;stroke:#000000;stroke-width:1px;stroke-linecap:butt;stroke-linejoin:miter;stroke-opacity:1"
       d="M 956.58605,501.70798 L 945.44302,501.70798"
       id="path3349" />
    <path
       style="fill:none;fill-rule:evenodd;stroke:#787878;stroke-width:1px;stroke-linecap:butt;stroke-linejoin:miter;stroke-opacity:1"
       d="M 141.43073,215.41789 L 154.28807,97.13037"
       id="path3351" />
    <path
       style="fill:none;fill-rule:evenodd;stroke:#787878;stroke-width:1px;stroke-linecap:butt;stroke-linejoin:miter;stroke-opacity:1"
       d="M 510.0078,249.80812 C 510.0078,249.80812 230.57495,270.27587 184.28853,97.13037"
       id="path3353"
       sodipodi:nodetypes="cc" />
    <path
       style="fill:none;fill-rule:evenodd;stroke:#787878;stroke-width:1px;stroke-linecap:butt;stroke-linejoin:miter;stroke-opacity:1"
       d="M 592.29477,222.27514 C 592.29477,222.27514 576.86596,151.98835 522.00798,142.55964 C 467.15,133.13092 439.72101,85.130187 439.72101,85.130187 L 434.57807,79.130095"
       id="path3355" />
    <path
       style="fill:none;fill-rule:evenodd;stroke:#787878;stroke-width:2;stroke-linecap:butt;stroke-linejoin:miter;stroke-miterlimit:4;stroke-dasharray:8, 8;stroke-dashoffset:0;stroke-opacity:1"
       d="M 445.7211,60.272664 C 445.7211,60.272664 621.43807,229.98954 822.86972,175.13156"
       id="path3357"
       sodipodi:nodetypes="cc" />
    <path
       style="fill:none;fill-rule:evenodd;stroke:#787878;stroke-width:2;stroke-linecap:butt;stroke-linejoin:miter;stroke-miterlimit:4;stroke-dasharray:8, 8;stroke-dashoffset:0;stroke-opacity:1"
       d="M 888.87073,246.27551 C 888.87073,246.27551 1116.0171,543.70863 853.72734,787.14092"
       id="path3359"
       sodipodi:nodetypes="cc" />
    <path
       style="fill:none;fill-rule:evenodd;stroke:#787878;stroke-width:2;stroke-linecap:butt;stroke-linejoin:miter;stroke-miterlimit:4;stroke-dasharray:8, 8;stroke-dashoffset:0;stroke-opacity:1"
       d="M 915.44257,504.27945 C 915.44257,504.27945 960.01468,403.13505 869.15614,251.41844"
       id="path3361" />
    <path
       style="fill:none;fill-rule:evenodd;stroke:#000000;stroke-width:2;stroke-linecap:butt;stroke-linejoin:miter;stroke-miterlimit:4;stroke-dasharray:6, 6;stroke-dashoffset:0;stroke-opacity:1"
       d="M 656.58147,358.56294 L 624.00954,295.1334"
       id="path3363"
       sodipodi:nodetypes="cc" />
    <path
       style="fill:none;fill-rule:evenodd;stroke:#000000;stroke-width:2;stroke-linecap:butt;stroke-linejoin:miter;marker-start:none;stroke-miterlimit:4;stroke-dasharray:6, 6;stroke-dashoffset:0;stroke-opacity:1"
       d="M 565.72293,295.1334 L 536.57963,371.42028"
       id="path3365" />
    <path
       style="fill:none;fill-rule:evenodd;stroke:#000000;stroke-width:1px;stroke-linecap:butt;stroke-linejoin:miter;stroke-opacity:1"
       d="M 208.2889,850.57046 C 208.2889,850.57046 630.00963,987.71541 756.86871,858.28486"
       id="path3580" />
    <path
       sodipodi:type="star"
       style="fill:#000000;fill-opacity:1;stroke:#000000;stroke-width:1;stroke-miterlimit:4;stroke-dasharray:none;stroke-dashoffset:0;stroke-opacity:1"
       id="path3582"
       sodipodi:sides="3"
       sodipodi:cx="761.15448"
       sodipodi:cy="863.4278"
       sodipodi:r1="8.5715599"
       sodipodi:r2="4.28578"
       sodipodi:arg1="-0.92729522"
       sodipodi:arg2="0.11990233"
       inkscape:flatsided="true"
       inkscape:rounded="0"
       inkscape:randomized="0"
       d="M 766.29742,856.57055 L 764.52156,871.31033 L 752.64446,862.40251 L 766.29742,856.57055 z "
       transform="translate(0,-7.7144036)" />
    <path
       transform="translate(-6.8572477,-62.572385)"
       d="M 769.72604,865.99926 L 754.64174,869.56525 L 759.09566,854.71887 L 769.72604,865.99926 z "
       inkscape:randomized="0"
       inkscape:rounded="0"
       inkscape:flatsided="true"
       sodipodi:arg2="1.3386543"
       sodipodi:arg1="0.29145676"
       sodipodi:r2="4.28578"
       sodipodi:r1="8.9489708"
       sodipodi:cy="863.4278"
       sodipodi:cx="761.15448"
       sodipodi:sides="3"
       id="path3584"
       style="fill:#000000;fill-opacity:1;stroke:#000000;stroke-width:1;stroke-miterlimit:4;stroke-dasharray:none;stroke-dashoffset:0;stroke-opacity:1"
       sodipodi:type="star" />
    <path
       sodipodi:type="star"
       style="fill:#000000;fill-opacity:1;stroke:#000000;stroke-width:1;stroke-miterlimit:4;stroke-dasharray:none;stroke-dashoffset:0;stroke-opacity:1"
       id="path3588"
       sodipodi:sides="3"
       sodipodi:cx="761.15448"
       sodipodi:cy="863.4278"
       sodipodi:r1="8.9489708"
       sodipodi:r2="4.28578"
       sodipodi:arg1="0.29145676"
       sodipodi:arg2="1.3386543"
       inkscape:flatsided="true"
       inkscape:rounded="0"
       inkscape:randomized="0"
       d="M 769.72604,865.99926 L 754.64174,869.56525 L 759.09566,854.71887 L 769.72604,865.99926 z "
       transform="translate(180.00275,-73.715412)" />
    <path
       transform="translate(186.86001,-16.285963)"
       d="M 766.29742,856.57055 L 764.52156,871.31033 L 752.64446,862.40251 L 766.29742,856.57055 z "
       inkscape:randomized="0"
       inkscape:rounded="0"
       inkscape:flatsided="true"
       sodipodi:arg2="0.11990233"
       sodipodi:arg1="-0.92729522"
       sodipodi:r2="4.28578"
       sodipodi:r1="8.5715599"
       sodipodi:cy="863.4278"
       sodipodi:cx="761.15448"
       sodipodi:sides="3"
       id="path3590"
       style="fill:#000000;fill-opacity:1;stroke:#000000;stroke-width:1;stroke-miterlimit:4;stroke-dasharray:none;stroke-dashoffset:0;stroke-opacity:1"
       sodipodi:type="star" />
    <path
       sodipodi:type="star"
       style="fill:#000000;fill-opacity:1;stroke:#000000;stroke-width:1;stroke-miterlimit:4;stroke-dasharray:none;stroke-dashoffset:0;stroke-opacity:1"
       id="path3592"
       sodipodi:sides="3"
       sodipodi:cx="761.15448"
       sodipodi:cy="863.4278"
       sodipodi:r1="9.4287148"
       sodipodi:r2="4.28578"
       sodipodi:arg1="1.5707963"
       sodipodi:arg2="2.6179939"
       inkscape:flatsided="true"
       inkscape:rounded="0"
       inkscape:randomized="0"
       d="M 761.15448,872.85651 L 752.98897,858.71344 L 769.31999,858.71344 L 761.15448,872.85651 z "
       transform="translate(-165.21681,-91.501399)" />
    <path
       transform="translate(-164.78823,-81.215527)"
       d="M 761.15448,872.85651 L 752.98897,858.71344 L 769.31999,858.71344 L 761.15448,872.85651 z "
       inkscape:randomized="0"
       inkscape:rounded="0"
       inkscape:flatsided="true"
       sodipodi:arg2="2.6179939"
       sodipodi:arg1="1.5707963"
       sodipodi:r2="4.28578"
       sodipodi:r1="9.4287148"
       sodipodi:cy="863.4278"
       sodipodi:cx="761.15448"
       sodipodi:sides="3"
       id="path3596"
       style="fill:#000000;fill-opacity:1;stroke:#000000;stroke-width:1;stroke-miterlimit:4;stroke-dasharray:none;stroke-dashoffset:0;stroke-opacity:1"
       sodipodi:type="star" />
    <path
       sodipodi:type="star"
       style="fill:#000000;fill-opacity:1;stroke:#000000;stroke-width:1;stroke-miterlimit:4;stroke-dasharray:none;stroke-dashoffset:0;stroke-opacity:1"
       id="path3598"
       sodipodi:sides="3"
       sodipodi:cx="761.15448"
       sodipodi:cy="863.4278"
       sodipodi:r1="9.4287148"
       sodipodi:r2="4.28578"
       sodipodi:arg1="1.5707963"
       sodipodi:arg2="2.6179939"
       inkscape:flatsided="true"
       inkscape:rounded="0"
       inkscape:randomized="0"
       d="M 761.15448,872.85651 L 752.98897,858.71344 L 769.31999,858.71344 L 761.15448,872.85651 z "
       transform="translate(-165.64539,-192.00293)" />
    <path
       transform="translate(-165.4311,-205.50314)"
       d="M 761.15448,872.85651 L 752.98897,858.71344 L 769.31999,858.71344 L 761.15448,872.85651 z "
       inkscape:randomized="0"
       inkscape:rounded="0"
       inkscape:flatsided="true"
       sodipodi:arg2="2.6179939"
       sodipodi:arg1="1.5707963"
       sodipodi:r2="4.28578"
       sodipodi:r1="9.4287148"
       sodipodi:cy="863.4278"
       sodipodi:cx="761.15448"
       sodipodi:sides="3"
       id="path3600"
       style="fill:#000000;fill-opacity:1;stroke:#000000;stroke-width:1;stroke-miterlimit:4;stroke-dasharray:none;stroke-dashoffset:0;stroke-opacity:1"
       sodipodi:type="star" />
    <g
       id="g3623">
      <path
         transform="translate(-165.21681,-308.79043)"
         d="M 761.15448,872.85651 L 752.98897,858.71344 L 769.31999,858.71344 L 761.15448,872.85651 z "
         inkscape:randomized="0"
         inkscape:rounded="0"
         inkscape:flatsided="true"
         sodipodi:arg2="2.6179939"
         sodipodi:arg1="1.5707963"
         sodipodi:r2="4.28578"
         sodipodi:r1="9.4287148"
         sodipodi:cy="863.4278"
         sodipodi:cx="761.15448"
         sodipodi:sides="3"
         id="path3602"
         style="fill:#000000;fill-opacity:1;stroke:#000000;stroke-width:1;stroke-miterlimit:4;stroke-dasharray:none;stroke-dashoffset:0;stroke-opacity:1"
         sodipodi:type="star" />
      <path
         sodipodi:type="star"
         style="fill:#000000;fill-opacity:1;stroke:#000000;stroke-width:1;stroke-miterlimit:4;stroke-dasharray:none;stroke-dashoffset:0;stroke-opacity:1"
         id="path3604"
         sodipodi:sides="3"
         sodipodi:cx="761.15448"
         sodipodi:cy="863.4278"
         sodipodi:r1="9.4287148"
         sodipodi:r2="4.28578"
         sodipodi:arg1="1.5707963"
         sodipodi:arg2="2.6179939"
         inkscape:flatsided="true"
         inkscape:rounded="0"
         inkscape:randomized="0"
         d="M 761.15448,872.85651 L 752.98897,858.71344 L 769.31999,858.71344 L 761.15448,872.85651 z "
         transform="translate(-165.64539,-319.71917)" />
      <path
         sodipodi:type="star"
         style="fill:#000000;fill-opacity:1;stroke:#000000;stroke-width:1;stroke-miterlimit:4;stroke-dasharray:none;stroke-dashoffset:0;stroke-opacity:1"
         id="path3627"
         sodipodi:sides="3"
         sodipodi:cx="761.15448"
         sodipodi:cy="863.4278"
         sodipodi:r1="9.932128"
         sodipodi:r2="4.28578"
         sodipodi:arg1="-0.35245769"
         sodipodi:arg2="0.69473991"
         inkscape:flatsided="true"
         inkscape:rounded="0"
         inkscape:randomized="0"
         d="M 770.47605,859.99917 L 759.46297,873.21483 L 753.52442,857.06939 L 770.47605,859.99917 z "
         transform="translate(8.8929945,-512.04355)" />
      <path
         transform="translate(-5.8929478,-508.61492)"
         d="M 770.15462,861.2849 L 758.51021,872.29359 L 754.79861,856.70489 L 770.15462,861.2849 z "
         inkscape:randomized="0"
         inkscape:rounded="0"
         inkscape:flatsided="true"
         sodipodi:arg2="0.81345434"
         sodipodi:arg1="-0.23374326"
         sodipodi:r2="4.28578"
         sodipodi:r1="9.2517271"
         sodipodi:cy="863.4278"
         sodipodi:cx="761.15448"
         sodipodi:sides="3"
         id="path3629"
         style="fill:#000000;fill-opacity:1;stroke:#000000;stroke-width:1;stroke-miterlimit:4;stroke-dasharray:none;stroke-dashoffset:0;stroke-opacity:1"
         sodipodi:type="star" />
      <path
         transform="translate(-56.262841,-516.43778)"
         d="M 751.30811,868.71187 L 761.50152,852.25856 L 770.65381,869.31296 L 751.30811,868.71187 z "
         inkscape:randomized="0"
         inkscape:rounded="0"
         inkscape:flatsided="true"
         sodipodi:arg2="3.6962526"
         sodipodi:arg1="2.649055"
         sodipodi:r2="4.28578"
         sodipodi:r1="11.17463"
         sodipodi:cy="863.4278"
         sodipodi:cx="761.15448"
         sodipodi:sides="3"
         id="path3631"
         style="fill:#000000;fill-opacity:1;stroke:#000000;stroke-width:1;stroke-miterlimit:4;stroke-dasharray:none;stroke-dashoffset:0;stroke-opacity:1"
         sodipodi:type="star" />
      <path
         sodipodi:type="star"
         style="fill:#000000;fill-opacity:1;stroke:#000000;stroke-width:1;stroke-miterlimit:4;stroke-dasharray:none;stroke-dashoffset:0;stroke-opacity:1"
         id="path3633"
         sodipodi:sides="3"
         sodipodi:cx="761.15448"
         sodipodi:cy="863.4278"
         sodipodi:r1="11.17463"
         sodipodi:r2="4.28578"
         sodipodi:arg1="2.649055"
         sodipodi:arg2="3.6962526"
         inkscape:flatsided="true"
         inkscape:rounded="0"
         inkscape:randomized="0"
         d="M 751.30811,868.71187 L 761.50152,852.25856 L 770.65381,869.31296 L 751.30811,868.71187 z "
         transform="translate(-69.975871,-510.30101)" />
      <path
         sodipodi:type="arc"
         style="fill:none;fill-opacity:1;stroke:#000000;stroke-width:1;stroke-miterlimit:4;stroke-dasharray:none;stroke-dashoffset:0;stroke-opacity:1"
         id="path3635"
         sodipodi:cx="659.13458"
         sodipodi:cy="365.63031"
         sodipodi:rx="6.9701591"
         sodipodi:ry="6.212533"
         d="M 666.10474 365.63031 A 6.9701591 6.212533 0 1 1  652.16442,365.63031 A 6.9701591 6.212533 0 1 1  666.10474 365.63031 z" />
      <path
         sodipodi:type="arc"
         style="fill:none;fill-opacity:1;stroke:#000000;stroke-width:1;stroke-miterlimit:4;stroke-dasharray:none;stroke-dashoffset:0;stroke-opacity:1"
         id="path3639"
         sodipodi:cx="532.61108"
         sodipodi:cy="378.05539"
         sodipodi:rx="6.5155835"
         sodipodi:ry="6.212533"
         d="M 539.12667 378.05539 A 6.5155835 6.212533 0 1 1  526.0955,378.05539 A 6.5155835 6.212533 0 1 1  539.12667 378.05539 z" />
      <path
         sodipodi:type="arc"
         style="fill:none;fill-opacity:1;stroke:#000000;stroke-width:1;stroke-miterlimit:4;stroke-dasharray:none;stroke-dashoffset:0;stroke-opacity:1"
         id="path3641"
         sodipodi:cx="525.48938"
         sodipodi:cy="355.02353"
         sodipodi:rx="6.061008"
         sodipodi:ry="6.818634"
         d="M 531.55039 355.02353 A 6.061008 6.818634 0 1 1  519.42837,355.02353 A 6.061008 6.818634 0 1 1  531.55039 355.02353 z" />
      <path
         style="fill:none;fill-rule:evenodd;stroke:#000000;stroke-width:1px;stroke-linecap:butt;stroke-linejoin:miter;stroke-opacity:1"
         d="M 519.42838,357.59947 C 519.42838,357.59947 375.17639,340.02255 326.08223,540.64191"
         id="path3643" />
    </g>
    <path
       sodipodi:type="star"
       style="fill:#000000;fill-opacity:1;stroke:#000000;stroke-width:1;stroke-miterlimit:4;stroke-dasharray:none;stroke-dashoffset:0;stroke-opacity:1"
       id="path3606"
       sodipodi:sides="3"
       sodipodi:cx="761.15448"
       sodipodi:cy="863.4278"
       sodipodi:r1="8.3462734"
       sodipodi:r2="4.28578"
       sodipodi:arg1="0.83988953"
       sodipodi:arg2="1.8870871"
       inkscape:flatsided="true"
       inkscape:rounded="0"
       inkscape:randomized="0"
       d="M 766.72599,869.64218 L 752.98691,865.14568 L 763.75053,855.49553 L 766.72599,869.64218 z "
       transform="translate(-5.1429363,-360.0055)" />
    <path
       transform="translate(-6.4286702,-287.57583)"
       d="M 767.79744,857.64199 L 762.84365,872.07367 L 752.82235,860.56773 L 767.79744,857.64199 z "
       inkscape:randomized="0"
       inkscape:rounded="0"
       inkscape:flatsided="true"
       sodipodi:arg2="0.33065581"
       sodipodi:arg1="-0.71654176"
       sodipodi:r2="4.28578"
       sodipodi:r1="8.8093376"
       sodipodi:cy="863.4278"
       sodipodi:cx="761.15448"
       sodipodi:sides="3"
       id="path3608"
       style="fill:#000000;fill-opacity:1;stroke:#000000;stroke-width:1;stroke-miterlimit:4;stroke-dasharray:none;stroke-dashoffset:0;stroke-opacity:1"
       sodipodi:type="star" />
    <path
       sodipodi:type="star"
       style="fill:#000000;fill-opacity:1;stroke:#000000;stroke-width:1;stroke-miterlimit:4;stroke-dasharray:none;stroke-dashoffset:0;stroke-opacity:1"
       id="path3610"
       sodipodi:sides="3"
       sodipodi:cx="761.15448"
       sodipodi:cy="863.4278"
       sodipodi:r1="10.153318"
       sodipodi:r2="4.28578"
       sodipodi:arg1="2.3412703"
       sodipodi:arg2="3.3884679"
       inkscape:flatsided="true"
       inkscape:rounded="0"
       inkscape:randomized="0"
       d="M 754.08294,870.71362 L 758.38054,853.66075 L 770.99996,865.90901 L 754.08294,870.71362 z "
       transform="translate(186.86,-358.2912)" />
    <path
       style="fill:#000000;fill-opacity:1;stroke:#000000;stroke-width:1;stroke-miterlimit:4;stroke-dasharray:none;stroke-dashoffset:0;stroke-opacity:1"
       d="M 484.50417,831.51377 L 494.78542,825.57627 L 494.78542,831.07627 L 508.94167,822.92002 L 494.78542,814.76377 L 494.78542,821.13877 L 484.50417,815.20127 L 484.50417,831.51377 z "
       id="path3616"
       sodipodi:nodetypes="cccccccc" />
    <path
       sodipodi:nodetypes="cccccccc"
       id="path3621"
       d="M 484.50417,831.51377 L 494.78542,825.57627 L 494.78542,831.07627 L 508.94167,822.92002 L 494.78542,814.76377 L 494.78542,821.13877 L 484.50417,815.20127 L 484.50417,831.51377 z "
       style="fill:#000000;fill-opacity:1;stroke:#000000;stroke-width:1;stroke-miterlimit:4;stroke-dasharray:none;stroke-dashoffset:0;stroke-opacity:1" />
    <path
       style="fill:none;fill-rule:evenodd;stroke:#000000;stroke-width:1px;stroke-linecap:butt;stroke-linejoin:miter;stroke-opacity:1"
       d="M 505.48806,324.87003 L 493.6691,335.77984 L 510.03382,340.3256 L 505.48806,324.87003 z "
       id="path3645" />
    <path
       style="fill:#787878;fill-opacity:1;fill-rule:evenodd;stroke:#787878;stroke-width:1px;stroke-linecap:butt;stroke-linejoin:miter;stroke-opacity:1"
       d="M 509.73077,240.01592 L 520.64058,252.44099 L 505.48806,255.47149 L 510.63992,248.19828 L 509.73077,240.01592 z "
       id="path3647"
       sodipodi:nodetypes="ccccc" />
    <path
       style="fill:#787878;fill-opacity:1;fill-rule:evenodd;stroke:#787878;stroke-width:1px;stroke-linecap:butt;stroke-linejoin:miter;stroke-opacity:1"
       d="M 176.37533,100.30969 L 182.73939,96.066981 L 192.437,96.976132 L 179.40583,81.520562 L 176.37533,100.30969 z "
       id="path3651" />
    <path
       style="fill:#787878;fill-opacity:1;fill-rule:evenodd;stroke:#787878;stroke-width:1px;stroke-linecap:butt;stroke-linejoin:miter;stroke-opacity:1"
       d="M 162.43501,100.00664 L 156.374,82.429713 L 146.07029,97.582233 L 154.25265,95.76393 L 162.43501,100.00664 z "
       id="path3653" />
    <path
       style="fill:#787878;fill-opacity:1;fill-rule:evenodd;stroke:#787878;stroke-width:1px;stroke-linecap:butt;stroke-linejoin:miter;stroke-opacity:1"
       d="M 275.16976,181.83024 L 283.04907,187.28515 L 287.89788,195.16446 L 291.53448,176.98144 L 275.16976,181.83024 z "
       id="path3655" />
    <path
       style="fill:#787878;fill-opacity:1;fill-rule:evenodd;stroke:#787878;stroke-width:1px;stroke-linecap:butt;stroke-linejoin:miter;stroke-opacity:1"
       d="M 431.54376,89.096822 L 436.39257,83.641915 L 446.69628,82.429713 L 434.57427,74.550403 L 431.54376,89.096822 z "
       id="path3657" />
    <path
       style="fill:none;fill-rule:evenodd;stroke:#787878;stroke-width:1px;stroke-linecap:butt;stroke-linejoin:miter;stroke-opacity:1"
       d="M 449.12069,72.732101 L 445.30656,58.895773 L 458.2122,61.822286"
       id="path3659"
       sodipodi:nodetypes="ccc" />
    <path
       style="fill:none;fill-rule:evenodd;stroke:#787878;stroke-width:1px;stroke-linecap:butt;stroke-linejoin:miter;stroke-opacity:1"
       d="M 864.90583,262.1386 L 865.51193,247.28913 L 879.1492,256.68369"
       id="path3661" />
    <path
       style="fill:none;fill-rule:evenodd;stroke:#787878;stroke-width:1px;stroke-linecap:butt;stroke-linejoin:miter;stroke-opacity:1"
       d="M 887.93766,258.50199 L 887.33156,241.83422 L 900.66578,252.44099"
       id="path3663" />
    <path
       style="fill:none;fill-rule:evenodd;stroke:#787878;stroke-width:2;stroke-linecap:butt;stroke-linejoin:miter;stroke-miterlimit:4;stroke-dasharray:8, 2;stroke-dashoffset:0;stroke-opacity:1"
       d="M 205.46817,232.74271 C 205.46817,232.74271 238.19761,195.16446 251.53183,198.80107 C 264.86605,202.43767 283.04907,186.67905 283.04907,186.67905"
       id="path3665" />
    <path
       style="fill:#787878;fill-opacity:1;fill-rule:evenodd;stroke:#787878;stroke-width:1px;stroke-linecap:butt;stroke-linejoin:miter;stroke-opacity:1"
       d="M 196.67971,243.95557 L 215.16578,238.50067 L 205.16512,235.47016 L 202.43766,226.37865 L 196.67971,243.95557 z "
       id="path3667" />
    <path
       style="fill:#787878;fill-opacity:1;fill-rule:evenodd;stroke:#787878;stroke-width:1px;stroke-linecap:butt;stroke-linejoin:miter;stroke-opacity:1"
       d="M 223.95424,266.9874 L 220.31764,260.3203 L 223.34814,250.62268 L 206.37732,260.62335 L 223.95424,266.9874 z "
       id="path3669" />
    <path
       style="fill:none;fill-rule:evenodd;stroke:#787878;stroke-width:1px;stroke-linecap:butt;stroke-linejoin:miter;stroke-opacity:1"
       d="M 218.49934,259.41114 C 218.49934,259.41114 582.15981,183.04245 811.26591,193.95226"
       id="path3671"
       sodipodi:nodetypes="cc" />
    <path
       style="fill:#787878;fill-opacity:1;fill-rule:evenodd;stroke:#787878;stroke-width:1px;stroke-linecap:butt;stroke-linejoin:miter;stroke-opacity:1"
       d="M 805.811,201.83157 L 809.44761,194.55836 L 806.11405,185.7699 L 821.87267,193.34616 L 805.811,201.83157 z "
       id="path3673" />
    <path
       style="fill:#787878;fill-opacity:1;fill-rule:evenodd;stroke:#787878;stroke-width:1px;stroke-linecap:butt;stroke-linejoin:miter;stroke-opacity:1"
       d="M 213.34748,290.32229 L 195.77056,277.59417 L 215.77188,272.74536 L 208.49867,280.62467 L 213.34748,290.32229 z "
       id="path3677"
       sodipodi:nodetypes="ccccc" />
    <path
       style="fill:none;fill-rule:evenodd;stroke:#787878;stroke-width:1px;stroke-linecap:butt;stroke-linejoin:miter;stroke-opacity:1"
       d="M 209.10477,280.62467 C 209.10477,280.62467 387.90451,279.41247 497.00265,267.89656"
       id="path3679" />
    <path
       style="fill:#787878;fill-opacity:1;fill-rule:evenodd;stroke:#787878;stroke-width:1px;stroke-linecap:butt;stroke-linejoin:miter;stroke-opacity:1"
       d="M 495.79045,259.41114 L 497.00265,268.19961 L 493.06299,276.07892 L 513.36737,270.92706 L 495.79045,259.41114 z "
       id="path3681" />
    <path
       style="fill:#787878;fill-opacity:1;fill-rule:evenodd;stroke:#787878;stroke-width:1px;stroke-linecap:butt;stroke-linejoin:miter;stroke-opacity:1"
       d="M 583.67506,221.8329 L 595.19098,238.50067 L 600.34283,219.71154 L 593.67573,223.6512 L 583.67506,221.8329 z "
       id="path3685" />
    <path
       style="fill:none;fill-rule:evenodd;stroke:#000000;stroke-width:1px;stroke-linecap:butt;stroke-linejoin:miter;stroke-opacity:1"
       d="M 453.4355,157.55986 C 453.4355,157.55986 567.86582,165.27427 567.00867,238.98968"
       id="path3693" />
    <path
       style="fill:none;fill-rule:evenodd;stroke:#000000;stroke-width:1px;stroke-linecap:butt;stroke-linejoin:miter;stroke-opacity:1"
       d="M 573.86592,238.98968 L 565.72293,224.63231"
       id="path3695"
       sodipodi:nodetypes="cc" />
    <path
       style="fill:none;fill-rule:evenodd;stroke:#000000;stroke-width:1px;stroke-linecap:butt;stroke-linejoin:miter;stroke-opacity:1"
       d="M 556.7228,238.98968 L 565.72293,224.41803"
       id="path3697" />
    <path
       style="fill:none;fill-rule:evenodd;stroke:#000000;stroke-width:1px;stroke-linecap:butt;stroke-linejoin:miter;stroke-opacity:1"
       d="M 452.57835,163.98853 L 466.29284,158.8456"
       id="path3699" />
    <path
       style="fill:none;fill-rule:evenodd;stroke:#000000;stroke-width:1px;stroke-linecap:butt;stroke-linejoin:miter;stroke-opacity:1"
       d="M 453.4355,148.98831 L 465.64998,158.63131"
       id="path3701"
       sodipodi:nodetypes="cc" />
    <path
       sodipodi:type="arc"
       style="fill:none;fill-opacity:1;stroke:#000000;stroke-width:1;stroke-miterlimit:4;stroke-dasharray:none;stroke-dashoffset:0;stroke-opacity:1"
       id="path3703"
       sodipodi:cx="209.57463"
       sodipodi:cy="377.63464"
       sodipodi:rx="7.2858257"
       sodipodi:ry="6.6429586"
       d="M 216.86046 377.63464 A 7.2858257 6.6429586 0 1 1  202.28881,377.63464 A 7.2858257 6.6429586 0 1 1  216.86046 377.63464 z" />
    <path
       sodipodi:type="arc"
       style="fill:#000000;fill-opacity:1;stroke:#000000;stroke-width:1;stroke-miterlimit:4;stroke-dasharray:none;stroke-dashoffset:0;stroke-opacity:1"
       id="path3737"
       sodipodi:cx="929.15704"
       sodipodi:cy="28.772182"
       sodipodi:rx="7.2858257"
       sodipodi:ry="7.0715365"
       d="M 936.44287 28.772182 A 7.2858257 7.0715365 0 1 1  921.87122,28.772182 A 7.2858257 7.0715365 0 1 1  936.44287 28.772182 z" />
    <path
       style="fill:#787878;fill-opacity:1;fill-rule:evenodd;stroke:#787878;stroke-width:1px;stroke-linecap:butt;stroke-linejoin:miter;stroke-opacity:1"
       d="M 919.51406,77.201493 L 922.29981,85.987342 L 919.94264,94.558901 L 936.44289,86.41592 L 919.51406,77.201493 z "
       id="path3741" />
    <path
       style="fill:none;fill-rule:evenodd;stroke:#787878;stroke-width:1px;stroke-linecap:butt;stroke-linejoin:miter;stroke-opacity:1"
       d="M 879.6563,85.558764 L 924.87128,85.773053"
       id="path3743" />
    <path
       style="fill:none;fill-rule:evenodd;stroke:#787878;stroke-width:1px;stroke-linecap:butt;stroke-linejoin:miter;stroke-opacity:1"
       d="M 879.22773,113.84491 L 934.94286,114.48778 L 920.37121,106.55908 L 934.72858,114.27349 L 921.22837,121.34503"
       id="path3745" />
    <path
       style="fill:#000000;fill-opacity:1;fill-rule:evenodd;stroke:#000000;stroke-width:1px;stroke-linecap:butt;stroke-linejoin:miter;stroke-opacity:1"
       d="M 596.36626,106.98766 L 596.36626,121.7736 L 610.50933,114.70207 L 610.50933,121.7736 L 624.22383,114.0592 L 610.93791,107.20195 L 610.72362,114.48778 L 596.36626,106.98766 z "
       id="path3749" />
    <text
       xml:space="preserve"
       style="font-size:19.7131443px;font-style:normal;font-weight:normal;fill:#000000;fill-opacity:1;stroke:none;stroke-width:1px;stroke-linecap:butt;stroke-linejoin:miter;stroke-opacity:1;font-family:Bitstream Vera Sans"
       x="326.70981"
       y="46.360935"
       id="text3751"
       transform="scale(0.9925241,1.0075322)"><tspan
         sodipodi:role="line"
         id="tspan3753"
         x="326.70981"
         y="46.360935">UpStream</tspan><tspan
         sodipodi:role="line"
         x="326.70981"
         y="71.002366"
         id="tspan3755" /></text>
    <text
       xml:space="preserve"
       style="font-size:20.21870995px;font-style:normal;font-weight:normal;fill:#000000;fill-opacity:1;stroke:none;stroke-width:1px;stroke-linecap:butt;stroke-linejoin:miter;stroke-opacity:1;font-family:Bitstream Vera Sans"
       x="342.51453"
       y="162.70453"
       id="text3757"
       transform="scale(0.9774746,1.0230445)"><tspan
         sodipodi:role="line"
         id="tspan3759"
         x="342.51453"
         y="162.70453">Sources</tspan><tspan
         sodipodi:role="line"
         x="342.51453"
         y="187.97792"
         id="tspan3761" /></text>
    <text
       xml:space="preserve"
       style="font-size:20px;font-style:normal;font-variant:normal;font-weight:normal;font-stretch:normal;text-align:start;line-height:100%;writing-mode:lr-tb;text-anchor:start;fill:#000000;fill-opacity:1;stroke:none;stroke-width:1px;stroke-linecap:butt;stroke-linejoin:miter;stroke-opacity:1;font-family:sans"
       x="123.43046"
       y="42.272388"
       id="text3763"
       sodipodi:linespacing="100%"><tspan
         sodipodi:role="line"
         id="tspan3771"
         x="123.43046"
         y="42.272388">Security </tspan><tspan
         sodipodi:role="line"
         id="tspan3773"
         x="123.43046"
         y="62.272388">Patches</tspan></text>
    <text
       xml:space="preserve"
       style="font-size:20px;font-style:normal;font-variant:normal;font-weight:normal;font-stretch:normal;text-align:start;line-height:125%;writing-mode:lr-tb;text-anchor:start;fill:#000000;fill-opacity:1;stroke:none;stroke-width:1px;stroke-linecap:butt;stroke-linejoin:miter;stroke-opacity:1;font-family:sans"
       x="106.28734"
       y="252.2756"
       id="text3775"
       sodipodi:linespacing="125%"><tspan
         sodipodi:role="line"
         id="tspan3777"
         x="106.28734"
         y="252.2756">Security</tspan><tspan
         sodipodi:role="line"
         x="106.28734"
         y="277.2756"
         id="tspan3779">Team</tspan></text>
    <text
       xml:space="preserve"
       style="font-size:20px;font-style:normal;font-variant:normal;font-weight:normal;font-stretch:normal;text-align:start;line-height:125%;writing-mode:lr-tb;text-anchor:start;fill:#000000;fill-opacity:1;stroke:none;stroke-width:1px;stroke-linecap:butt;stroke-linejoin:miter;stroke-opacity:1;font-family:sans"
       x="105.43018"
       y="368.84882"
       id="text3781"
       sodipodi:linespacing="125%"><tspan
         sodipodi:role="line"
         id="tspan3783"
         x="105.43018"
         y="368.84882">Security</tspan><tspan
         sodipodi:role="line"
         x="105.43018"
         y="393.84882"
         id="tspan3785">incoming</tspan></text>
    <text
       xml:space="preserve"
       style="font-size:20px;font-style:normal;font-variant:normal;font-weight:normal;font-stretch:normal;text-align:start;line-height:125%;writing-mode:lr-tb;text-anchor:start;fill:#000000;fill-opacity:1;stroke:none;stroke-width:1px;stroke-linecap:butt;stroke-linejoin:miter;stroke-opacity:1;font-family:sans"
       x="642.86694"
       y="94.558899"
       id="text3787"
       sodipodi:linespacing="125%"><tspan
         sodipodi:role="line"
         id="tspan3789"
         x="642.86694"
         y="94.558899">(Manual) package upload</tspan></text>
    <text
       xml:space="preserve"
       style="font-size:20px;font-style:normal;font-variant:normal;font-weight:normal;font-stretch:normal;text-align:start;line-height:125%;writing-mode:lr-tb;text-anchor:start;fill:#000000;fill-opacity:1;stroke:none;stroke-width:1px;stroke-linecap:butt;stroke-linejoin:miter;stroke-opacity:1;font-family:sans"
       x="642.00983"
       y="121.98789"
       id="text3791"
       sodipodi:linespacing="125%"><tspan
         sodipodi:role="line"
         id="tspan3793"
         x="642.00983"
         y="121.98789">automatic processing</tspan></text>
    <text
       xml:space="preserve"
       style="font-size:20px;font-style:normal;font-variant:normal;font-weight:normal;font-stretch:normal;text-align:start;line-height:125%;writing-mode:lr-tb;text-anchor:start;fill:#000000;fill-opacity:1;stroke:none;stroke-width:1px;stroke-linecap:butt;stroke-linejoin:miter;stroke-opacity:1;font-family:sans"
       x="637.72406"
       y="65.415604"
       id="text3795"
       sodipodi:linespacing="125%"><tspan
         sodipodi:role="line"
         id="tspan3797"
         x="637.72406"
         y="65.415604"> special/optional process</tspan></text>
    <text
       xml:space="preserve"
       style="font-size:20px;font-style:normal;font-variant:normal;font-weight:normal;font-stretch:normal;text-align:start;line-height:125%;writing-mode:lr-tb;text-anchor:start;fill:#000000;fill-opacity:1;stroke:none;stroke-width:1px;stroke-linecap:butt;stroke-linejoin:miter;stroke-opacity:1;font-family:sans"
       x="638.58118"
       y="37.98661"
       id="text3799"
       sodipodi:linespacing="125%"><tspan
         sodipodi:role="line"
         id="tspan3801"
         x="638.58118"
         y="37.98661">Standard process</tspan></text>
    <text
       xml:space="preserve"
       style="font-size:20px;font-style:normal;font-variant:normal;font-weight:normal;font-stretch:normal;text-align:start;line-height:125%;writing-mode:lr-tb;text-anchor:start;fill:#000000;fill-opacity:1;stroke:none;stroke-width:1px;stroke-linecap:butt;stroke-linejoin:miter;stroke-opacity:1;font-family:sans"
       x="848.58441"
       y="214.56075"
       id="text3803"
       sodipodi:linespacing="125%"><tspan
         sodipodi:role="line"
         id="tspan3805"
         x="848.58441"
         y="214.56075">BTS</tspan></text>
    <text
       xml:space="preserve"
       style="font-size:20px;font-style:normal;font-variant:normal;font-weight:normal;font-stretch:normal;text-align:start;line-height:125%;writing-mode:lr-tb;text-anchor:start;fill:#000000;fill-opacity:1;stroke:none;stroke-width:1px;stroke-linecap:butt;stroke-linejoin:miter;stroke-opacity:1;font-family:sans"
       x="950.58594"
       y="32.843674"
       id="text3813"
       sodipodi:linespacing="125%"><tspan
         sodipodi:role="line"
         id="tspan3815"
         x="950.58594"
         y="32.843674">package installation</tspan></text>
    <text
       xml:space="preserve"
       style="font-size:20px;font-style:normal;font-variant:normal;font-weight:normal;font-stretch:normal;text-align:start;line-height:125%;writing-mode:lr-tb;text-anchor:start;fill:#000000;fill-opacity:1;stroke:none;stroke-width:1px;stroke-linecap:butt;stroke-linejoin:miter;stroke-opacity:1;font-family:sans"
       x="1156.3033"
       y="17.414865"
       id="text3817"
       sodipodi:linespacing="125%"><tspan
         sodipodi:role="line"
         id="tspan3819"
         x="1156.3033"
         y="17.414865">Legend</tspan></text>
    <text
       xml:space="preserve"
       style="font-size:20px;font-style:normal;font-variant:normal;font-weight:normal;font-stretch:normal;text-align:start;line-height:125%;writing-mode:lr-tb;text-anchor:start;fill:#000000;fill-opacity:1;stroke:none;stroke-width:1px;stroke-linecap:butt;stroke-linejoin:miter;stroke-opacity:1;font-family:sans"
       x="951.44312"
       y="62.844131"
       id="text3821"
       sodipodi:linespacing="125%"><tspan
         sodipodi:role="line"
         id="tspan3823"
         x="951.44312"
         y="62.844131">maintenance responsibility</tspan></text>
    <text
       xml:space="preserve"
       style="font-size:20px;font-style:normal;font-variant:normal;font-weight:normal;font-stretch:normal;text-align:start;line-height:125%;writing-mode:lr-tb;text-anchor:start;fill:#000000;fill-opacity:1;stroke:none;stroke-width:1px;stroke-linecap:butt;stroke-linejoin:miter;stroke-opacity:1;font-family:sans"
       x="950.58594"
       y="90.273125"
       id="text3825"
       sodipodi:linespacing="125%"><tspan
         sodipodi:role="line"
         id="tspan3827"
         x="950.58594"
         y="90.273125">exchange help, discussion</tspan></text>
    <text
       xml:space="preserve"
       style="font-size:20px;font-style:normal;font-variant:normal;font-weight:normal;font-stretch:normal;text-align:start;line-height:125%;writing-mode:lr-tb;text-anchor:start;fill:#000000;fill-opacity:1;stroke:none;stroke-width:1px;stroke-linecap:butt;stroke-linejoin:miter;stroke-opacity:1;font-family:sans"
       x="950.58594"
       y="120.27358"
       id="text3829"
       sodipodi:linespacing="125%"><tspan
         sodipodi:role="line"
         id="tspan3831"
         x="950.58594"
         y="120.27358">submission, notification</tspan></text>
    <text
       xml:space="preserve"
       style="font-size:20px;font-style:normal;font-variant:normal;font-weight:normal;font-stretch:normal;text-align:start;line-height:125%;writing-mode:lr-tb;text-anchor:start;fill:#000000;fill-opacity:1;stroke:none;stroke-width:1px;stroke-linecap:butt;stroke-linejoin:miter;stroke-opacity:1;font-family:sans"
       x="780.86908"
       y="325.13385"
       id="text3833"
       sodipodi:linespacing="125%"><tspan
         sodipodi:role="line"
         id="tspan3835"
         x="780.86908"
         y="325.13385">builds</tspan></text>
    <text
       xml:space="preserve"
       style="font-size:20px;font-style:normal;font-variant:normal;font-weight:normal;font-stretch:normal;text-align:start;line-height:125%;writing-mode:lr-tb;text-anchor:start;fill:#000000;fill-opacity:1;stroke:none;stroke-width:1px;stroke-linecap:butt;stroke-linejoin:miter;stroke-opacity:1;font-family:sans"
       x="555.43707"
       y="373.13458"
       id="text3837"
       sodipodi:linespacing="125%"><tspan
         sodipodi:role="line"
         id="tspan3839"
         x="555.43707"
         y="373.13458">incoming</tspan></text>
    <text
       xml:space="preserve"
       style="font-size:20px;font-style:normal;font-variant:normal;font-weight:normal;font-stretch:normal;text-align:start;line-height:125%;writing-mode:lr-tb;text-anchor:start;fill:#000000;fill-opacity:1;stroke:none;stroke-width:1px;stroke-linecap:butt;stroke-linejoin:miter;stroke-opacity:1;font-family:sans"
       x="546.00836"
       y="264.27579"
       id="text3841"
       sodipodi:linespacing="125%"><tspan
         sodipodi:role="line"
         id="tspan3843"
         x="546.00836"
         y="264.27579">developer/</tspan><tspan
         sodipodi:role="line"
         x="546.00836"
         y="289.27579"
         id="tspan3845">maintainer</tspan></text>
    <text
       xml:space="preserve"
       style="font-size:20px;font-style:normal;font-variant:normal;font-weight:normal;font-stretch:normal;text-align:start;line-height:125%;writing-mode:lr-tb;text-anchor:start;fill:#000000;fill-opacity:1;stroke:none;stroke-width:1px;stroke-linecap:butt;stroke-linejoin:miter;stroke-opacity:1;font-family:sans"
       x="614.58081"
       y="232.561"
       id="text3847"
       sodipodi:linespacing="125%"><tspan
         sodipodi:role="line"
         id="tspan3849"
         x="614.58081"
         y="232.561">packaging</tspan></text>
    <text
       xml:space="preserve"
       style="font-size:20px;font-style:normal;font-variant:normal;font-weight:normal;font-stretch:normal;text-align:start;line-height:125%;writing-mode:lr-tb;text-anchor:start;fill:#000000;fill-opacity:1;stroke:none;stroke-width:1px;stroke-linecap:butt;stroke-linejoin:miter;stroke-opacity:1;font-family:sans"
       x="797.15503"
       y="535.13708"
       id="text3859"
       sodipodi:linespacing="125%"><tspan
         sodipodi:role="line"
         id="tspan3861"
         x="797.15503"
         y="535.13708">power user/</tspan><tspan
         sodipodi:role="line"
         x="797.15503"
         y="560.13708"
         id="tspan3863">developer</tspan></text>
    <text
       xml:space="preserve"
       style="font-size:20px;font-style:normal;font-variant:normal;font-weight:normal;font-stretch:normal;text-align:start;line-height:125%;writing-mode:lr-tb;text-anchor:start;fill:#000000;fill-opacity:1;stroke:none;stroke-width:1px;stroke-linecap:butt;stroke-linejoin:miter;stroke-opacity:1;font-family:sans"
       x="805.72662"
       y="817.14136"
       id="text3881"
       sodipodi:linespacing="125%"><tspan
         sodipodi:role="line"
         id="tspan3883"
         x="805.72662"
         y="817.14136">    user/</tspan><tspan
         sodipodi:role="line"
         x="805.72662"
         y="842.14136"
         id="tspan3885">production</tspan></text>
    <text
       xml:space="preserve"
       style="font-size:20px;font-style:normal;font-variant:normal;font-weight:normal;font-stretch:normal;text-align:start;line-height:125%;writing-mode:lr-tb;text-anchor:start;fill:#ffffff;fill-opacity:1;stroke:none;stroke-width:1px;stroke-linecap:butt;stroke-linejoin:miter;stroke-opacity:1;font-family:sans"
       x="556.29425"
       y="488.85065"
       id="text3901"
       sodipodi:linespacing="125%"><tspan
         sodipodi:role="line"
         id="tspan3903"
         x="556.29425"
         y="488.85065">unstable</tspan></text>
    <text
       xml:space="preserve"
       style="font-size:20px;font-style:normal;font-variant:normal;font-weight:normal;font-stretch:normal;text-align:start;line-height:125%;writing-mode:lr-tb;text-anchor:start;fill:#ffffff;fill-opacity:1;stroke:none;stroke-width:1px;stroke-linecap:butt;stroke-linejoin:miter;stroke-opacity:1;font-family:sans"
       x="565.7229"
       y="603.70953"
       id="text3905"
       sodipodi:linespacing="125%"><tspan
         sodipodi:role="line"
         id="tspan3907"
         x="565.7229"
         y="603.70953">testing</tspan></text>
    <text
       xml:space="preserve"
       style="font-size:20px;font-style:normal;font-variant:normal;font-weight:normal;font-stretch:normal;text-align:start;line-height:125%;writing-mode:lr-tb;text-anchor:start;fill:#000000;fill-opacity:1;stroke:none;stroke-width:1px;stroke-linecap:butt;stroke-linejoin:miter;stroke-opacity:1;font-family:sans"
       x="569.15155"
       y="724.56854"
       id="text3909"
       sodipodi:linespacing="125%"><tspan
         sodipodi:role="line"
         id="tspan3911"
         x="569.15155"
         y="724.56854">frozen</tspan></text>
    <text
       xml:space="preserve"
       style="font-size:20px;font-style:normal;font-variant:normal;font-weight:normal;font-stretch:normal;text-align:start;line-height:125%;writing-mode:lr-tb;text-anchor:start;fill:#000000;fill-opacity:1;stroke:none;stroke-width:1px;stroke-linecap:butt;stroke-linejoin:miter;stroke-opacity:1;font-family:sans"
       x="456.00696"
       y="589.99506"
       id="text3913"
       sodipodi:linespacing="125%"><tspan
         sodipodi:role="line"
         id="tspan3915"
         x="456.00696"
         y="589.99506">by</tspan><tspan
         sodipodi:role="line"
         x="456.00696"
         y="614.99506"
         id="tspan3917">RM</tspan></text>
    <text
       xml:space="preserve"
       style="font-size:20px;font-style:normal;font-variant:normal;font-weight:normal;font-stretch:normal;text-align:start;line-height:125%;writing-mode:lr-tb;text-anchor:start;fill:#000000;fill-opacity:1;stroke:none;stroke-width:1px;stroke-linecap:butt;stroke-linejoin:miter;stroke-opacity:1;font-family:sans"
       x="642.86694"
       y="557.4231"
       id="text3919"
       sodipodi:linespacing="125%"><tspan
         sodipodi:role="line"
         id="tspan3921"
         x="642.86694"
         y="557.4231">testing</tspan></text>
    <text
       xml:space="preserve"
       style="font-size:20px;font-style:normal;font-variant:normal;font-weight:normal;font-stretch:normal;text-align:start;line-height:125%;writing-mode:lr-tb;text-anchor:start;fill:#000000;fill-opacity:1;stroke:none;stroke-width:1px;stroke-linecap:butt;stroke-linejoin:miter;stroke-opacity:1;font-family:sans"
       x="626.58099"
       y="444.27853"
       id="text3923"
       sodipodi:linespacing="125%"><tspan
         sodipodi:role="line"
         id="tspan3925"
         x="626.58099"
         y="444.27853">unstable</tspan></text>
    <text
       xml:space="preserve"
       style="font-size:20px;font-style:normal;font-variant:normal;font-weight:normal;font-stretch:normal;text-align:start;line-height:125%;writing-mode:lr-tb;text-anchor:start;fill:#000000;fill-opacity:1;stroke:none;stroke-width:1px;stroke-linecap:butt;stroke-linejoin:miter;stroke-opacity:1;font-family:sans"
       x="653.15283"
       y="784.56946"
       id="text3927"
       sodipodi:linespacing="125%"><tspan
         sodipodi:role="line"
         id="tspan3929"
         x="653.15283"
         y="784.56946">stable</tspan></text>
    <text
       xml:space="preserve"
       style="font-size:20px;font-style:normal;font-variant:normal;font-weight:normal;font-stretch:normal;text-align:start;line-height:125%;writing-mode:lr-tb;text-anchor:start;fill:#ffffff;fill-opacity:1;stroke:none;stroke-width:1px;stroke-linecap:butt;stroke-linejoin:miter;stroke-opacity:1;font-family:sans"
       x="567.43726"
       y="829.99872"
       id="text3931"
       sodipodi:linespacing="125%"><tspan
         sodipodi:role="line"
         id="tspan3933"
         x="567.43726"
         y="829.99872">stable</tspan></text>
    <text
       xml:space="preserve"
       style="font-size:20px;font-style:normal;font-variant:normal;font-weight:normal;font-stretch:normal;text-align:start;line-height:125%;writing-mode:lr-tb;text-anchor:start;fill:#000000;fill-opacity:1;stroke:none;stroke-width:1px;stroke-linecap:butt;stroke-linejoin:miter;stroke-opacity:1;font-family:sans"
       x="274.28992"
       y="602.85242"
       id="text3935"
       sodipodi:linespacing="125%"><tspan
         sodipodi:role="line"
         id="tspan3937"
         x="274.28992"
         y="602.85242">proposed updates</tspan></text>
    <text
       xml:space="preserve"
       style="font-size:20px;font-style:normal;font-variant:normal;font-weight:normal;font-stretch:normal;text-align:start;line-height:125%;writing-mode:lr-tb;text-anchor:start;fill:#000000;fill-opacity:1;stroke:none;stroke-width:1px;stroke-linecap:butt;stroke-linejoin:miter;stroke-opacity:1;font-family:sans"
       x="275.14706"
       y="829.14154"
       id="text3939"
       sodipodi:linespacing="125%"><tspan
         sodipodi:role="line"
         id="tspan3941"
         x="275.14706"
         y="829.14154">proposed updates</tspan></text>
    <text
       xml:space="preserve"
       style="font-size:20px;font-style:normal;font-variant:normal;font-weight:normal;font-stretch:normal;text-align:start;line-height:125%;writing-mode:lr-tb;text-anchor:start;fill:#ffffff;fill-opacity:1;stroke:none;font-family:sans"
       x="112.00571"
       y="813.71301"
       id="text3943"
       sodipodi:linespacing="125%"><tspan
         sodipodi:role="line"
         id="tspan3945"
         x="112.00571"
         y="813.71301"
         style="text-align:center;text-anchor:middle">security</tspan><tspan
         sodipodi:role="line"
         x="112.00571"
         y="838.71301"
         id="tspan3443"
         style="text-align:center;text-anchor:middle">updates</tspan></text>
    <text
       xml:space="preserve"
       style="font-size:20px;font-style:normal;font-variant:normal;font-weight:normal;font-stretch:normal;text-align:start;line-height:125%;writing-mode:lr-tb;text-anchor:start;fill:#000000;fill-opacity:1;stroke:none;stroke-width:1px;stroke-linecap:butt;stroke-linejoin:miter;stroke-opacity:1;font-family:sans"
       x="453.43552"
       y="819.71283"
       id="text3947"
       sodipodi:linespacing="125%"><tspan
         sodipodi:role="line"
         id="tspan3949"
         x="453.43552"
         y="819.71283">by</tspan><tspan
         sodipodi:role="line"
         x="453.43552"
         y="844.71283"
         id="tspan3951">stable</tspan><tspan
         sodipodi:role="line"
         x="453.43552"
         y="869.71283"
         id="tspan3953">RM</tspan></text>
    <path
       transform="translate(-164.78823,-419.14926)"
       d="M 761.15448,872.85651 L 752.98897,858.71344 L 769.31999,858.71344 L 761.15448,872.85651 z "
       inkscape:randomized="0"
       inkscape:rounded="0"
       inkscape:flatsided="true"
       sodipodi:arg2="2.6179939"
       sodipodi:arg1="1.5707963"
       sodipodi:r2="4.28578"
       sodipodi:r1="9.4287148"
       sodipodi:cy="863.4278"
       sodipodi:cx="761.15448"
       sodipodi:sides="3"
       id="path3955"
       style="fill:#000000;fill-opacity:1;stroke:#000000;stroke-width:1;stroke-miterlimit:4;stroke-dasharray:none;stroke-dashoffset:0;stroke-opacity:1"
       sodipodi:type="star" />
    <path
       sodipodi:type="star"
       style="fill:#000000;fill-opacity:1;stroke:#000000;stroke-width:1;stroke-miterlimit:4;stroke-dasharray:none;stroke-dashoffset:0;stroke-opacity:1"
       id="path3957"
       sodipodi:sides="3"
       sodipodi:cx="761.15448"
       sodipodi:cy="863.4278"
       sodipodi:r1="9.4287148"
       sodipodi:r2="4.28578"
       sodipodi:arg1="1.5707963"
       sodipodi:arg2="2.6179939"
       inkscape:flatsided="true"
       inkscape:rounded="0"
       inkscape:randomized="0"
       d="M 761.15448,872.85651 L 752.98897,858.71344 L 769.31999,858.71344 L 761.15448,872.85651 z "
       transform="translate(-164.57394,-432.64947)" />
    <path
       transform="matrix(0,-1,1,0,-376.77745,1357.1496)"
       d="M 761.15448,872.85651 L 752.98897,858.71344 L 769.31999,858.71344 L 761.15448,872.85651 z "
       inkscape:randomized="0"
       inkscape:rounded="0"
       inkscape:flatsided="true"
       sodipodi:arg2="2.6179939"
       sodipodi:arg1="1.5707963"
       sodipodi:r2="4.28578"
       sodipodi:r1="9.4287148"
       sodipodi:cy="863.4278"
       sodipodi:cx="761.15448"
       sodipodi:sides="3"
       id="path3961"
       style="fill:#000000;fill-opacity:1;stroke:#000000;stroke-width:1;stroke-miterlimit:4;stroke-dasharray:none;stroke-dashoffset:0;stroke-opacity:1"
       sodipodi:type="star" />
    <path
       sodipodi:type="star"
       style="fill:#000000;fill-opacity:1;stroke:#000000;stroke-width:1;stroke-miterlimit:4;stroke-dasharray:none;stroke-dashoffset:0;stroke-opacity:1"
       id="path3963"
       sodipodi:sides="3"
       sodipodi:cx="761.15448"
       sodipodi:cy="863.4278"
       sodipodi:r1="9.4287148"
       sodipodi:r2="4.28578"
       sodipodi:arg1="1.5707963"
       sodipodi:arg2="2.6179939"
       inkscape:flatsided="true"
       inkscape:rounded="0"
       inkscape:randomized="0"
       d="M 761.15448,872.85651 L 752.98897,858.71344 L 769.31999,858.71344 L 761.15448,872.85651 z "
       transform="matrix(0,-1,1,0,-365.20584,1357.5782)" />
    <path
       style="fill:none;fill-rule:evenodd;stroke:#000000;stroke-width:1px;stroke-linecap:butt;stroke-linejoin:miter;stroke-opacity:1"
       d="M 482.15023,596.85229 L 450.43546,595.99514"
       id="path3965" />
    <text
       xml:space="preserve"
       style="font-size:15px;font-style:normal;font-variant:normal;font-weight:normal;font-stretch:normal;text-align:start;line-height:125%;writing-mode:lr-tb;text-anchor:start;fill:#000000;fill-opacity:1;stroke:none;stroke-width:1px;stroke-linecap:butt;stroke-linejoin:miter;stroke-opacity:1;font-family:sans"
       x="1017.4441"
       y="169.98862"
       id="text3967"
       sodipodi:linespacing="125%"><tspan
         sodipodi:role="line"
         id="tspan3969"
         x="1017.4441"
         y="169.98862">semi</tspan></text>
    <text
       xml:space="preserve"
       style="font-size:15px;font-style:normal;font-variant:normal;font-weight:normal;font-stretch:normal;text-align:start;line-height:125%;writing-mode:lr-tb;text-anchor:start;fill:#ffffff;fill-opacity:1;stroke:none;stroke-width:1px;stroke-linecap:butt;stroke-linejoin:miter;stroke-opacity:1;font-family:sans"
       x="1074.0164"
       y="168.70288"
       id="text3971"
       sodipodi:linespacing="125%"><tspan
         sodipodi:role="line"
         id="tspan3973"
         x="1074.0164"
         y="168.70288">official</tspan></text>
    <text
       xml:space="preserve"
       style="font-size:15px;font-style:normal;font-variant:normal;font-weight:normal;font-stretch:normal;text-align:start;line-height:125%;writing-mode:lr-tb;text-anchor:start;fill:#000000;fill-opacity:1;stroke:none;stroke-width:1px;stroke-linecap:butt;stroke-linejoin:miter;stroke-opacity:1;font-family:sans"
       x="1131.4458"
       y="167.84573"
       id="text3975"
       sodipodi:linespacing="125%"><tspan
         sodipodi:role="line"
         id="tspan3977"
         x="1131.4458"
         y="167.84573">repository</tspan></text>
    <text
       xml:space="preserve"
       style="font-size:15px;font-style:normal;font-variant:normal;font-weight:normal;font-stretch:normal;text-align:start;line-height:100%;writing-mode:lr-tb;text-anchor:start;fill:#000000;fill-opacity:1;stroke:none;stroke-width:1px;stroke-linecap:butt;stroke-linejoin:miter;stroke-opacity:1;font-family:sans"
       x="1027.73"
       y="248.4184"
       id="text3979"
       sodipodi:linespacing="100%"><tspan
         sodipodi:role="line"
         id="tspan3981"
         x="1027.73"
         y="248.4184">human/</tspan><tspan
         sodipodi:role="line"
         x="1027.73"
         y="263.4184"
         id="tspan3983">group</tspan></text>
    <text
       xml:space="preserve"
       style="font-size:15px;font-style:normal;font-variant:normal;font-weight:normal;font-stretch:normal;text-align:center;line-height:100%;writing-mode:lr-tb;text-anchor:middle;fill:#000000;fill-opacity:1;stroke:none;stroke-width:1px;stroke-linecap:butt;stroke-linejoin:miter;stroke-opacity:1;font-family:sans"
       x="1158.0178"
       y="252.70418"
       id="text3985"
       sodipodi:linespacing="100%"><tspan
         sodipodi:role="line"
         id="tspan3987"
         x="1158.0178"
         y="252.70418">transitional</tspan><tspan
         sodipodi:role="line"
         x="1158.0178"
         y="267.70418"
         id="tspan3989">state</tspan></text>
    <g
       id="g3530"
       transform="translate(-352.89451,-17.143119)">
      <g
         id="g3519">
        <rect
           y="717.40674"
           x="1374.6261"
           height="60.610081"
           width="170.92043"
           id="rect6432-8"
           style="fill:#4d4d4d;fill-opacity:1;stroke:#000000;stroke-opacity:1;display:inline" />
        <text
           xml:space="preserve"
           style="font-size:20px;font-style:normal;font-variant:normal;font-weight:normal;font-stretch:normal;text-align:start;line-height:125%;writing-mode:lr-tb;text-anchor:start;fill:#ffffff;fill-opacity:1;stroke:none;display:inline;font-family:sans"
           x="1460.0375"
           y="741.49109"
           id="text3905-3"
           sodipodi:linespacing="125%"><tspan
             sodipodi:role="line"
             id="tspan3907-6"
             x="1460.0375"
             y="741.49109"
             style="text-align:center;text-anchor:middle">stable-updates</tspan><tspan
             sodipodi:role="line"
             x="1460.0375"
             y="766.49109"
             id="tspan3517"
             style="text-align:center;text-anchor:middle">(ex volatile)</tspan></text>
      </g>
    </g>
    <g
       id="g3525"
       transform="translate(-325.973,-32.571926)">
      <rect
         style="fill:#4d4d4d;fill-opacity:1;stroke:#000000;stroke-opacity:1;display:inline"
         id="rect6432-8-9"
         width="170.92043"
         height="60.610081"
         x="1347.7046"
         y="820.26544" />
      <text
         sodipodi:linespacing="125%"
         id="text3905-3-6"
         y="856.08807"
         x="1383.238"
         style="font-size:20px;font-style:normal;font-variant:normal;font-weight:normal;font-stretch:normal;text-align:start;line-height:125%;writing-mode:lr-tb;text-anchor:start;fill:#ffffff;fill-opacity:1;stroke:none;display:inline;font-family:sans"
         xml:space="preserve"><tspan
           y="856.08807"
           x="1383.238"
           id="tspan3907-6-5"
           sodipodi:role="line">backports</tspan></text>
    </g>
    <g
       id="g3579"
       transform="translate(-329.40159,-36.00055)">
      <rect
         style="fill:#4d4d4d;fill-opacity:1;stroke:#000000;stroke-opacity:1;display:inline"
         id="rect6432-8-0"
         width="170.92043"
         height="60.610081"
         x="1351.1332"
         y="491.11752" />
      <text
         sodipodi:linespacing="125%"
         id="text3905-3-1"
         y="526.94012"
         x="1436.9742"
         style="font-size:20px;font-style:normal;font-variant:normal;font-weight:normal;font-stretch:normal;text-align:start;line-height:125%;writing-mode:lr-tb;text-anchor:start;fill:#ffffff;fill-opacity:1;stroke:none;display:inline;font-family:sans"
         xml:space="preserve"><tspan
           style="text-align:center;text-anchor:middle"
           id="tspan3517-0"
           y="526.94012"
           x="1436.9742"
           sodipodi:role="line">experimental</tspan></text>
    </g>
  </g>
</svg>
