%!PS-Adobe-2.0 EPSF-2.0
%%Title: distro-ecosystem-new.dia
%%Creator: Dia v0.97.1
%%CreationDate: Fri Jul 22 04:32:14 2011
%%For: marcelo
%%Orientation: Portrait
%%Magnification: 1.0000
%%BoundingBox: 0 0 939 317
%%BeginSetup
%%EndSetup
%%EndComments
%%BeginProlog
[ /.notdef /.notdef /.notdef /.notdef /.notdef /.notdef /.notdef /.notdef /.notdef /.notdef
/.notdef /.notdef /.notdef /.notdef /.notdef /.notdef /.notdef /.notdef /.notdef /.notdef
/.notdef /.notdef /.notdef /.notdef /.notdef /.notdef /.notdef /.notdef /.notdef /.notdef
/.notdef /.notdef /space /exclam /quotedbl /numbersign /dollar /percent /ampersand /quoteright
/parenleft /parenright /asterisk /plus /comma /hyphen /period /slash /zero /one
/two /three /four /five /six /seven /eight /nine /colon /semicolon
/less /equal /greater /question /at /A /B /C /D /E
/F /G /H /I /J /K /L /M /N /O
/P /Q /R /S /T /U /V /W /X /Y
/Z /bracketleft /backslash /bracketright /asciicircum /underscore /quoteleft /a /b /c
/d /e /f /g /h /i /j /k /l /m
/n /o /p /q /r /s /t /u /v /w
/x /y /z /braceleft /bar /braceright /asciitilde /.notdef /.notdef /.notdef
/.notdef /.notdef /.notdef /.notdef /.notdef /.notdef /.notdef /.notdef /.notdef /.notdef
/.notdef /.notdef /.notdef /.notdef /.notdef /.notdef /.notdef /.notdef /.notdef /.notdef
/.notdef /.notdef /.notdef /.notdef /.notdef /.notdef /.notdef /.notdef /.notdef /.notdef
/space /exclamdown /cent /sterling /currency /yen /brokenbar /section /dieresis /copyright
/ordfeminine /guillemotleft /logicalnot /hyphen /registered /macron /degree /plusminus /twosuperior /threesuperior
/acute /mu /paragraph /periodcentered /cedilla /onesuperior /ordmasculine /guillemotright /onequarter /onehalf
/threequarters /questiondown /Agrave /Aacute /Acircumflex /Atilde /Adieresis /Aring /AE /Ccedilla
/Egrave /Eacute /Ecircumflex /Edieresis /Igrave /Iacute /Icircumflex /Idieresis /Eth /Ntilde
/Ograve /Oacute /Ocircumflex /Otilde /Odieresis /multiply /Oslash /Ugrave /Uacute /Ucircumflex
/Udieresis /Yacute /Thorn /germandbls /agrave /aacute /acircumflex /atilde /adieresis /aring
/ae /ccedilla /egrave /eacute /ecircumflex /edieresis /igrave /iacute /icircumflex /idieresis
/eth /ntilde /ograve /oacute /ocircumflex /otilde /odieresis /divide /oslash /ugrave
/uacute /ucircumflex /udieresis /yacute /thorn /ydieresis] /isolatin1encoding exch def
/cp {closepath} bind def
/c {curveto} bind def
/f {fill} bind def
/a {arc} bind def
/ef {eofill} bind def
/ex {exch} bind def
/gr {grestore} bind def
/gs {gsave} bind def
/sa {save} bind def
/rs {restore} bind def
/l {lineto} bind def
/m {moveto} bind def
/rm {rmoveto} bind def
/n {newpath} bind def
/s {stroke} bind def
/sh {show} bind def
/slc {setlinecap} bind def
/slj {setlinejoin} bind def
/slw {setlinewidth} bind def
/srgb {setrgbcolor} bind def
/rot {rotate} bind def
/sc {scale} bind def
/sd {setdash} bind def
/ff {findfont} bind def
/sf {setfont} bind def
/scf {scalefont} bind def
/sw {stringwidth pop} bind def
/tr {translate} bind def

/ellipsedict 8 dict def
ellipsedict /mtrx matrix put
/ellipse
{ ellipsedict begin
   /endangle exch def
   /startangle exch def
   /yrad exch def
   /xrad exch def
   /y exch def
   /x exch def   /savematrix mtrx currentmatrix def
   x y tr xrad yrad sc
   0 0 1 startangle endangle arc
   savematrix setmatrix
   end
} def

/mergeprocs {
dup length
3 -1 roll
dup
length
dup
5 1 roll
3 -1 roll
add
array cvx
dup
3 -1 roll
0 exch
putinterval
dup
4 2 roll
putinterval
} bind def
/dpi_x 300 def
/dpi_y 300 def
/conicto {
    /to_y exch def
    /to_x exch def
    /conic_cntrl_y exch def
    /conic_cntrl_x exch def
    currentpoint
    /p0_y exch def
    /p0_x exch def
    /p1_x p0_x conic_cntrl_x p0_x sub 2 3 div mul add def
    /p1_y p0_y conic_cntrl_y p0_y sub 2 3 div mul add def
    /p2_x p1_x to_x p0_x sub 1 3 div mul add def
    /p2_y p1_y to_y p0_y sub 1 3 div mul add def
    p1_x p1_y p2_x p2_y to_x to_y curveto
} bind def
/start_ol { gsave 1.1 dpi_x div dup scale} bind def
/end_ol { closepath fill grestore } bind def
28.346000 -28.346000 scale
-17.950000 -19.445711 translate
%%EndProlog


1.000000 1.000000 1.000000 srgb
n 18.000000 10.000000 m 18.000000 13.000000 l 23.000000 13.000000 l 23.000000 10.000000 l f
0.100000 slw
[] 0 sd
[] 0 sd
0 slj
0.000000 0.000000 0.000000 srgb
n 18.000000 10.000000 m 18.000000 13.000000 l 23.000000 13.000000 l 23.000000 10.000000 l cp s
gsave 18.640000 11.706667 translate 0.035278 -0.035278 scale
start_ol
448 3712 moveto
1408 3712 lineto
1408 1493 lineto
1408 1034 1558 837 conicto
1708 640 2047 640 conicto
2388 640 2538 837 conicto
2688 1034 2688 1493 conicto
2688 3712 lineto
3648 3712 lineto
3648 1493 lineto
3648 706 3252 321 conicto
2857 -64 2047 -64 conicto
1239 -64 843 321 conicto
448 706 448 1493 conicto
448 3712 lineto
end_ol grestore 
gsave 19.189482 11.706667 translate 0.035278 -0.035278 scale
start_ol
1344 384 moveto
1344 -1088 lineto
448 -1088 lineto
448 2816 lineto
1344 2816 lineto
1344 2432 lineto
1529 2662 1754 2771 conicto
1980 2880 2272 2880 conicto
2790 2880 3123 2468 conicto
3456 2056 3456 1408 conicto
3456 760 3123 348 conicto
2790 -64 2272 -64 conicto
1980 -64 1754 45 conicto
1529 154 1344 384 conicto
1922 2240 moveto
1643 2240 1493 2025 conicto
1344 1811 1344 1408 conicto
1344 1005 1493 790 conicto
1643 576 1922 576 conicto
2202 576 2349 789 conicto
2496 1002 2496 1408 conicto
2496 1814 2349 2027 conicto
2202 2240 1922 2240 conicto
end_ol grestore 
gsave 19.674025 11.706667 translate 0.035278 -0.035278 scale
start_ol
2624 2752 moveto
2624 2048 lineto
2341 2176 2078 2240 conicto
1815 2304 1582 2304 conicto
1331 2304 1209 2237 conicto
1088 2171 1088 2033 conicto
1088 1921 1181 1861 conicto
1275 1801 1516 1772 conicto
1673 1748 lineto
2349 1661 2582 1461 conicto
2816 1261 2816 833 conicto
2816 386 2486 161 conicto
2156 -64 1502 -64 conicto
1224 -64 928 -32 conicto
632 0 320 64 conicto
320 768 lineto
590 640 874 576 conicto
1158 512 1451 512 conicto
1716 512 1850 585 conicto
1984 658 1984 801 conicto
1984 922 1893 981 conicto
1802 1040 1531 1073 conicto
1374 1093 lineto
754 1169 505 1373 conicto
256 1578 256 1995 conicto
256 2445 563 2662 conicto
870 2880 1504 2880 conicto
1753 2880 2027 2849 conicto
2302 2818 2624 2752 conicto
end_ol grestore 
gsave 20.076142 11.706667 translate 0.035278 -0.035278 scale
start_ol
1408 3584 moveto
1408 2816 lineto
2304 2816 lineto
2304 2176 lineto
1408 2176 lineto
1408 976 lineto
1408 779 1484 709 conicto
1561 640 1787 640 conicto
2240 640 lineto
2240 0 lineto
1484 0 lineto
954 0 733 222 conicto
512 444 512 976 conicto
512 2176 lineto
64 2176 lineto
64 2816 lineto
512 2816 lineto
512 3584 lineto
1408 3584 lineto
end_ol grestore 
gsave 20.400835 11.706667 translate 0.035278 -0.035278 scale
start_ol
2560 2048 moveto
2439 2113 2320 2144 conicto
2201 2176 2080 2176 conicto
1726 2176 1535 1948 conicto
1344 1721 1344 1297 conicto
1344 0 lineto
448 0 lineto
448 2816 lineto
1344 2816 lineto
1344 2368 lineto
1521 2635 1750 2757 conicto
1980 2880 2301 2880 conicto
2347 2880 2401 2876 conicto
2455 2873 2557 2861 conicto
2560 2048 lineto
end_ol grestore 
gsave 20.735517 11.706667 translate 0.035278 -0.035278 scale
start_ol
3200 1418 moveto
3200 1152 lineto
1088 1152 lineto
1121 832 1318 672 conicto
1516 512 1870 512 conicto
2156 512 2456 591 conicto
2756 671 3072 832 conicto
3072 128 lineto
2754 33 2435 -15 conicto
2117 -64 1799 -64 conicto
1037 -64 614 323 conicto
192 710 192 1408 conicto
192 2094 606 2487 conicto
1020 2880 1746 2880 conicto
2407 2880 2803 2482 conicto
3200 2084 3200 1418 conicto
2304 1728 moveto
2304 1987 2149 2145 conicto
1995 2304 1746 2304 conicto
1477 2304 1308 2155 conicto
1139 2007 1098 1728 conicto
2304 1728 lineto
end_ol grestore 
gsave 21.195081 11.706667 translate 0.035278 -0.035278 scale
start_ol
1649 1280 moveto
1370 1280 1229 1181 conicto
1088 1082 1088 889 conicto
1088 712 1201 612 conicto
1315 512 1517 512 conicto
1768 512 1940 700 conicto
2112 889 2112 1173 conicto
2112 1280 lineto
1649 1280 lineto
3008 1605 moveto
3008 0 lineto
2112 0 lineto
2112 448 lineto
1933 180 1709 58 conicto
1485 -64 1164 -64 conicto
732 -64 462 188 conicto
192 441 192 844 conicto
192 1334 528 1563 conicto
865 1792 1586 1792 conicto
2112 1792 lineto
2112 1864 lineto
2112 2092 1946 2198 conicto
1781 2304 1431 2304 conicto
1147 2304 902 2240 conicto
658 2176 448 2048 conicto
448 2752 lineto
731 2815 1016 2847 conicto
1301 2880 1586 2880 conicto
2339 2880 2673 2580 conicto
3008 2280 3008 1605 conicto
end_ol grestore 
gsave 21.652149 11.706667 translate 0.035278 -0.035278 scale
start_ol
3034 2361 moveto
3203 2614 3435 2747 conicto
3668 2880 3946 2880 conicto
4426 2880 4677 2576 conicto
4928 2272 4928 1692 conicto
4928 0 lineto
4032 0 lineto
4032 1449 lineto
4035 1481 4036 1516 conicto
4037 1551 4037 1615 conicto
4037 1911 3950 2043 conicto
3863 2176 3670 2176 conicto
3416 2176 3278 1967 conicto
3141 1759 3136 1365 conicto
3136 0 lineto
2240 0 lineto
2240 1449 lineto
2240 1911 2160 2043 conicto
2081 2176 1878 2176 conicto
1622 2176 1483 1966 conicto
1344 1757 1344 1367 conicto
1344 0 lineto
448 0 lineto
448 2816 lineto
1344 2816 lineto
1344 2432 lineto
1508 2655 1720 2767 conicto
1933 2880 2189 2880 conicto
2477 2880 2698 2743 conicto
2920 2607 3034 2361 conicto
end_ol grestore 
1.000000 1.000000 1.000000 srgb
n 27.000000 10.000000 m 27.000000 13.000000 l 32.000000 13.000000 l 32.000000 10.000000 l f
0.100000 slw
[] 0 sd
[] 0 sd
0 slj
0.000000 0.000000 0.000000 srgb
n 27.000000 10.000000 m 27.000000 13.000000 l 32.000000 13.000000 l 32.000000 10.000000 l cp s
gsave 27.985000 11.706667 translate 0.035278 -0.035278 scale
start_ol
1408 3008 moveto
1408 704 lineto
1748 704 lineto
2330 704 2637 1000 conicto
2944 1296 2944 1860 conicto
2944 2421 2638 2714 conicto
2332 3008 1748 3008 conicto
1408 3008 lineto
448 3712 moveto
1460 3712 lineto
2314 3712 2732 3591 conicto
3150 3471 3448 3182 conicto
3712 2931 3840 2603 conicto
3968 2275 3968 1860 conicto
3968 1440 3840 1110 conicto
3712 781 3448 530 conicto
3147 241 2725 120 conicto
2304 0 1460 0 conicto
448 0 lineto
448 3712 lineto
end_ol grestore 
gsave 28.546975 11.706667 translate 0.035278 -0.035278 scale
start_ol
448 2816 moveto
1344 2816 lineto
1344 0 lineto
448 0 lineto
448 2816 lineto
448 3904 moveto
1344 3904 lineto
1344 3136 lineto
448 3136 lineto
448 3904 lineto
end_ol grestore 
gsave 28.779254 11.706667 translate 0.035278 -0.035278 scale
start_ol
2624 2752 moveto
2624 2048 lineto
2341 2176 2078 2240 conicto
1815 2304 1582 2304 conicto
1331 2304 1209 2237 conicto
1088 2171 1088 2033 conicto
1088 1921 1181 1861 conicto
1275 1801 1516 1772 conicto
1673 1748 lineto
2349 1661 2582 1461 conicto
2816 1261 2816 833 conicto
2816 386 2486 161 conicto
2156 -64 1502 -64 conicto
1224 -64 928 -32 conicto
632 0 320 64 conicto
320 768 lineto
590 640 874 576 conicto
1158 512 1451 512 conicto
1716 512 1850 585 conicto
1984 658 1984 801 conicto
1984 922 1893 981 conicto
1802 1040 1531 1073 conicto
1374 1093 lineto
754 1169 505 1373 conicto
256 1578 256 1995 conicto
256 2445 563 2662 conicto
870 2880 1504 2880 conicto
1753 2880 2027 2849 conicto
2302 2818 2624 2752 conicto
end_ol grestore 
gsave 29.181371 11.706667 translate 0.035278 -0.035278 scale
start_ol
1408 3584 moveto
1408 2816 lineto
2304 2816 lineto
2304 2176 lineto
1408 2176 lineto
1408 976 lineto
1408 779 1484 709 conicto
1561 640 1787 640 conicto
2240 640 lineto
2240 0 lineto
1484 0 lineto
954 0 733 222 conicto
512 444 512 976 conicto
512 2176 lineto
64 2176 lineto
64 2816 lineto
512 2816 lineto
512 3584 lineto
1408 3584 lineto
end_ol grestore 
gsave 29.506065 11.706667 translate 0.035278 -0.035278 scale
start_ol
2560 2048 moveto
2439 2113 2320 2144 conicto
2201 2176 2080 2176 conicto
1726 2176 1535 1948 conicto
1344 1721 1344 1297 conicto
1344 0 lineto
448 0 lineto
448 2816 lineto
1344 2816 lineto
1344 2368 lineto
1521 2635 1750 2757 conicto
1980 2880 2301 2880 conicto
2347 2880 2401 2876 conicto
2455 2873 2557 2861 conicto
2560 2048 lineto
end_ol grestore 
gsave 29.840746 11.706667 translate 0.035278 -0.035278 scale
start_ol
1732 2240 moveto
1449 2240 1300 2025 conicto
1152 1811 1152 1408 conicto
1152 1005 1300 790 conicto
1449 576 1732 576 conicto
2009 576 2156 790 conicto
2304 1005 2304 1408 conicto
2304 1811 2156 2025 conicto
2009 2240 1732 2240 conicto
1732 2880 moveto
2453 2880 2858 2489 conicto
3264 2099 3264 1408 conicto
3264 717 2858 326 conicto
2453 -64 1732 -64 conicto
1008 -64 600 326 conicto
192 717 192 1408 conicto
192 2099 600 2489 conicto
1008 2880 1732 2880 conicto
end_ol grestore 
gsave 30.305305 11.706667 translate 0.035278 -0.035278 scale
start_ol
end_ol grestore 
gsave 30.540081 11.706667 translate 0.035278 -0.035278 scale
start_ol
640 704 moveto
1472 704 lineto
1472 3008 lineto
576 2816 lineto
576 3520 lineto
1472 3712 lineto
2368 3712 lineto
2368 704 lineto
3200 704 lineto
3200 0 lineto
640 0 lineto
640 704 lineto
end_ol grestore 
0.100000 slw
[] 0 sd
[] 0 sd
0 slc
n 23.000000 10.750000 m 26.450000 10.750000 l s
0 slj
n 26.450000 11.000000 m 26.950000 10.750000 l 26.450000 10.500000 l ef
0.100000 slw
[] 0 sd
0 slj
n 26.450000 11.000000 m 26.950000 10.750000 l 26.450000 10.500000 l cp s
0.100000 slw
[] 0 sd
[] 0 sd
0 slc
n 27.000000 12.250000 m 23.550000 12.250000 l s
0 slj
n 23.550000 12.000000 m 23.050000 12.250000 l 23.550000 12.500000 l ef
0.100000 slw
[] 0 sd
0 slj
n 23.550000 12.000000 m 23.050000 12.250000 l 23.550000 12.500000 l cp s
gsave 23.188750 8.896667 translate 0.035278 -0.035278 scale
start_ol
2624 2752 moveto
2624 2048 lineto
2341 2176 2078 2240 conicto
1815 2304 1582 2304 conicto
1331 2304 1209 2237 conicto
1088 2171 1088 2033 conicto
1088 1921 1181 1861 conicto
1275 1801 1516 1772 conicto
1673 1748 lineto
2349 1661 2582 1461 conicto
2816 1261 2816 833 conicto
2816 386 2486 161 conicto
2156 -64 1502 -64 conicto
1224 -64 928 -32 conicto
632 0 320 64 conicto
320 768 lineto
590 640 874 576 conicto
1158 512 1451 512 conicto
1716 512 1850 585 conicto
1984 658 1984 801 conicto
1984 922 1893 981 conicto
1802 1040 1531 1073 conicto
1374 1093 lineto
754 1169 505 1373 conicto
256 1578 256 1995 conicto
256 2445 563 2662 conicto
870 2880 1504 2880 conicto
1753 2880 2027 2849 conicto
2302 2818 2624 2752 conicto
end_ol grestore 
gsave 23.590867 8.896667 translate 0.035278 -0.035278 scale
start_ol
1732 2240 moveto
1449 2240 1300 2025 conicto
1152 1811 1152 1408 conicto
1152 1005 1300 790 conicto
1449 576 1732 576 conicto
2009 576 2156 790 conicto
2304 1005 2304 1408 conicto
2304 1811 2156 2025 conicto
2009 2240 1732 2240 conicto
1732 2880 moveto
2453 2880 2858 2489 conicto
3264 2099 3264 1408 conicto
3264 717 2858 326 conicto
2453 -64 1732 -64 conicto
1008 -64 600 326 conicto
192 717 192 1408 conicto
192 2099 600 2489 conicto
1008 2880 1732 2880 conicto
end_ol grestore 
gsave 24.055426 8.896667 translate 0.035278 -0.035278 scale
start_ol
2240 3904 moveto
2240 3328 lineto
1749 3328 lineto
1558 3328 1483 3258 conicto
1408 3188 1408 3015 conicto
1408 2816 lineto
2176 2816 lineto
2176 2176 lineto
1408 2176 lineto
1408 0 lineto
512 0 lineto
512 2176 lineto
64 2176 lineto
64 2816 lineto
512 2816 lineto
512 3015 lineto
512 3469 767 3686 conicto
1023 3904 1559 3904 conicto
2240 3904 lineto
end_ol grestore 
gsave 24.350147 8.896667 translate 0.035278 -0.035278 scale
start_ol
1408 3584 moveto
1408 2816 lineto
2304 2816 lineto
2304 2176 lineto
1408 2176 lineto
1408 976 lineto
1408 779 1484 709 conicto
1561 640 1787 640 conicto
2240 640 lineto
2240 0 lineto
1484 0 lineto
954 0 733 222 conicto
512 444 512 976 conicto
512 2176 lineto
64 2176 lineto
64 2816 lineto
512 2816 lineto
512 3584 lineto
1408 3584 lineto
end_ol grestore 
gsave 24.674840 8.896667 translate 0.035278 -0.035278 scale
start_ol
192 2816 moveto
1058 2816 lineto
1526 875 lineto
1996 2816 lineto
2740 2816 lineto
3208 895 lineto
3678 2816 lineto
4544 2816 lineto
3810 0 lineto
2837 0 lineto
2367 1936 lineto
1899 0 lineto
926 0 lineto
192 2816 lineto
end_ol grestore 
gsave 25.299257 8.896667 translate 0.035278 -0.035278 scale
start_ol
1649 1280 moveto
1370 1280 1229 1181 conicto
1088 1082 1088 889 conicto
1088 712 1201 612 conicto
1315 512 1517 512 conicto
1768 512 1940 700 conicto
2112 889 2112 1173 conicto
2112 1280 lineto
1649 1280 lineto
3008 1605 moveto
3008 0 lineto
2112 0 lineto
2112 448 lineto
1933 180 1709 58 conicto
1485 -64 1164 -64 conicto
732 -64 462 188 conicto
192 441 192 844 conicto
192 1334 528 1563 conicto
865 1792 1586 1792 conicto
2112 1792 lineto
2112 1864 lineto
2112 2092 1946 2198 conicto
1781 2304 1431 2304 conicto
1147 2304 902 2240 conicto
658 2176 448 2048 conicto
448 2752 lineto
731 2815 1016 2847 conicto
1301 2880 1586 2880 conicto
2339 2880 2673 2580 conicto
3008 2280 3008 1605 conicto
end_ol grestore 
gsave 25.756325 8.896667 translate 0.035278 -0.035278 scale
start_ol
2560 2048 moveto
2439 2113 2320 2144 conicto
2201 2176 2080 2176 conicto
1726 2176 1535 1948 conicto
1344 1721 1344 1297 conicto
1344 0 lineto
448 0 lineto
448 2816 lineto
1344 2816 lineto
1344 2368 lineto
1521 2635 1750 2757 conicto
1980 2880 2301 2880 conicto
2347 2880 2401 2876 conicto
2455 2873 2557 2861 conicto
2560 2048 lineto
end_ol grestore 
gsave 26.091006 8.896667 translate 0.035278 -0.035278 scale
start_ol
3200 1418 moveto
3200 1152 lineto
1088 1152 lineto
1121 832 1318 672 conicto
1516 512 1870 512 conicto
2156 512 2456 591 conicto
2756 671 3072 832 conicto
3072 128 lineto
2754 33 2435 -15 conicto
2117 -64 1799 -64 conicto
1037 -64 614 323 conicto
192 710 192 1408 conicto
192 2094 606 2487 conicto
1020 2880 1746 2880 conicto
2407 2880 2803 2482 conicto
3200 2084 3200 1418 conicto
2304 1728 moveto
2304 1987 2149 2145 conicto
1995 2304 1746 2304 conicto
1477 2304 1308 2155 conicto
1139 2007 1098 1728 conicto
2304 1728 lineto
end_ol grestore 
gsave 26.550571 8.896667 translate 0.035278 -0.035278 scale
start_ol
512 960 moveto
1408 960 lineto
1408 211 lineto
768 -704 lineto
256 -704 lineto
512 211 lineto
512 960 lineto
end_ol grestore 
gsave 23.136250 9.743333 translate 0.035278 -0.035278 scale
start_ol
2688 2688 moveto
2688 1984 lineto
2506 2115 2322 2177 conicto
2139 2240 1942 2240 conicto
1568 2240 1360 2020 conicto
1152 1801 1152 1408 conicto
1152 1015 1360 795 conicto
1568 576 1942 576 conicto
2152 576 2340 640 conicto
2528 705 2688 832 conicto
2688 128 lineto
2476 32 2257 -16 conicto
2039 -64 1820 -64 conicto
1055 -64 623 325 conicto
192 715 192 1408 conicto
192 2101 623 2490 conicto
1055 2880 1820 2880 conicto
2042 2880 2257 2832 conicto
2473 2784 2688 2688 conicto
end_ol grestore 
gsave 23.538367 9.743333 translate 0.035278 -0.035278 scale
start_ol
1732 2240 moveto
1449 2240 1300 2025 conicto
1152 1811 1152 1408 conicto
1152 1005 1300 790 conicto
1449 576 1732 576 conicto
2009 576 2156 790 conicto
2304 1005 2304 1408 conicto
2304 1811 2156 2025 conicto
2009 2240 1732 2240 conicto
1732 2880 moveto
2453 2880 2858 2489 conicto
3264 2099 3264 1408 conicto
3264 717 2858 326 conicto
2453 -64 1732 -64 conicto
1008 -64 600 326 conicto
192 717 192 1408 conicto
192 2099 600 2489 conicto
1008 2880 1732 2880 conicto
end_ol grestore 
gsave 24.002926 9.743333 translate 0.035278 -0.035278 scale
start_ol
2560 2048 moveto
2439 2113 2320 2144 conicto
2201 2176 2080 2176 conicto
1726 2176 1535 1948 conicto
1344 1721 1344 1297 conicto
1344 0 lineto
448 0 lineto
448 2816 lineto
1344 2816 lineto
1344 2368 lineto
1521 2635 1750 2757 conicto
1980 2880 2301 2880 conicto
2347 2880 2401 2876 conicto
2455 2873 2557 2861 conicto
2560 2048 lineto
end_ol grestore 
gsave 24.337607 9.743333 translate 0.035278 -0.035278 scale
start_ol
2560 2048 moveto
2439 2113 2320 2144 conicto
2201 2176 2080 2176 conicto
1726 2176 1535 1948 conicto
1344 1721 1344 1297 conicto
1344 0 lineto
448 0 lineto
448 2816 lineto
1344 2816 lineto
1344 2368 lineto
1521 2635 1750 2757 conicto
1980 2880 2301 2880 conicto
2347 2880 2401 2876 conicto
2455 2873 2557 2861 conicto
2560 2048 lineto
end_ol grestore 
gsave 24.672289 9.743333 translate 0.035278 -0.035278 scale
start_ol
3200 1418 moveto
3200 1152 lineto
1088 1152 lineto
1121 832 1318 672 conicto
1516 512 1870 512 conicto
2156 512 2456 591 conicto
2756 671 3072 832 conicto
3072 128 lineto
2754 33 2435 -15 conicto
2117 -64 1799 -64 conicto
1037 -64 614 323 conicto
192 710 192 1408 conicto
192 2094 606 2487 conicto
1020 2880 1746 2880 conicto
2407 2880 2803 2482 conicto
3200 2084 3200 1418 conicto
2304 1728 moveto
2304 1987 2149 2145 conicto
1995 2304 1746 2304 conicto
1477 2304 1308 2155 conicto
1139 2007 1098 1728 conicto
2304 1728 lineto
end_ol grestore 
gsave 25.131853 9.743333 translate 0.035278 -0.035278 scale
start_ol
2688 2688 moveto
2688 1984 lineto
2506 2115 2322 2177 conicto
2139 2240 1942 2240 conicto
1568 2240 1360 2020 conicto
1152 1801 1152 1408 conicto
1152 1015 1360 795 conicto
1568 576 1942 576 conicto
2152 576 2340 640 conicto
2528 705 2688 832 conicto
2688 128 lineto
2476 32 2257 -16 conicto
2039 -64 1820 -64 conicto
1055 -64 623 325 conicto
192 715 192 1408 conicto
192 2101 623 2490 conicto
1055 2880 1820 2880 conicto
2042 2880 2257 2832 conicto
2473 2784 2688 2688 conicto
1975 0 moveto
2111 -158 2175 -293 conicto
2240 -429 2240 -549 conicto
2240 -792 2083 -908 conicto
1927 -1024 1603 -1024 conicto
1480 -1024 1350 -1008 conicto
1221 -992 1088 -960 conicto
1085 -576 lineto
1219 -609 1329 -624 conicto
1440 -640 1528 -640 conicto
1683 -640 1769 -582 conicto
1856 -524 1856 -423 conicto
1856 -358 1798 -254 conicto
1741 -151 1621 0 conicto
1975 0 lineto
end_ol grestore 
gsave 25.533970 9.743333 translate 0.035278 -0.035278 scale
start_ol
1732 2240 moveto
1449 2240 1300 2025 conicto
1152 1811 1152 1408 conicto
1152 1005 1300 790 conicto
1449 576 1732 576 conicto
2009 576 2156 790 conicto
2304 1005 2304 1408 conicto
2304 1811 2156 2025 conicto
2009 2240 1732 2240 conicto
1732 2880 moveto
2453 2880 2858 2489 conicto
3264 2099 3264 1408 conicto
3264 717 2858 326 conicto
2453 -64 1732 -64 conicto
1008 -64 600 326 conicto
192 717 192 1408 conicto
192 2099 600 2489 conicto
1008 2880 1732 2880 conicto
1733 3531 moveto
1585 3622 lineto
1575 3627 1558 3637 conicto
1431 3712 1364 3712 conicto
1267 3712 1215 3636 conicto
1164 3560 1164 3416 conicto
1164 3397 lineto
832 3397 lineto
832 3732 964 3914 conicto
1097 4096 1337 4096 conicto
1429 4096 1523 4063 conicto
1617 4030 1723 3957 conicto
1888 3852 lineto
1947 3815 1996 3795 conicto
2046 3776 2087 3776 conicto
2184 3776 2238 3854 conicto
2292 3933 2292 4072 conicto
2292 4091 lineto
2624 4091 lineto
2624 3756 2491 3574 conicto
2359 3392 2119 3392 conicto
2027 3392 1941 3421 conicto
1855 3451 1733 3531 conicto
end_ol grestore 
gsave 25.998529 9.743333 translate 0.035278 -0.035278 scale
start_ol
3200 1418 moveto
3200 1152 lineto
1088 1152 lineto
1121 832 1318 672 conicto
1516 512 1870 512 conicto
2156 512 2456 591 conicto
2756 671 3072 832 conicto
3072 128 lineto
2754 33 2435 -15 conicto
2117 -64 1799 -64 conicto
1037 -64 614 323 conicto
192 710 192 1408 conicto
192 2094 606 2487 conicto
1020 2880 1746 2880 conicto
2407 2880 2803 2482 conicto
3200 2084 3200 1418 conicto
2304 1728 moveto
2304 1987 2149 2145 conicto
1995 2304 1746 2304 conicto
1477 2304 1308 2155 conicto
1139 2007 1098 1728 conicto
2304 1728 lineto
end_ol grestore 
gsave 26.458094 9.743333 translate 0.035278 -0.035278 scale
start_ol
2624 2752 moveto
2624 2048 lineto
2341 2176 2078 2240 conicto
1815 2304 1582 2304 conicto
1331 2304 1209 2237 conicto
1088 2171 1088 2033 conicto
1088 1921 1181 1861 conicto
1275 1801 1516 1772 conicto
1673 1748 lineto
2349 1661 2582 1461 conicto
2816 1261 2816 833 conicto
2816 386 2486 161 conicto
2156 -64 1502 -64 conicto
1224 -64 928 -32 conicto
632 0 320 64 conicto
320 768 lineto
590 640 874 576 conicto
1158 512 1451 512 conicto
1716 512 1850 585 conicto
1984 658 1984 801 conicto
1984 922 1893 981 conicto
1802 1040 1531 1073 conicto
1374 1093 lineto
754 1169 505 1373 conicto
256 1578 256 1995 conicto
256 2445 563 2662 conicto
870 2880 1504 2880 conicto
1753 2880 2027 2849 conicto
2302 2818 2624 2752 conicto
end_ol grestore 
gsave 21.582500 13.726667 translate 0.035278 -0.035278 scale
start_ol
2560 2048 moveto
2439 2113 2320 2144 conicto
2201 2176 2080 2176 conicto
1726 2176 1535 1948 conicto
1344 1721 1344 1297 conicto
1344 0 lineto
448 0 lineto
448 2816 lineto
1344 2816 lineto
1344 2368 lineto
1521 2635 1750 2757 conicto
1980 2880 2301 2880 conicto
2347 2880 2401 2876 conicto
2455 2873 2557 2861 conicto
2560 2048 lineto
end_ol grestore 
gsave 21.917181 13.726667 translate 0.035278 -0.035278 scale
start_ol
3200 1418 moveto
3200 1152 lineto
1088 1152 lineto
1121 832 1318 672 conicto
1516 512 1870 512 conicto
2156 512 2456 591 conicto
2756 671 3072 832 conicto
3072 128 lineto
2754 33 2435 -15 conicto
2117 -64 1799 -64 conicto
1037 -64 614 323 conicto
192 710 192 1408 conicto
192 2094 606 2487 conicto
1020 2880 1746 2880 conicto
2407 2880 2803 2482 conicto
3200 2084 3200 1418 conicto
2304 1728 moveto
2304 1987 2149 2145 conicto
1995 2304 1746 2304 conicto
1477 2304 1308 2155 conicto
1139 2007 1098 1728 conicto
2304 1728 lineto
end_ol grestore 
gsave 22.376746 13.726667 translate 0.035278 -0.035278 scale
start_ol
448 3904 moveto
1344 3904 lineto
1344 0 lineto
448 0 lineto
448 3904 lineto
end_ol grestore 
gsave 22.609025 13.726667 translate 0.035278 -0.035278 scale
start_ol
1649 1280 moveto
1370 1280 1229 1181 conicto
1088 1082 1088 889 conicto
1088 712 1201 612 conicto
1315 512 1517 512 conicto
1768 512 1940 700 conicto
2112 889 2112 1173 conicto
2112 1280 lineto
1649 1280 lineto
3008 1605 moveto
3008 0 lineto
2112 0 lineto
2112 448 lineto
1933 180 1709 58 conicto
1485 -64 1164 -64 conicto
732 -64 462 188 conicto
192 441 192 844 conicto
192 1334 528 1563 conicto
865 1792 1586 1792 conicto
2112 1792 lineto
2112 1864 lineto
2112 2092 1946 2198 conicto
1781 2304 1431 2304 conicto
1147 2304 902 2240 conicto
658 2176 448 2048 conicto
448 2752 lineto
731 2815 1016 2847 conicto
1301 2880 1586 2880 conicto
2339 2880 2673 2580 conicto
3008 2280 3008 1605 conicto
end_ol grestore 
gsave 23.066093 13.726667 translate 0.035278 -0.035278 scale
start_ol
1408 3584 moveto
1408 2816 lineto
2304 2816 lineto
2304 2176 lineto
1408 2176 lineto
1408 976 lineto
1408 779 1484 709 conicto
1561 640 1787 640 conicto
2240 640 lineto
2240 0 lineto
1484 0 lineto
954 0 733 222 conicto
512 444 512 976 conicto
512 2176 lineto
64 2176 lineto
64 2816 lineto
512 2816 lineto
512 3584 lineto
1408 3584 lineto
end_ol grestore 
gsave 23.390787 13.726667 translate 0.035278 -0.035278 scale
start_ol
1732 2240 moveto
1449 2240 1300 2025 conicto
1152 1811 1152 1408 conicto
1152 1005 1300 790 conicto
1449 576 1732 576 conicto
2009 576 2156 790 conicto
2304 1005 2304 1408 conicto
2304 1811 2156 2025 conicto
2009 2240 1732 2240 conicto
1732 2880 moveto
2453 2880 2858 2489 conicto
3264 2099 3264 1408 conicto
3264 717 2858 326 conicto
2453 -64 1732 -64 conicto
1008 -64 600 326 conicto
192 717 192 1408 conicto
192 2099 600 2489 conicto
1008 2880 1732 2880 conicto
2111 4096 moveto
2816 4096 lineto
1896 3136 lineto
1408 3136 lineto
2111 4096 lineto
end_ol grestore 
gsave 23.855345 13.726667 translate 0.035278 -0.035278 scale
start_ol
2560 2048 moveto
2439 2113 2320 2144 conicto
2201 2176 2080 2176 conicto
1726 2176 1535 1948 conicto
1344 1721 1344 1297 conicto
1344 0 lineto
448 0 lineto
448 2816 lineto
1344 2816 lineto
1344 2368 lineto
1521 2635 1750 2757 conicto
1980 2880 2301 2880 conicto
2347 2880 2401 2876 conicto
2455 2873 2557 2861 conicto
2560 2048 lineto
end_ol grestore 
gsave 24.190027 13.726667 translate 0.035278 -0.035278 scale
start_ol
448 2816 moveto
1344 2816 lineto
1344 0 lineto
448 0 lineto
448 2816 lineto
448 3904 moveto
1344 3904 lineto
1344 3136 lineto
448 3136 lineto
448 3904 lineto
end_ol grestore 
gsave 24.422306 13.726667 translate 0.035278 -0.035278 scale
start_ol
1732 2240 moveto
1449 2240 1300 2025 conicto
1152 1811 1152 1408 conicto
1152 1005 1300 790 conicto
1449 576 1732 576 conicto
2009 576 2156 790 conicto
2304 1005 2304 1408 conicto
2304 1811 2156 2025 conicto
2009 2240 1732 2240 conicto
1732 2880 moveto
2453 2880 2858 2489 conicto
3264 2099 3264 1408 conicto
3264 717 2858 326 conicto
2453 -64 1732 -64 conicto
1008 -64 600 326 conicto
192 717 192 1408 conicto
192 2099 600 2489 conicto
1008 2880 1732 2880 conicto
end_ol grestore 
gsave 24.886865 13.726667 translate 0.035278 -0.035278 scale
start_ol
2624 2752 moveto
2624 2048 lineto
2341 2176 2078 2240 conicto
1815 2304 1582 2304 conicto
1331 2304 1209 2237 conicto
1088 2171 1088 2033 conicto
1088 1921 1181 1861 conicto
1275 1801 1516 1772 conicto
1673 1748 lineto
2349 1661 2582 1461 conicto
2816 1261 2816 833 conicto
2816 386 2486 161 conicto
2156 -64 1502 -64 conicto
1224 -64 928 -32 conicto
632 0 320 64 conicto
320 768 lineto
590 640 874 576 conicto
1158 512 1451 512 conicto
1716 512 1850 585 conicto
1984 658 1984 801 conicto
1984 922 1893 981 conicto
1802 1040 1531 1073 conicto
1374 1093 lineto
754 1169 505 1373 conicto
256 1578 256 1995 conicto
256 2445 563 2662 conicto
870 2880 1504 2880 conicto
1753 2880 2027 2849 conicto
2302 2818 2624 2752 conicto
end_ol grestore 
gsave 25.288982 13.726667 translate 0.035278 -0.035278 scale
start_ol
end_ol grestore 
gsave 25.523758 13.726667 translate 0.035278 -0.035278 scale
start_ol
2304 2432 moveto
2304 3904 lineto
3200 3904 lineto
3200 0 lineto
2304 0 lineto
2304 384 lineto
2118 152 1895 44 conicto
1672 -64 1378 -64 conicto
859 -64 525 348 conicto
192 760 192 1408 conicto
192 2056 525 2468 conicto
859 2880 1378 2880 conicto
1669 2880 1893 2771 conicto
2118 2662 2304 2432 conicto
1727 576 moveto
2008 576 2156 789 conicto
2304 1002 2304 1408 conicto
2304 1814 2156 2027 conicto
2008 2240 1727 2240 conicto
1448 2240 1300 2027 conicto
1152 1814 1152 1408 conicto
1152 1002 1300 789 conicto
1448 576 1727 576 conicto
end_ol grestore 
gsave 26.008301 13.726667 translate 0.035278 -0.035278 scale
start_ol
3200 1418 moveto
3200 1152 lineto
1088 1152 lineto
1121 832 1318 672 conicto
1516 512 1870 512 conicto
2156 512 2456 591 conicto
2756 671 3072 832 conicto
3072 128 lineto
2754 33 2435 -15 conicto
2117 -64 1799 -64 conicto
1037 -64 614 323 conicto
192 710 192 1408 conicto
192 2094 606 2487 conicto
1020 2880 1746 2880 conicto
2407 2880 2803 2482 conicto
3200 2084 3200 1418 conicto
2304 1728 moveto
2304 1987 2149 2145 conicto
1995 2304 1746 2304 conicto
1477 2304 1308 2155 conicto
1139 2007 1098 1728 conicto
2304 1728 lineto
end_ol grestore 
gsave 26.467866 13.726667 translate 0.035278 -0.035278 scale
start_ol
end_ol grestore 
gsave 26.702642 13.726667 translate 0.035278 -0.035278 scale
start_ol
1922 576 moveto
2202 576 2349 789 conicto
2496 1002 2496 1408 conicto
2496 1814 2349 2027 conicto
2202 2240 1922 2240 conicto
1643 2240 1493 2025 conicto
1344 1811 1344 1408 conicto
1344 1005 1493 790 conicto
1643 576 1922 576 conicto
1344 2432 moveto
1529 2662 1754 2771 conicto
1980 2880 2272 2880 conicto
2790 2880 3123 2468 conicto
3456 2056 3456 1408 conicto
3456 760 3123 348 conicto
2790 -64 2272 -64 conicto
1980 -64 1754 45 conicto
1529 154 1344 384 conicto
1344 0 lineto
448 0 lineto
448 3904 lineto
1344 3904 lineto
1344 2432 lineto
end_ol grestore 
gsave 27.187185 13.726667 translate 0.035278 -0.035278 scale
start_ol
448 1121 moveto
448 2816 lineto
1344 2816 lineto
1344 2538 lineto
1344 2313 1341 1972 conicto
1339 1631 1339 1517 conicto
1339 1183 1356 1035 conicto
1374 888 1417 821 conicto
1472 734 1561 687 conicto
1650 640 1766 640 conicto
2047 640 2207 853 conicto
2368 1066 2368 1445 conicto
2368 2816 lineto
3264 2816 lineto
3264 0 lineto
2368 0 lineto
2368 384 lineto
2166 154 1939 45 conicto
1713 -64 1441 -64 conicto
956 -64 702 239 conicto
448 543 448 1121 conicto
end_ol grestore 
gsave 27.669231 13.726667 translate 0.035278 -0.035278 scale
start_ol
2304 448 moveto
2118 217 1895 108 conicto
1672 0 1378 0 conicto
864 0 528 406 conicto
192 812 192 1441 conicto
192 2073 528 2476 conicto
864 2880 1378 2880 conicto
1672 2880 1895 2772 conicto
2118 2664 2304 2432 conicto
2304 2816 lineto
3200 2816 lineto
3200 266 lineto
3200 -393 2769 -740 conicto
2339 -1088 1522 -1088 conicto
1257 -1088 1009 -1056 conicto
762 -1025 512 -960 conicto
512 -256 lineto
751 -385 979 -448 conicto
1208 -512 1440 -512 conicto
1887 -512 2095 -323 conicto
2304 -135 2304 266 conicto
2304 448 lineto
1727 2240 moveto
1455 2240 1303 2030 conicto
1152 1821 1152 1439 conicto
1152 1046 1299 843 conicto
1446 640 1727 640 conicto
2001 640 2152 849 conicto
2304 1059 2304 1439 conicto
2304 1821 2152 2030 conicto
2001 2240 1727 2240 conicto
end_ol grestore 
gsave 28.153774 13.726667 translate 0.035278 -0.035278 scale
start_ol
512 960 moveto
1408 960 lineto
1408 211 lineto
768 -704 lineto
256 -704 lineto
512 211 lineto
512 960 lineto
end_ol grestore 
gsave 23.492500 14.573333 translate 0.035278 -0.035278 scale
start_ol
1344 384 moveto
1344 -1088 lineto
448 -1088 lineto
448 2816 lineto
1344 2816 lineto
1344 2432 lineto
1529 2662 1754 2771 conicto
1980 2880 2272 2880 conicto
2790 2880 3123 2468 conicto
3456 2056 3456 1408 conicto
3456 760 3123 348 conicto
2790 -64 2272 -64 conicto
1980 -64 1754 45 conicto
1529 154 1344 384 conicto
1922 2240 moveto
1643 2240 1493 2025 conicto
1344 1811 1344 1408 conicto
1344 1005 1493 790 conicto
1643 576 1922 576 conicto
2202 576 2349 789 conicto
2496 1002 2496 1408 conicto
2496 1814 2349 2027 conicto
2202 2240 1922 2240 conicto
end_ol grestore 
gsave 23.977043 14.573333 translate 0.035278 -0.035278 scale
start_ol
1649 1280 moveto
1370 1280 1229 1181 conicto
1088 1082 1088 889 conicto
1088 712 1201 612 conicto
1315 512 1517 512 conicto
1768 512 1940 700 conicto
2112 889 2112 1173 conicto
2112 1280 lineto
1649 1280 lineto
3008 1605 moveto
3008 0 lineto
2112 0 lineto
2112 448 lineto
1933 180 1709 58 conicto
1485 -64 1164 -64 conicto
732 -64 462 188 conicto
192 441 192 844 conicto
192 1334 528 1563 conicto
865 1792 1586 1792 conicto
2112 1792 lineto
2112 1864 lineto
2112 2092 1946 2198 conicto
1781 2304 1431 2304 conicto
1147 2304 902 2240 conicto
658 2176 448 2048 conicto
448 2752 lineto
731 2815 1016 2847 conicto
1301 2880 1586 2880 conicto
2339 2880 2673 2580 conicto
3008 2280 3008 1605 conicto
end_ol grestore 
gsave 24.434111 14.573333 translate 0.035278 -0.035278 scale
start_ol
1408 3584 moveto
1408 2816 lineto
2304 2816 lineto
2304 2176 lineto
1408 2176 lineto
1408 976 lineto
1408 779 1484 709 conicto
1561 640 1787 640 conicto
2240 640 lineto
2240 0 lineto
1484 0 lineto
954 0 733 222 conicto
512 444 512 976 conicto
512 2176 lineto
64 2176 lineto
64 2816 lineto
512 2816 lineto
512 3584 lineto
1408 3584 lineto
end_ol grestore 
gsave 24.758804 14.573333 translate 0.035278 -0.035278 scale
start_ol
2688 2688 moveto
2688 1984 lineto
2506 2115 2322 2177 conicto
2139 2240 1942 2240 conicto
1568 2240 1360 2020 conicto
1152 1801 1152 1408 conicto
1152 1015 1360 795 conicto
1568 576 1942 576 conicto
2152 576 2340 640 conicto
2528 705 2688 832 conicto
2688 128 lineto
2476 32 2257 -16 conicto
2039 -64 1820 -64 conicto
1055 -64 623 325 conicto
192 715 192 1408 conicto
192 2101 623 2490 conicto
1055 2880 1820 2880 conicto
2042 2880 2257 2832 conicto
2473 2784 2688 2688 conicto
end_ol grestore 
gsave 25.160921 14.573333 translate 0.035278 -0.035278 scale
start_ol
3264 1692 moveto
3264 0 lineto
2368 0 lineto
2368 275 lineto
2368 1290 lineto
2368 1655 2351 1791 conicto
2335 1928 2295 1992 conicto
2243 2079 2152 2127 conicto
2062 2176 1946 2176 conicto
1665 2176 1504 1961 conicto
1344 1747 1344 1367 conicto
1344 0 lineto
448 0 lineto
448 3904 lineto
1344 3904 lineto
1344 2432 lineto
1547 2662 1774 2771 conicto
2002 2880 2277 2880 conicto
2762 2880 3013 2576 conicto
3264 2272 3264 1692 conicto
end_ol grestore 
gsave 25.642967 14.573333 translate 0.035278 -0.035278 scale
start_ol
3200 1418 moveto
3200 1152 lineto
1088 1152 lineto
1121 832 1318 672 conicto
1516 512 1870 512 conicto
2156 512 2456 591 conicto
2756 671 3072 832 conicto
3072 128 lineto
2754 33 2435 -15 conicto
2117 -64 1799 -64 conicto
1037 -64 614 323 conicto
192 710 192 1408 conicto
192 2094 606 2487 conicto
1020 2880 1746 2880 conicto
2407 2880 2803 2482 conicto
3200 2084 3200 1418 conicto
2304 1728 moveto
2304 1987 2149 2145 conicto
1995 2304 1746 2304 conicto
1477 2304 1308 2155 conicto
1139 2007 1098 1728 conicto
2304 1728 lineto
end_ol grestore 
gsave 26.102532 14.573333 translate 0.035278 -0.035278 scale
start_ol
2624 2752 moveto
2624 2048 lineto
2341 2176 2078 2240 conicto
1815 2304 1582 2304 conicto
1331 2304 1209 2237 conicto
1088 2171 1088 2033 conicto
1088 1921 1181 1861 conicto
1275 1801 1516 1772 conicto
1673 1748 lineto
2349 1661 2582 1461 conicto
2816 1261 2816 833 conicto
2816 386 2486 161 conicto
2156 -64 1502 -64 conicto
1224 -64 928 -32 conicto
632 0 320 64 conicto
320 768 lineto
590 640 874 576 conicto
1158 512 1451 512 conicto
1716 512 1850 585 conicto
1984 658 1984 801 conicto
1984 922 1893 981 conicto
1802 1040 1531 1073 conicto
1374 1093 lineto
754 1169 505 1373 conicto
256 1578 256 1995 conicto
256 2445 563 2662 conicto
870 2880 1504 2880 conicto
1753 2880 2027 2849 conicto
2302 2818 2624 2752 conicto
end_ol grestore 
0.100000 slw
[] 0 sd
[] 0 sd
0 slc
n 41.000000 10.750000 m 42.000000 10.750000 l s
0.100000 slw
[] 0 sd
[] 0 sd
0 slc
n 42.000000 12.250000 m 41.550000 12.250000 l s
0 slj
n 41.550000 12.000000 m 41.050000 12.250000 l 41.550000 12.500000 l ef
0.100000 slw
[] 0 sd
0 slj
n 41.550000 12.000000 m 41.050000 12.250000 l 41.550000 12.500000 l cp s
0.100000 slw
[] 0 sd
[] 0 sd
0 slc
n 45.000000 10.750000 m 45.450000 10.750000 l s
0 slj
n 45.450000 11.000000 m 45.950000 10.750000 l 45.450000 10.500000 l ef
0.100000 slw
[] 0 sd
0 slj
n 45.450000 11.000000 m 45.950000 10.750000 l 45.450000 10.500000 l cp s
0.100000 slw
[] 0 sd
[] 0 sd
0 slc
n 46.000000 12.250000 m 45.000000 12.250000 l s
0.100000 slw
[1.000000] 0 sd
[0.300000] 0 sd
0 slc
n 42.000000 10.750000 m 45.000000 10.750000 l s
0.100000 slw
[0.300000] 0 sd
[0.300000] 0 sd
0 slc
n 42.000000 12.250000 m 45.000000 12.250000 l s
1.000000 1.000000 1.000000 srgb
n 46.000000 10.000000 m 46.000000 13.000000 l 51.000000 13.000000 l 51.000000 10.000000 l f
0.100000 slw
[] 0 sd
[] 0 sd
0 slj
0.000000 0.000000 0.000000 srgb
n 46.000000 10.000000 m 46.000000 13.000000 l 51.000000 13.000000 l 51.000000 10.000000 l cp s
gsave 46.980000 11.706667 translate 0.035278 -0.035278 scale
start_ol
1408 3008 moveto
1408 704 lineto
1748 704 lineto
2330 704 2637 1000 conicto
2944 1296 2944 1860 conicto
2944 2421 2638 2714 conicto
2332 3008 1748 3008 conicto
1408 3008 lineto
448 3712 moveto
1460 3712 lineto
2314 3712 2732 3591 conicto
3150 3471 3448 3182 conicto
3712 2931 3840 2603 conicto
3968 2275 3968 1860 conicto
3968 1440 3840 1110 conicto
3712 781 3448 530 conicto
3147 241 2725 120 conicto
2304 0 1460 0 conicto
448 0 lineto
448 3712 lineto
end_ol grestore 
gsave 47.541975 11.706667 translate 0.035278 -0.035278 scale
start_ol
448 2816 moveto
1344 2816 lineto
1344 0 lineto
448 0 lineto
448 2816 lineto
448 3904 moveto
1344 3904 lineto
1344 3136 lineto
448 3136 lineto
448 3904 lineto
end_ol grestore 
gsave 47.774254 11.706667 translate 0.035278 -0.035278 scale
start_ol
2624 2752 moveto
2624 2048 lineto
2341 2176 2078 2240 conicto
1815 2304 1582 2304 conicto
1331 2304 1209 2237 conicto
1088 2171 1088 2033 conicto
1088 1921 1181 1861 conicto
1275 1801 1516 1772 conicto
1673 1748 lineto
2349 1661 2582 1461 conicto
2816 1261 2816 833 conicto
2816 386 2486 161 conicto
2156 -64 1502 -64 conicto
1224 -64 928 -32 conicto
632 0 320 64 conicto
320 768 lineto
590 640 874 576 conicto
1158 512 1451 512 conicto
1716 512 1850 585 conicto
1984 658 1984 801 conicto
1984 922 1893 981 conicto
1802 1040 1531 1073 conicto
1374 1093 lineto
754 1169 505 1373 conicto
256 1578 256 1995 conicto
256 2445 563 2662 conicto
870 2880 1504 2880 conicto
1753 2880 2027 2849 conicto
2302 2818 2624 2752 conicto
end_ol grestore 
gsave 48.176371 11.706667 translate 0.035278 -0.035278 scale
start_ol
1408 3584 moveto
1408 2816 lineto
2304 2816 lineto
2304 2176 lineto
1408 2176 lineto
1408 976 lineto
1408 779 1484 709 conicto
1561 640 1787 640 conicto
2240 640 lineto
2240 0 lineto
1484 0 lineto
954 0 733 222 conicto
512 444 512 976 conicto
512 2176 lineto
64 2176 lineto
64 2816 lineto
512 2816 lineto
512 3584 lineto
1408 3584 lineto
end_ol grestore 
gsave 48.501065 11.706667 translate 0.035278 -0.035278 scale
start_ol
2560 2048 moveto
2439 2113 2320 2144 conicto
2201 2176 2080 2176 conicto
1726 2176 1535 1948 conicto
1344 1721 1344 1297 conicto
1344 0 lineto
448 0 lineto
448 2816 lineto
1344 2816 lineto
1344 2368 lineto
1521 2635 1750 2757 conicto
1980 2880 2301 2880 conicto
2347 2880 2401 2876 conicto
2455 2873 2557 2861 conicto
2560 2048 lineto
end_ol grestore 
gsave 48.835746 11.706667 translate 0.035278 -0.035278 scale
start_ol
1732 2240 moveto
1449 2240 1300 2025 conicto
1152 1811 1152 1408 conicto
1152 1005 1300 790 conicto
1449 576 1732 576 conicto
2009 576 2156 790 conicto
2304 1005 2304 1408 conicto
2304 1811 2156 2025 conicto
2009 2240 1732 2240 conicto
1732 2880 moveto
2453 2880 2858 2489 conicto
3264 2099 3264 1408 conicto
3264 717 2858 326 conicto
2453 -64 1732 -64 conicto
1008 -64 600 326 conicto
192 717 192 1408 conicto
192 2099 600 2489 conicto
1008 2880 1732 2880 conicto
end_ol grestore 
gsave 49.300305 11.706667 translate 0.035278 -0.035278 scale
start_ol
end_ol grestore 
gsave 49.535081 11.706667 translate 0.035278 -0.035278 scale
start_ol
3264 1692 moveto
3264 0 lineto
2368 0 lineto
2368 275 lineto
2368 1295 lineto
2368 1655 2351 1791 conicto
2335 1928 2295 1992 conicto
2243 2079 2152 2127 conicto
2062 2176 1946 2176 conicto
1665 2176 1504 1961 conicto
1344 1747 1344 1367 conicto
1344 0 lineto
448 0 lineto
448 2816 lineto
1344 2816 lineto
1344 2432 lineto
1547 2662 1774 2771 conicto
2002 2880 2277 2880 conicto
2762 2880 3013 2576 conicto
3264 2272 3264 1692 conicto
end_ol grestore 
0.100000 slw
[] 0 sd
[] 0 sd
0 slc
n 29.500000 14.425000 m 29.500000 13.550000 l s
0 slj
n 29.250000 14.425000 m 29.500000 14.925000 l 29.750000 14.425000 l ef
0.100000 slw
[] 0 sd
0 slj
n 29.250000 14.425000 m 29.500000 14.925000 l 29.750000 14.425000 l cp s
0 slj
n 29.750000 13.550000 m 29.500000 13.050000 l 29.250000 13.550000 l ef
0.100000 slw
[] 0 sd
0 slj
n 29.750000 13.550000 m 29.500000 13.050000 l 29.250000 13.550000 l cp s
0.100000 slw
[] 0 sd
[] 0 sd
0 slc
n 29.500000 18.375000 m 30.500000 19.375000 l s
0.100000 slw
[] 0 sd
[] 0 sd
0 slc
n 29.500000 18.375000 m 28.500000 19.375000 l s
0.100000 slw
[] 0 sd
[] 0 sd
0 slc
n 29.500000 16.375000 m 29.500000 18.375000 l s
0.100000 slw
[] 0 sd
[] 0 sd
0 slc
n 29.500000 16.375000 m 28.500000 17.375000 l s
0.100000 slw
[] 0 sd
[] 0 sd
0 slc
n 29.500000 16.375000 m 30.500000 17.375000 l s
1.000000 1.000000 1.000000 srgb
n 29.500000 15.875000 0.500000 0.500000 0 360 ellipse f
0.100000 slw
[] 0 sd
[] 0 sd
0.000000 0.000000 0.000000 srgb
n 29.500000 15.875000 0.500000 0.500000 0 360 ellipse cp s
gsave 41.688750 8.896667 translate 0.035278 -0.035278 scale
start_ol
2624 2752 moveto
2624 2048 lineto
2341 2176 2078 2240 conicto
1815 2304 1582 2304 conicto
1331 2304 1209 2237 conicto
1088 2171 1088 2033 conicto
1088 1921 1181 1861 conicto
1275 1801 1516 1772 conicto
1673 1748 lineto
2349 1661 2582 1461 conicto
2816 1261 2816 833 conicto
2816 386 2486 161 conicto
2156 -64 1502 -64 conicto
1224 -64 928 -32 conicto
632 0 320 64 conicto
320 768 lineto
590 640 874 576 conicto
1158 512 1451 512 conicto
1716 512 1850 585 conicto
1984 658 1984 801 conicto
1984 922 1893 981 conicto
1802 1040 1531 1073 conicto
1374 1093 lineto
754 1169 505 1373 conicto
256 1578 256 1995 conicto
256 2445 563 2662 conicto
870 2880 1504 2880 conicto
1753 2880 2027 2849 conicto
2302 2818 2624 2752 conicto
end_ol grestore 
gsave 42.090867 8.896667 translate 0.035278 -0.035278 scale
start_ol
1732 2240 moveto
1449 2240 1300 2025 conicto
1152 1811 1152 1408 conicto
1152 1005 1300 790 conicto
1449 576 1732 576 conicto
2009 576 2156 790 conicto
2304 1005 2304 1408 conicto
2304 1811 2156 2025 conicto
2009 2240 1732 2240 conicto
1732 2880 moveto
2453 2880 2858 2489 conicto
3264 2099 3264 1408 conicto
3264 717 2858 326 conicto
2453 -64 1732 -64 conicto
1008 -64 600 326 conicto
192 717 192 1408 conicto
192 2099 600 2489 conicto
1008 2880 1732 2880 conicto
end_ol grestore 
gsave 42.555426 8.896667 translate 0.035278 -0.035278 scale
start_ol
2240 3904 moveto
2240 3328 lineto
1749 3328 lineto
1558 3328 1483 3258 conicto
1408 3188 1408 3015 conicto
1408 2816 lineto
2176 2816 lineto
2176 2176 lineto
1408 2176 lineto
1408 0 lineto
512 0 lineto
512 2176 lineto
64 2176 lineto
64 2816 lineto
512 2816 lineto
512 3015 lineto
512 3469 767 3686 conicto
1023 3904 1559 3904 conicto
2240 3904 lineto
end_ol grestore 
gsave 42.850147 8.896667 translate 0.035278 -0.035278 scale
start_ol
1408 3584 moveto
1408 2816 lineto
2304 2816 lineto
2304 2176 lineto
1408 2176 lineto
1408 976 lineto
1408 779 1484 709 conicto
1561 640 1787 640 conicto
2240 640 lineto
2240 0 lineto
1484 0 lineto
954 0 733 222 conicto
512 444 512 976 conicto
512 2176 lineto
64 2176 lineto
64 2816 lineto
512 2816 lineto
512 3584 lineto
1408 3584 lineto
end_ol grestore 
gsave 43.174840 8.896667 translate 0.035278 -0.035278 scale
start_ol
192 2816 moveto
1058 2816 lineto
1526 875 lineto
1996 2816 lineto
2740 2816 lineto
3208 895 lineto
3678 2816 lineto
4544 2816 lineto
3810 0 lineto
2837 0 lineto
2367 1936 lineto
1899 0 lineto
926 0 lineto
192 2816 lineto
end_ol grestore 
gsave 43.799257 8.896667 translate 0.035278 -0.035278 scale
start_ol
1649 1280 moveto
1370 1280 1229 1181 conicto
1088 1082 1088 889 conicto
1088 712 1201 612 conicto
1315 512 1517 512 conicto
1768 512 1940 700 conicto
2112 889 2112 1173 conicto
2112 1280 lineto
1649 1280 lineto
3008 1605 moveto
3008 0 lineto
2112 0 lineto
2112 448 lineto
1933 180 1709 58 conicto
1485 -64 1164 -64 conicto
732 -64 462 188 conicto
192 441 192 844 conicto
192 1334 528 1563 conicto
865 1792 1586 1792 conicto
2112 1792 lineto
2112 1864 lineto
2112 2092 1946 2198 conicto
1781 2304 1431 2304 conicto
1147 2304 902 2240 conicto
658 2176 448 2048 conicto
448 2752 lineto
731 2815 1016 2847 conicto
1301 2880 1586 2880 conicto
2339 2880 2673 2580 conicto
3008 2280 3008 1605 conicto
end_ol grestore 
gsave 44.256325 8.896667 translate 0.035278 -0.035278 scale
start_ol
2560 2048 moveto
2439 2113 2320 2144 conicto
2201 2176 2080 2176 conicto
1726 2176 1535 1948 conicto
1344 1721 1344 1297 conicto
1344 0 lineto
448 0 lineto
448 2816 lineto
1344 2816 lineto
1344 2368 lineto
1521 2635 1750 2757 conicto
1980 2880 2301 2880 conicto
2347 2880 2401 2876 conicto
2455 2873 2557 2861 conicto
2560 2048 lineto
end_ol grestore 
gsave 44.591006 8.896667 translate 0.035278 -0.035278 scale
start_ol
3200 1418 moveto
3200 1152 lineto
1088 1152 lineto
1121 832 1318 672 conicto
1516 512 1870 512 conicto
2156 512 2456 591 conicto
2756 671 3072 832 conicto
3072 128 lineto
2754 33 2435 -15 conicto
2117 -64 1799 -64 conicto
1037 -64 614 323 conicto
192 710 192 1408 conicto
192 2094 606 2487 conicto
1020 2880 1746 2880 conicto
2407 2880 2803 2482 conicto
3200 2084 3200 1418 conicto
2304 1728 moveto
2304 1987 2149 2145 conicto
1995 2304 1746 2304 conicto
1477 2304 1308 2155 conicto
1139 2007 1098 1728 conicto
2304 1728 lineto
end_ol grestore 
gsave 45.050571 8.896667 translate 0.035278 -0.035278 scale
start_ol
512 960 moveto
1408 960 lineto
1408 211 lineto
768 -704 lineto
256 -704 lineto
512 211 lineto
512 960 lineto
end_ol grestore 
gsave 41.636250 9.743333 translate 0.035278 -0.035278 scale
start_ol
2688 2688 moveto
2688 1984 lineto
2506 2115 2322 2177 conicto
2139 2240 1942 2240 conicto
1568 2240 1360 2020 conicto
1152 1801 1152 1408 conicto
1152 1015 1360 795 conicto
1568 576 1942 576 conicto
2152 576 2340 640 conicto
2528 705 2688 832 conicto
2688 128 lineto
2476 32 2257 -16 conicto
2039 -64 1820 -64 conicto
1055 -64 623 325 conicto
192 715 192 1408 conicto
192 2101 623 2490 conicto
1055 2880 1820 2880 conicto
2042 2880 2257 2832 conicto
2473 2784 2688 2688 conicto
end_ol grestore 
gsave 42.038367 9.743333 translate 0.035278 -0.035278 scale
start_ol
1732 2240 moveto
1449 2240 1300 2025 conicto
1152 1811 1152 1408 conicto
1152 1005 1300 790 conicto
1449 576 1732 576 conicto
2009 576 2156 790 conicto
2304 1005 2304 1408 conicto
2304 1811 2156 2025 conicto
2009 2240 1732 2240 conicto
1732 2880 moveto
2453 2880 2858 2489 conicto
3264 2099 3264 1408 conicto
3264 717 2858 326 conicto
2453 -64 1732 -64 conicto
1008 -64 600 326 conicto
192 717 192 1408 conicto
192 2099 600 2489 conicto
1008 2880 1732 2880 conicto
end_ol grestore 
gsave 42.502926 9.743333 translate 0.035278 -0.035278 scale
start_ol
2560 2048 moveto
2439 2113 2320 2144 conicto
2201 2176 2080 2176 conicto
1726 2176 1535 1948 conicto
1344 1721 1344 1297 conicto
1344 0 lineto
448 0 lineto
448 2816 lineto
1344 2816 lineto
1344 2368 lineto
1521 2635 1750 2757 conicto
1980 2880 2301 2880 conicto
2347 2880 2401 2876 conicto
2455 2873 2557 2861 conicto
2560 2048 lineto
end_ol grestore 
gsave 42.837607 9.743333 translate 0.035278 -0.035278 scale
start_ol
2560 2048 moveto
2439 2113 2320 2144 conicto
2201 2176 2080 2176 conicto
1726 2176 1535 1948 conicto
1344 1721 1344 1297 conicto
1344 0 lineto
448 0 lineto
448 2816 lineto
1344 2816 lineto
1344 2368 lineto
1521 2635 1750 2757 conicto
1980 2880 2301 2880 conicto
2347 2880 2401 2876 conicto
2455 2873 2557 2861 conicto
2560 2048 lineto
end_ol grestore 
gsave 43.172289 9.743333 translate 0.035278 -0.035278 scale
start_ol
3200 1418 moveto
3200 1152 lineto
1088 1152 lineto
1121 832 1318 672 conicto
1516 512 1870 512 conicto
2156 512 2456 591 conicto
2756 671 3072 832 conicto
3072 128 lineto
2754 33 2435 -15 conicto
2117 -64 1799 -64 conicto
1037 -64 614 323 conicto
192 710 192 1408 conicto
192 2094 606 2487 conicto
1020 2880 1746 2880 conicto
2407 2880 2803 2482 conicto
3200 2084 3200 1418 conicto
2304 1728 moveto
2304 1987 2149 2145 conicto
1995 2304 1746 2304 conicto
1477 2304 1308 2155 conicto
1139 2007 1098 1728 conicto
2304 1728 lineto
end_ol grestore 
gsave 43.631853 9.743333 translate 0.035278 -0.035278 scale
start_ol
2688 2688 moveto
2688 1984 lineto
2506 2115 2322 2177 conicto
2139 2240 1942 2240 conicto
1568 2240 1360 2020 conicto
1152 1801 1152 1408 conicto
1152 1015 1360 795 conicto
1568 576 1942 576 conicto
2152 576 2340 640 conicto
2528 705 2688 832 conicto
2688 128 lineto
2476 32 2257 -16 conicto
2039 -64 1820 -64 conicto
1055 -64 623 325 conicto
192 715 192 1408 conicto
192 2101 623 2490 conicto
1055 2880 1820 2880 conicto
2042 2880 2257 2832 conicto
2473 2784 2688 2688 conicto
1975 0 moveto
2111 -158 2175 -293 conicto
2240 -429 2240 -549 conicto
2240 -792 2083 -908 conicto
1927 -1024 1603 -1024 conicto
1480 -1024 1350 -1008 conicto
1221 -992 1088 -960 conicto
1085 -576 lineto
1219 -609 1329 -624 conicto
1440 -640 1528 -640 conicto
1683 -640 1769 -582 conicto
1856 -524 1856 -423 conicto
1856 -358 1798 -254 conicto
1741 -151 1621 0 conicto
1975 0 lineto
end_ol grestore 
gsave 44.033970 9.743333 translate 0.035278 -0.035278 scale
start_ol
1732 2240 moveto
1449 2240 1300 2025 conicto
1152 1811 1152 1408 conicto
1152 1005 1300 790 conicto
1449 576 1732 576 conicto
2009 576 2156 790 conicto
2304 1005 2304 1408 conicto
2304 1811 2156 2025 conicto
2009 2240 1732 2240 conicto
1732 2880 moveto
2453 2880 2858 2489 conicto
3264 2099 3264 1408 conicto
3264 717 2858 326 conicto
2453 -64 1732 -64 conicto
1008 -64 600 326 conicto
192 717 192 1408 conicto
192 2099 600 2489 conicto
1008 2880 1732 2880 conicto
1733 3531 moveto
1585 3622 lineto
1575 3627 1558 3637 conicto
1431 3712 1364 3712 conicto
1267 3712 1215 3636 conicto
1164 3560 1164 3416 conicto
1164 3397 lineto
832 3397 lineto
832 3732 964 3914 conicto
1097 4096 1337 4096 conicto
1429 4096 1523 4063 conicto
1617 4030 1723 3957 conicto
1888 3852 lineto
1947 3815 1996 3795 conicto
2046 3776 2087 3776 conicto
2184 3776 2238 3854 conicto
2292 3933 2292 4072 conicto
2292 4091 lineto
2624 4091 lineto
2624 3756 2491 3574 conicto
2359 3392 2119 3392 conicto
2027 3392 1941 3421 conicto
1855 3451 1733 3531 conicto
end_ol grestore 
gsave 44.498529 9.743333 translate 0.035278 -0.035278 scale
start_ol
3200 1418 moveto
3200 1152 lineto
1088 1152 lineto
1121 832 1318 672 conicto
1516 512 1870 512 conicto
2156 512 2456 591 conicto
2756 671 3072 832 conicto
3072 128 lineto
2754 33 2435 -15 conicto
2117 -64 1799 -64 conicto
1037 -64 614 323 conicto
192 710 192 1408 conicto
192 2094 606 2487 conicto
1020 2880 1746 2880 conicto
2407 2880 2803 2482 conicto
3200 2084 3200 1418 conicto
2304 1728 moveto
2304 1987 2149 2145 conicto
1995 2304 1746 2304 conicto
1477 2304 1308 2155 conicto
1139 2007 1098 1728 conicto
2304 1728 lineto
end_ol grestore 
gsave 44.958094 9.743333 translate 0.035278 -0.035278 scale
start_ol
2624 2752 moveto
2624 2048 lineto
2341 2176 2078 2240 conicto
1815 2304 1582 2304 conicto
1331 2304 1209 2237 conicto
1088 2171 1088 2033 conicto
1088 1921 1181 1861 conicto
1275 1801 1516 1772 conicto
1673 1748 lineto
2349 1661 2582 1461 conicto
2816 1261 2816 833 conicto
2816 386 2486 161 conicto
2156 -64 1502 -64 conicto
1224 -64 928 -32 conicto
632 0 320 64 conicto
320 768 lineto
590 640 874 576 conicto
1158 512 1451 512 conicto
1716 512 1850 585 conicto
1984 658 1984 801 conicto
1984 922 1893 981 conicto
1802 1040 1531 1073 conicto
1374 1093 lineto
754 1169 505 1373 conicto
256 1578 256 1995 conicto
256 2445 563 2662 conicto
870 2880 1504 2880 conicto
1753 2880 2027 2849 conicto
2302 2818 2624 2752 conicto
end_ol grestore 
gsave 40.082500 13.726667 translate 0.035278 -0.035278 scale
start_ol
2560 2048 moveto
2439 2113 2320 2144 conicto
2201 2176 2080 2176 conicto
1726 2176 1535 1948 conicto
1344 1721 1344 1297 conicto
1344 0 lineto
448 0 lineto
448 2816 lineto
1344 2816 lineto
1344 2368 lineto
1521 2635 1750 2757 conicto
1980 2880 2301 2880 conicto
2347 2880 2401 2876 conicto
2455 2873 2557 2861 conicto
2560 2048 lineto
end_ol grestore 
gsave 40.417181 13.726667 translate 0.035278 -0.035278 scale
start_ol
3200 1418 moveto
3200 1152 lineto
1088 1152 lineto
1121 832 1318 672 conicto
1516 512 1870 512 conicto
2156 512 2456 591 conicto
2756 671 3072 832 conicto
3072 128 lineto
2754 33 2435 -15 conicto
2117 -64 1799 -64 conicto
1037 -64 614 323 conicto
192 710 192 1408 conicto
192 2094 606 2487 conicto
1020 2880 1746 2880 conicto
2407 2880 2803 2482 conicto
3200 2084 3200 1418 conicto
2304 1728 moveto
2304 1987 2149 2145 conicto
1995 2304 1746 2304 conicto
1477 2304 1308 2155 conicto
1139 2007 1098 1728 conicto
2304 1728 lineto
end_ol grestore 
gsave 40.876746 13.726667 translate 0.035278 -0.035278 scale
start_ol
448 3904 moveto
1344 3904 lineto
1344 0 lineto
448 0 lineto
448 3904 lineto
end_ol grestore 
gsave 41.109025 13.726667 translate 0.035278 -0.035278 scale
start_ol
1649 1280 moveto
1370 1280 1229 1181 conicto
1088 1082 1088 889 conicto
1088 712 1201 612 conicto
1315 512 1517 512 conicto
1768 512 1940 700 conicto
2112 889 2112 1173 conicto
2112 1280 lineto
1649 1280 lineto
3008 1605 moveto
3008 0 lineto
2112 0 lineto
2112 448 lineto
1933 180 1709 58 conicto
1485 -64 1164 -64 conicto
732 -64 462 188 conicto
192 441 192 844 conicto
192 1334 528 1563 conicto
865 1792 1586 1792 conicto
2112 1792 lineto
2112 1864 lineto
2112 2092 1946 2198 conicto
1781 2304 1431 2304 conicto
1147 2304 902 2240 conicto
658 2176 448 2048 conicto
448 2752 lineto
731 2815 1016 2847 conicto
1301 2880 1586 2880 conicto
2339 2880 2673 2580 conicto
3008 2280 3008 1605 conicto
end_ol grestore 
gsave 41.566093 13.726667 translate 0.035278 -0.035278 scale
start_ol
1408 3584 moveto
1408 2816 lineto
2304 2816 lineto
2304 2176 lineto
1408 2176 lineto
1408 976 lineto
1408 779 1484 709 conicto
1561 640 1787 640 conicto
2240 640 lineto
2240 0 lineto
1484 0 lineto
954 0 733 222 conicto
512 444 512 976 conicto
512 2176 lineto
64 2176 lineto
64 2816 lineto
512 2816 lineto
512 3584 lineto
1408 3584 lineto
end_ol grestore 
gsave 41.890787 13.726667 translate 0.035278 -0.035278 scale
start_ol
1732 2240 moveto
1449 2240 1300 2025 conicto
1152 1811 1152 1408 conicto
1152 1005 1300 790 conicto
1449 576 1732 576 conicto
2009 576 2156 790 conicto
2304 1005 2304 1408 conicto
2304 1811 2156 2025 conicto
2009 2240 1732 2240 conicto
1732 2880 moveto
2453 2880 2858 2489 conicto
3264 2099 3264 1408 conicto
3264 717 2858 326 conicto
2453 -64 1732 -64 conicto
1008 -64 600 326 conicto
192 717 192 1408 conicto
192 2099 600 2489 conicto
1008 2880 1732 2880 conicto
2111 4096 moveto
2816 4096 lineto
1896 3136 lineto
1408 3136 lineto
2111 4096 lineto
end_ol grestore 
gsave 42.355345 13.726667 translate 0.035278 -0.035278 scale
start_ol
2560 2048 moveto
2439 2113 2320 2144 conicto
2201 2176 2080 2176 conicto
1726 2176 1535 1948 conicto
1344 1721 1344 1297 conicto
1344 0 lineto
448 0 lineto
448 2816 lineto
1344 2816 lineto
1344 2368 lineto
1521 2635 1750 2757 conicto
1980 2880 2301 2880 conicto
2347 2880 2401 2876 conicto
2455 2873 2557 2861 conicto
2560 2048 lineto
end_ol grestore 
gsave 42.690027 13.726667 translate 0.035278 -0.035278 scale
start_ol
448 2816 moveto
1344 2816 lineto
1344 0 lineto
448 0 lineto
448 2816 lineto
448 3904 moveto
1344 3904 lineto
1344 3136 lineto
448 3136 lineto
448 3904 lineto
end_ol grestore 
gsave 42.922306 13.726667 translate 0.035278 -0.035278 scale
start_ol
1732 2240 moveto
1449 2240 1300 2025 conicto
1152 1811 1152 1408 conicto
1152 1005 1300 790 conicto
1449 576 1732 576 conicto
2009 576 2156 790 conicto
2304 1005 2304 1408 conicto
2304 1811 2156 2025 conicto
2009 2240 1732 2240 conicto
1732 2880 moveto
2453 2880 2858 2489 conicto
3264 2099 3264 1408 conicto
3264 717 2858 326 conicto
2453 -64 1732 -64 conicto
1008 -64 600 326 conicto
192 717 192 1408 conicto
192 2099 600 2489 conicto
1008 2880 1732 2880 conicto
end_ol grestore 
gsave 43.386865 13.726667 translate 0.035278 -0.035278 scale
start_ol
2624 2752 moveto
2624 2048 lineto
2341 2176 2078 2240 conicto
1815 2304 1582 2304 conicto
1331 2304 1209 2237 conicto
1088 2171 1088 2033 conicto
1088 1921 1181 1861 conicto
1275 1801 1516 1772 conicto
1673 1748 lineto
2349 1661 2582 1461 conicto
2816 1261 2816 833 conicto
2816 386 2486 161 conicto
2156 -64 1502 -64 conicto
1224 -64 928 -32 conicto
632 0 320 64 conicto
320 768 lineto
590 640 874 576 conicto
1158 512 1451 512 conicto
1716 512 1850 585 conicto
1984 658 1984 801 conicto
1984 922 1893 981 conicto
1802 1040 1531 1073 conicto
1374 1093 lineto
754 1169 505 1373 conicto
256 1578 256 1995 conicto
256 2445 563 2662 conicto
870 2880 1504 2880 conicto
1753 2880 2027 2849 conicto
2302 2818 2624 2752 conicto
end_ol grestore 
gsave 43.788982 13.726667 translate 0.035278 -0.035278 scale
start_ol
end_ol grestore 
gsave 44.023758 13.726667 translate 0.035278 -0.035278 scale
start_ol
2304 2432 moveto
2304 3904 lineto
3200 3904 lineto
3200 0 lineto
2304 0 lineto
2304 384 lineto
2118 152 1895 44 conicto
1672 -64 1378 -64 conicto
859 -64 525 348 conicto
192 760 192 1408 conicto
192 2056 525 2468 conicto
859 2880 1378 2880 conicto
1669 2880 1893 2771 conicto
2118 2662 2304 2432 conicto
1727 576 moveto
2008 576 2156 789 conicto
2304 1002 2304 1408 conicto
2304 1814 2156 2027 conicto
2008 2240 1727 2240 conicto
1448 2240 1300 2027 conicto
1152 1814 1152 1408 conicto
1152 1002 1300 789 conicto
1448 576 1727 576 conicto
end_ol grestore 
gsave 44.508301 13.726667 translate 0.035278 -0.035278 scale
start_ol
3200 1418 moveto
3200 1152 lineto
1088 1152 lineto
1121 832 1318 672 conicto
1516 512 1870 512 conicto
2156 512 2456 591 conicto
2756 671 3072 832 conicto
3072 128 lineto
2754 33 2435 -15 conicto
2117 -64 1799 -64 conicto
1037 -64 614 323 conicto
192 710 192 1408 conicto
192 2094 606 2487 conicto
1020 2880 1746 2880 conicto
2407 2880 2803 2482 conicto
3200 2084 3200 1418 conicto
2304 1728 moveto
2304 1987 2149 2145 conicto
1995 2304 1746 2304 conicto
1477 2304 1308 2155 conicto
1139 2007 1098 1728 conicto
2304 1728 lineto
end_ol grestore 
gsave 44.967866 13.726667 translate 0.035278 -0.035278 scale
start_ol
end_ol grestore 
gsave 45.202642 13.726667 translate 0.035278 -0.035278 scale
start_ol
1922 576 moveto
2202 576 2349 789 conicto
2496 1002 2496 1408 conicto
2496 1814 2349 2027 conicto
2202 2240 1922 2240 conicto
1643 2240 1493 2025 conicto
1344 1811 1344 1408 conicto
1344 1005 1493 790 conicto
1643 576 1922 576 conicto
1344 2432 moveto
1529 2662 1754 2771 conicto
1980 2880 2272 2880 conicto
2790 2880 3123 2468 conicto
3456 2056 3456 1408 conicto
3456 760 3123 348 conicto
2790 -64 2272 -64 conicto
1980 -64 1754 45 conicto
1529 154 1344 384 conicto
1344 0 lineto
448 0 lineto
448 3904 lineto
1344 3904 lineto
1344 2432 lineto
end_ol grestore 
gsave 45.687185 13.726667 translate 0.035278 -0.035278 scale
start_ol
448 1121 moveto
448 2816 lineto
1344 2816 lineto
1344 2538 lineto
1344 2313 1341 1972 conicto
1339 1631 1339 1517 conicto
1339 1183 1356 1035 conicto
1374 888 1417 821 conicto
1472 734 1561 687 conicto
1650 640 1766 640 conicto
2047 640 2207 853 conicto
2368 1066 2368 1445 conicto
2368 2816 lineto
3264 2816 lineto
3264 0 lineto
2368 0 lineto
2368 384 lineto
2166 154 1939 45 conicto
1713 -64 1441 -64 conicto
956 -64 702 239 conicto
448 543 448 1121 conicto
end_ol grestore 
gsave 46.169231 13.726667 translate 0.035278 -0.035278 scale
start_ol
2304 448 moveto
2118 217 1895 108 conicto
1672 0 1378 0 conicto
864 0 528 406 conicto
192 812 192 1441 conicto
192 2073 528 2476 conicto
864 2880 1378 2880 conicto
1672 2880 1895 2772 conicto
2118 2664 2304 2432 conicto
2304 2816 lineto
3200 2816 lineto
3200 266 lineto
3200 -393 2769 -740 conicto
2339 -1088 1522 -1088 conicto
1257 -1088 1009 -1056 conicto
762 -1025 512 -960 conicto
512 -256 lineto
751 -385 979 -448 conicto
1208 -512 1440 -512 conicto
1887 -512 2095 -323 conicto
2304 -135 2304 266 conicto
2304 448 lineto
1727 2240 moveto
1455 2240 1303 2030 conicto
1152 1821 1152 1439 conicto
1152 1046 1299 843 conicto
1446 640 1727 640 conicto
2001 640 2152 849 conicto
2304 1059 2304 1439 conicto
2304 1821 2152 2030 conicto
2001 2240 1727 2240 conicto
end_ol grestore 
gsave 46.653774 13.726667 translate 0.035278 -0.035278 scale
start_ol
512 960 moveto
1408 960 lineto
1408 211 lineto
768 -704 lineto
256 -704 lineto
512 211 lineto
512 960 lineto
end_ol grestore 
gsave 41.992500 14.573333 translate 0.035278 -0.035278 scale
start_ol
1344 384 moveto
1344 -1088 lineto
448 -1088 lineto
448 2816 lineto
1344 2816 lineto
1344 2432 lineto
1529 2662 1754 2771 conicto
1980 2880 2272 2880 conicto
2790 2880 3123 2468 conicto
3456 2056 3456 1408 conicto
3456 760 3123 348 conicto
2790 -64 2272 -64 conicto
1980 -64 1754 45 conicto
1529 154 1344 384 conicto
1922 2240 moveto
1643 2240 1493 2025 conicto
1344 1811 1344 1408 conicto
1344 1005 1493 790 conicto
1643 576 1922 576 conicto
2202 576 2349 789 conicto
2496 1002 2496 1408 conicto
2496 1814 2349 2027 conicto
2202 2240 1922 2240 conicto
end_ol grestore 
gsave 42.477043 14.573333 translate 0.035278 -0.035278 scale
start_ol
1649 1280 moveto
1370 1280 1229 1181 conicto
1088 1082 1088 889 conicto
1088 712 1201 612 conicto
1315 512 1517 512 conicto
1768 512 1940 700 conicto
2112 889 2112 1173 conicto
2112 1280 lineto
1649 1280 lineto
3008 1605 moveto
3008 0 lineto
2112 0 lineto
2112 448 lineto
1933 180 1709 58 conicto
1485 -64 1164 -64 conicto
732 -64 462 188 conicto
192 441 192 844 conicto
192 1334 528 1563 conicto
865 1792 1586 1792 conicto
2112 1792 lineto
2112 1864 lineto
2112 2092 1946 2198 conicto
1781 2304 1431 2304 conicto
1147 2304 902 2240 conicto
658 2176 448 2048 conicto
448 2752 lineto
731 2815 1016 2847 conicto
1301 2880 1586 2880 conicto
2339 2880 2673 2580 conicto
3008 2280 3008 1605 conicto
end_ol grestore 
gsave 42.934111 14.573333 translate 0.035278 -0.035278 scale
start_ol
1408 3584 moveto
1408 2816 lineto
2304 2816 lineto
2304 2176 lineto
1408 2176 lineto
1408 976 lineto
1408 779 1484 709 conicto
1561 640 1787 640 conicto
2240 640 lineto
2240 0 lineto
1484 0 lineto
954 0 733 222 conicto
512 444 512 976 conicto
512 2176 lineto
64 2176 lineto
64 2816 lineto
512 2816 lineto
512 3584 lineto
1408 3584 lineto
end_ol grestore 
gsave 43.258804 14.573333 translate 0.035278 -0.035278 scale
start_ol
2688 2688 moveto
2688 1984 lineto
2506 2115 2322 2177 conicto
2139 2240 1942 2240 conicto
1568 2240 1360 2020 conicto
1152 1801 1152 1408 conicto
1152 1015 1360 795 conicto
1568 576 1942 576 conicto
2152 576 2340 640 conicto
2528 705 2688 832 conicto
2688 128 lineto
2476 32 2257 -16 conicto
2039 -64 1820 -64 conicto
1055 -64 623 325 conicto
192 715 192 1408 conicto
192 2101 623 2490 conicto
1055 2880 1820 2880 conicto
2042 2880 2257 2832 conicto
2473 2784 2688 2688 conicto
end_ol grestore 
gsave 43.660921 14.573333 translate 0.035278 -0.035278 scale
start_ol
3264 1692 moveto
3264 0 lineto
2368 0 lineto
2368 275 lineto
2368 1290 lineto
2368 1655 2351 1791 conicto
2335 1928 2295 1992 conicto
2243 2079 2152 2127 conicto
2062 2176 1946 2176 conicto
1665 2176 1504 1961 conicto
1344 1747 1344 1367 conicto
1344 0 lineto
448 0 lineto
448 3904 lineto
1344 3904 lineto
1344 2432 lineto
1547 2662 1774 2771 conicto
2002 2880 2277 2880 conicto
2762 2880 3013 2576 conicto
3264 2272 3264 1692 conicto
end_ol grestore 
gsave 44.142967 14.573333 translate 0.035278 -0.035278 scale
start_ol
3200 1418 moveto
3200 1152 lineto
1088 1152 lineto
1121 832 1318 672 conicto
1516 512 1870 512 conicto
2156 512 2456 591 conicto
2756 671 3072 832 conicto
3072 128 lineto
2754 33 2435 -15 conicto
2117 -64 1799 -64 conicto
1037 -64 614 323 conicto
192 710 192 1408 conicto
192 2094 606 2487 conicto
1020 2880 1746 2880 conicto
2407 2880 2803 2482 conicto
3200 2084 3200 1418 conicto
2304 1728 moveto
2304 1987 2149 2145 conicto
1995 2304 1746 2304 conicto
1477 2304 1308 2155 conicto
1139 2007 1098 1728 conicto
2304 1728 lineto
end_ol grestore 
gsave 44.602532 14.573333 translate 0.035278 -0.035278 scale
start_ol
2624 2752 moveto
2624 2048 lineto
2341 2176 2078 2240 conicto
1815 2304 1582 2304 conicto
1331 2304 1209 2237 conicto
1088 2171 1088 2033 conicto
1088 1921 1181 1861 conicto
1275 1801 1516 1772 conicto
1673 1748 lineto
2349 1661 2582 1461 conicto
2816 1261 2816 833 conicto
2816 386 2486 161 conicto
2156 -64 1502 -64 conicto
1224 -64 928 -32 conicto
632 0 320 64 conicto
320 768 lineto
590 640 874 576 conicto
1158 512 1451 512 conicto
1716 512 1850 585 conicto
1984 658 1984 801 conicto
1984 922 1893 981 conicto
1802 1040 1531 1073 conicto
1374 1093 lineto
754 1169 505 1373 conicto
256 1578 256 1995 conicto
256 2445 563 2662 conicto
870 2880 1504 2880 conicto
1753 2880 2027 2849 conicto
2302 2818 2624 2752 conicto
end_ol grestore 
1.000000 1.000000 1.000000 srgb
n 36.000000 10.000000 m 36.000000 13.000000 l 41.000000 13.000000 l 41.000000 10.000000 l f
0.100000 slw
[] 0 sd
[] 0 sd
0 slj
0.000000 0.000000 0.000000 srgb
n 36.000000 10.000000 m 36.000000 13.000000 l 41.000000 13.000000 l 41.000000 10.000000 l cp s
gsave 36.985000 11.706667 translate 0.035278 -0.035278 scale
start_ol
1408 3008 moveto
1408 704 lineto
1748 704 lineto
2330 704 2637 1000 conicto
2944 1296 2944 1860 conicto
2944 2421 2638 2714 conicto
2332 3008 1748 3008 conicto
1408 3008 lineto
448 3712 moveto
1460 3712 lineto
2314 3712 2732 3591 conicto
3150 3471 3448 3182 conicto
3712 2931 3840 2603 conicto
3968 2275 3968 1860 conicto
3968 1440 3840 1110 conicto
3712 781 3448 530 conicto
3147 241 2725 120 conicto
2304 0 1460 0 conicto
448 0 lineto
448 3712 lineto
end_ol grestore 
gsave 37.546975 11.706667 translate 0.035278 -0.035278 scale
start_ol
448 2816 moveto
1344 2816 lineto
1344 0 lineto
448 0 lineto
448 2816 lineto
448 3904 moveto
1344 3904 lineto
1344 3136 lineto
448 3136 lineto
448 3904 lineto
end_ol grestore 
gsave 37.779254 11.706667 translate 0.035278 -0.035278 scale
start_ol
2624 2752 moveto
2624 2048 lineto
2341 2176 2078 2240 conicto
1815 2304 1582 2304 conicto
1331 2304 1209 2237 conicto
1088 2171 1088 2033 conicto
1088 1921 1181 1861 conicto
1275 1801 1516 1772 conicto
1673 1748 lineto
2349 1661 2582 1461 conicto
2816 1261 2816 833 conicto
2816 386 2486 161 conicto
2156 -64 1502 -64 conicto
1224 -64 928 -32 conicto
632 0 320 64 conicto
320 768 lineto
590 640 874 576 conicto
1158 512 1451 512 conicto
1716 512 1850 585 conicto
1984 658 1984 801 conicto
1984 922 1893 981 conicto
1802 1040 1531 1073 conicto
1374 1093 lineto
754 1169 505 1373 conicto
256 1578 256 1995 conicto
256 2445 563 2662 conicto
870 2880 1504 2880 conicto
1753 2880 2027 2849 conicto
2302 2818 2624 2752 conicto
end_ol grestore 
gsave 38.181371 11.706667 translate 0.035278 -0.035278 scale
start_ol
1408 3584 moveto
1408 2816 lineto
2304 2816 lineto
2304 2176 lineto
1408 2176 lineto
1408 976 lineto
1408 779 1484 709 conicto
1561 640 1787 640 conicto
2240 640 lineto
2240 0 lineto
1484 0 lineto
954 0 733 222 conicto
512 444 512 976 conicto
512 2176 lineto
64 2176 lineto
64 2816 lineto
512 2816 lineto
512 3584 lineto
1408 3584 lineto
end_ol grestore 
gsave 38.506065 11.706667 translate 0.035278 -0.035278 scale
start_ol
2560 2048 moveto
2439 2113 2320 2144 conicto
2201 2176 2080 2176 conicto
1726 2176 1535 1948 conicto
1344 1721 1344 1297 conicto
1344 0 lineto
448 0 lineto
448 2816 lineto
1344 2816 lineto
1344 2368 lineto
1521 2635 1750 2757 conicto
1980 2880 2301 2880 conicto
2347 2880 2401 2876 conicto
2455 2873 2557 2861 conicto
2560 2048 lineto
end_ol grestore 
gsave 38.840746 11.706667 translate 0.035278 -0.035278 scale
start_ol
1732 2240 moveto
1449 2240 1300 2025 conicto
1152 1811 1152 1408 conicto
1152 1005 1300 790 conicto
1449 576 1732 576 conicto
2009 576 2156 790 conicto
2304 1005 2304 1408 conicto
2304 1811 2156 2025 conicto
2009 2240 1732 2240 conicto
1732 2880 moveto
2453 2880 2858 2489 conicto
3264 2099 3264 1408 conicto
3264 717 2858 326 conicto
2453 -64 1732 -64 conicto
1008 -64 600 326 conicto
192 717 192 1408 conicto
192 2099 600 2489 conicto
1008 2880 1732 2880 conicto
end_ol grestore 
gsave 39.305305 11.706667 translate 0.035278 -0.035278 scale
start_ol
end_ol grestore 
gsave 39.540081 11.706667 translate 0.035278 -0.035278 scale
start_ol
1455 704 moveto
3072 704 lineto
3072 0 lineto
384 0 lineto
384 704 lineto
1751 1904 lineto
1935 2069 2023 2226 conicto
2112 2384 2112 2554 conicto
2112 2816 1934 2976 conicto
1756 3136 1460 3136 conicto
1233 3136 962 3039 conicto
692 2943 384 2752 conicto
384 3584 lineto
710 3678 1029 3727 conicto
1348 3776 1654 3776 conicto
2327 3776 2699 3483 conicto
3072 3191 3072 2667 conicto
3072 2364 2915 2102 conicto
2759 1841 2258 1402 conicto
1455 704 lineto
end_ol grestore 
0.100000 slw
[] 0 sd
[] 0 sd
0 slc
n 32.000000 10.750000 m 35.450000 10.750000 l s
0 slj
n 35.450000 11.000000 m 35.950000 10.750000 l 35.450000 10.500000 l ef
0.100000 slw
[] 0 sd
0 slj
n 35.450000 11.000000 m 35.950000 10.750000 l 35.450000 10.500000 l cp s
0.100000 slw
[] 0 sd
[] 0 sd
0 slc
n 36.000000 12.250000 m 32.550000 12.250000 l s
0 slj
n 32.550000 12.000000 m 32.050000 12.250000 l 32.550000 12.500000 l ef
0.100000 slw
[] 0 sd
0 slj
n 32.550000 12.000000 m 32.050000 12.250000 l 32.550000 12.500000 l cp s
gsave 32.188750 8.896667 translate 0.035278 -0.035278 scale
start_ol
2624 2752 moveto
2624 2048 lineto
2341 2176 2078 2240 conicto
1815 2304 1582 2304 conicto
1331 2304 1209 2237 conicto
1088 2171 1088 2033 conicto
1088 1921 1181 1861 conicto
1275 1801 1516 1772 conicto
1673 1748 lineto
2349 1661 2582 1461 conicto
2816 1261 2816 833 conicto
2816 386 2486 161 conicto
2156 -64 1502 -64 conicto
1224 -64 928 -32 conicto
632 0 320 64 conicto
320 768 lineto
590 640 874 576 conicto
1158 512 1451 512 conicto
1716 512 1850 585 conicto
1984 658 1984 801 conicto
1984 922 1893 981 conicto
1802 1040 1531 1073 conicto
1374 1093 lineto
754 1169 505 1373 conicto
256 1578 256 1995 conicto
256 2445 563 2662 conicto
870 2880 1504 2880 conicto
1753 2880 2027 2849 conicto
2302 2818 2624 2752 conicto
end_ol grestore 
gsave 32.590867 8.896667 translate 0.035278 -0.035278 scale
start_ol
1732 2240 moveto
1449 2240 1300 2025 conicto
1152 1811 1152 1408 conicto
1152 1005 1300 790 conicto
1449 576 1732 576 conicto
2009 576 2156 790 conicto
2304 1005 2304 1408 conicto
2304 1811 2156 2025 conicto
2009 2240 1732 2240 conicto
1732 2880 moveto
2453 2880 2858 2489 conicto
3264 2099 3264 1408 conicto
3264 717 2858 326 conicto
2453 -64 1732 -64 conicto
1008 -64 600 326 conicto
192 717 192 1408 conicto
192 2099 600 2489 conicto
1008 2880 1732 2880 conicto
end_ol grestore 
gsave 33.055426 8.896667 translate 0.035278 -0.035278 scale
start_ol
2240 3904 moveto
2240 3328 lineto
1749 3328 lineto
1558 3328 1483 3258 conicto
1408 3188 1408 3015 conicto
1408 2816 lineto
2176 2816 lineto
2176 2176 lineto
1408 2176 lineto
1408 0 lineto
512 0 lineto
512 2176 lineto
64 2176 lineto
64 2816 lineto
512 2816 lineto
512 3015 lineto
512 3469 767 3686 conicto
1023 3904 1559 3904 conicto
2240 3904 lineto
end_ol grestore 
gsave 33.350147 8.896667 translate 0.035278 -0.035278 scale
start_ol
1408 3584 moveto
1408 2816 lineto
2304 2816 lineto
2304 2176 lineto
1408 2176 lineto
1408 976 lineto
1408 779 1484 709 conicto
1561 640 1787 640 conicto
2240 640 lineto
2240 0 lineto
1484 0 lineto
954 0 733 222 conicto
512 444 512 976 conicto
512 2176 lineto
64 2176 lineto
64 2816 lineto
512 2816 lineto
512 3584 lineto
1408 3584 lineto
end_ol grestore 
gsave 33.674840 8.896667 translate 0.035278 -0.035278 scale
start_ol
192 2816 moveto
1058 2816 lineto
1526 875 lineto
1996 2816 lineto
2740 2816 lineto
3208 895 lineto
3678 2816 lineto
4544 2816 lineto
3810 0 lineto
2837 0 lineto
2367 1936 lineto
1899 0 lineto
926 0 lineto
192 2816 lineto
end_ol grestore 
gsave 34.299257 8.896667 translate 0.035278 -0.035278 scale
start_ol
1649 1280 moveto
1370 1280 1229 1181 conicto
1088 1082 1088 889 conicto
1088 712 1201 612 conicto
1315 512 1517 512 conicto
1768 512 1940 700 conicto
2112 889 2112 1173 conicto
2112 1280 lineto
1649 1280 lineto
3008 1605 moveto
3008 0 lineto
2112 0 lineto
2112 448 lineto
1933 180 1709 58 conicto
1485 -64 1164 -64 conicto
732 -64 462 188 conicto
192 441 192 844 conicto
192 1334 528 1563 conicto
865 1792 1586 1792 conicto
2112 1792 lineto
2112 1864 lineto
2112 2092 1946 2198 conicto
1781 2304 1431 2304 conicto
1147 2304 902 2240 conicto
658 2176 448 2048 conicto
448 2752 lineto
731 2815 1016 2847 conicto
1301 2880 1586 2880 conicto
2339 2880 2673 2580 conicto
3008 2280 3008 1605 conicto
end_ol grestore 
gsave 34.756325 8.896667 translate 0.035278 -0.035278 scale
start_ol
2560 2048 moveto
2439 2113 2320 2144 conicto
2201 2176 2080 2176 conicto
1726 2176 1535 1948 conicto
1344 1721 1344 1297 conicto
1344 0 lineto
448 0 lineto
448 2816 lineto
1344 2816 lineto
1344 2368 lineto
1521 2635 1750 2757 conicto
1980 2880 2301 2880 conicto
2347 2880 2401 2876 conicto
2455 2873 2557 2861 conicto
2560 2048 lineto
end_ol grestore 
gsave 35.091006 8.896667 translate 0.035278 -0.035278 scale
start_ol
3200 1418 moveto
3200 1152 lineto
1088 1152 lineto
1121 832 1318 672 conicto
1516 512 1870 512 conicto
2156 512 2456 591 conicto
2756 671 3072 832 conicto
3072 128 lineto
2754 33 2435 -15 conicto
2117 -64 1799 -64 conicto
1037 -64 614 323 conicto
192 710 192 1408 conicto
192 2094 606 2487 conicto
1020 2880 1746 2880 conicto
2407 2880 2803 2482 conicto
3200 2084 3200 1418 conicto
2304 1728 moveto
2304 1987 2149 2145 conicto
1995 2304 1746 2304 conicto
1477 2304 1308 2155 conicto
1139 2007 1098 1728 conicto
2304 1728 lineto
end_ol grestore 
gsave 35.550571 8.896667 translate 0.035278 -0.035278 scale
start_ol
512 960 moveto
1408 960 lineto
1408 211 lineto
768 -704 lineto
256 -704 lineto
512 211 lineto
512 960 lineto
end_ol grestore 
gsave 32.136250 9.743333 translate 0.035278 -0.035278 scale
start_ol
2688 2688 moveto
2688 1984 lineto
2506 2115 2322 2177 conicto
2139 2240 1942 2240 conicto
1568 2240 1360 2020 conicto
1152 1801 1152 1408 conicto
1152 1015 1360 795 conicto
1568 576 1942 576 conicto
2152 576 2340 640 conicto
2528 705 2688 832 conicto
2688 128 lineto
2476 32 2257 -16 conicto
2039 -64 1820 -64 conicto
1055 -64 623 325 conicto
192 715 192 1408 conicto
192 2101 623 2490 conicto
1055 2880 1820 2880 conicto
2042 2880 2257 2832 conicto
2473 2784 2688 2688 conicto
end_ol grestore 
gsave 32.538367 9.743333 translate 0.035278 -0.035278 scale
start_ol
1732 2240 moveto
1449 2240 1300 2025 conicto
1152 1811 1152 1408 conicto
1152 1005 1300 790 conicto
1449 576 1732 576 conicto
2009 576 2156 790 conicto
2304 1005 2304 1408 conicto
2304 1811 2156 2025 conicto
2009 2240 1732 2240 conicto
1732 2880 moveto
2453 2880 2858 2489 conicto
3264 2099 3264 1408 conicto
3264 717 2858 326 conicto
2453 -64 1732 -64 conicto
1008 -64 600 326 conicto
192 717 192 1408 conicto
192 2099 600 2489 conicto
1008 2880 1732 2880 conicto
end_ol grestore 
gsave 33.002926 9.743333 translate 0.035278 -0.035278 scale
start_ol
2560 2048 moveto
2439 2113 2320 2144 conicto
2201 2176 2080 2176 conicto
1726 2176 1535 1948 conicto
1344 1721 1344 1297 conicto
1344 0 lineto
448 0 lineto
448 2816 lineto
1344 2816 lineto
1344 2368 lineto
1521 2635 1750 2757 conicto
1980 2880 2301 2880 conicto
2347 2880 2401 2876 conicto
2455 2873 2557 2861 conicto
2560 2048 lineto
end_ol grestore 
gsave 33.337607 9.743333 translate 0.035278 -0.035278 scale
start_ol
2560 2048 moveto
2439 2113 2320 2144 conicto
2201 2176 2080 2176 conicto
1726 2176 1535 1948 conicto
1344 1721 1344 1297 conicto
1344 0 lineto
448 0 lineto
448 2816 lineto
1344 2816 lineto
1344 2368 lineto
1521 2635 1750 2757 conicto
1980 2880 2301 2880 conicto
2347 2880 2401 2876 conicto
2455 2873 2557 2861 conicto
2560 2048 lineto
end_ol grestore 
gsave 33.672289 9.743333 translate 0.035278 -0.035278 scale
start_ol
3200 1418 moveto
3200 1152 lineto
1088 1152 lineto
1121 832 1318 672 conicto
1516 512 1870 512 conicto
2156 512 2456 591 conicto
2756 671 3072 832 conicto
3072 128 lineto
2754 33 2435 -15 conicto
2117 -64 1799 -64 conicto
1037 -64 614 323 conicto
192 710 192 1408 conicto
192 2094 606 2487 conicto
1020 2880 1746 2880 conicto
2407 2880 2803 2482 conicto
3200 2084 3200 1418 conicto
2304 1728 moveto
2304 1987 2149 2145 conicto
1995 2304 1746 2304 conicto
1477 2304 1308 2155 conicto
1139 2007 1098 1728 conicto
2304 1728 lineto
end_ol grestore 
gsave 34.131853 9.743333 translate 0.035278 -0.035278 scale
start_ol
2688 2688 moveto
2688 1984 lineto
2506 2115 2322 2177 conicto
2139 2240 1942 2240 conicto
1568 2240 1360 2020 conicto
1152 1801 1152 1408 conicto
1152 1015 1360 795 conicto
1568 576 1942 576 conicto
2152 576 2340 640 conicto
2528 705 2688 832 conicto
2688 128 lineto
2476 32 2257 -16 conicto
2039 -64 1820 -64 conicto
1055 -64 623 325 conicto
192 715 192 1408 conicto
192 2101 623 2490 conicto
1055 2880 1820 2880 conicto
2042 2880 2257 2832 conicto
2473 2784 2688 2688 conicto
1975 0 moveto
2111 -158 2175 -293 conicto
2240 -429 2240 -549 conicto
2240 -792 2083 -908 conicto
1927 -1024 1603 -1024 conicto
1480 -1024 1350 -1008 conicto
1221 -992 1088 -960 conicto
1085 -576 lineto
1219 -609 1329 -624 conicto
1440 -640 1528 -640 conicto
1683 -640 1769 -582 conicto
1856 -524 1856 -423 conicto
1856 -358 1798 -254 conicto
1741 -151 1621 0 conicto
1975 0 lineto
end_ol grestore 
gsave 34.533970 9.743333 translate 0.035278 -0.035278 scale
start_ol
1732 2240 moveto
1449 2240 1300 2025 conicto
1152 1811 1152 1408 conicto
1152 1005 1300 790 conicto
1449 576 1732 576 conicto
2009 576 2156 790 conicto
2304 1005 2304 1408 conicto
2304 1811 2156 2025 conicto
2009 2240 1732 2240 conicto
1732 2880 moveto
2453 2880 2858 2489 conicto
3264 2099 3264 1408 conicto
3264 717 2858 326 conicto
2453 -64 1732 -64 conicto
1008 -64 600 326 conicto
192 717 192 1408 conicto
192 2099 600 2489 conicto
1008 2880 1732 2880 conicto
1733 3531 moveto
1585 3622 lineto
1575 3627 1558 3637 conicto
1431 3712 1364 3712 conicto
1267 3712 1215 3636 conicto
1164 3560 1164 3416 conicto
1164 3397 lineto
832 3397 lineto
832 3732 964 3914 conicto
1097 4096 1337 4096 conicto
1429 4096 1523 4063 conicto
1617 4030 1723 3957 conicto
1888 3852 lineto
1947 3815 1996 3795 conicto
2046 3776 2087 3776 conicto
2184 3776 2238 3854 conicto
2292 3933 2292 4072 conicto
2292 4091 lineto
2624 4091 lineto
2624 3756 2491 3574 conicto
2359 3392 2119 3392 conicto
2027 3392 1941 3421 conicto
1855 3451 1733 3531 conicto
end_ol grestore 
gsave 34.998529 9.743333 translate 0.035278 -0.035278 scale
start_ol
3200 1418 moveto
3200 1152 lineto
1088 1152 lineto
1121 832 1318 672 conicto
1516 512 1870 512 conicto
2156 512 2456 591 conicto
2756 671 3072 832 conicto
3072 128 lineto
2754 33 2435 -15 conicto
2117 -64 1799 -64 conicto
1037 -64 614 323 conicto
192 710 192 1408 conicto
192 2094 606 2487 conicto
1020 2880 1746 2880 conicto
2407 2880 2803 2482 conicto
3200 2084 3200 1418 conicto
2304 1728 moveto
2304 1987 2149 2145 conicto
1995 2304 1746 2304 conicto
1477 2304 1308 2155 conicto
1139 2007 1098 1728 conicto
2304 1728 lineto
end_ol grestore 
gsave 35.458094 9.743333 translate 0.035278 -0.035278 scale
start_ol
2624 2752 moveto
2624 2048 lineto
2341 2176 2078 2240 conicto
1815 2304 1582 2304 conicto
1331 2304 1209 2237 conicto
1088 2171 1088 2033 conicto
1088 1921 1181 1861 conicto
1275 1801 1516 1772 conicto
1673 1748 lineto
2349 1661 2582 1461 conicto
2816 1261 2816 833 conicto
2816 386 2486 161 conicto
2156 -64 1502 -64 conicto
1224 -64 928 -32 conicto
632 0 320 64 conicto
320 768 lineto
590 640 874 576 conicto
1158 512 1451 512 conicto
1716 512 1850 585 conicto
1984 658 1984 801 conicto
1984 922 1893 981 conicto
1802 1040 1531 1073 conicto
1374 1093 lineto
754 1169 505 1373 conicto
256 1578 256 1995 conicto
256 2445 563 2662 conicto
870 2880 1504 2880 conicto
1753 2880 2027 2849 conicto
2302 2818 2624 2752 conicto
end_ol grestore 
gsave 30.582500 13.726667 translate 0.035278 -0.035278 scale
start_ol
2560 2048 moveto
2439 2113 2320 2144 conicto
2201 2176 2080 2176 conicto
1726 2176 1535 1948 conicto
1344 1721 1344 1297 conicto
1344 0 lineto
448 0 lineto
448 2816 lineto
1344 2816 lineto
1344 2368 lineto
1521 2635 1750 2757 conicto
1980 2880 2301 2880 conicto
2347 2880 2401 2876 conicto
2455 2873 2557 2861 conicto
2560 2048 lineto
end_ol grestore 
gsave 30.917181 13.726667 translate 0.035278 -0.035278 scale
start_ol
3200 1418 moveto
3200 1152 lineto
1088 1152 lineto
1121 832 1318 672 conicto
1516 512 1870 512 conicto
2156 512 2456 591 conicto
2756 671 3072 832 conicto
3072 128 lineto
2754 33 2435 -15 conicto
2117 -64 1799 -64 conicto
1037 -64 614 323 conicto
192 710 192 1408 conicto
192 2094 606 2487 conicto
1020 2880 1746 2880 conicto
2407 2880 2803 2482 conicto
3200 2084 3200 1418 conicto
2304 1728 moveto
2304 1987 2149 2145 conicto
1995 2304 1746 2304 conicto
1477 2304 1308 2155 conicto
1139 2007 1098 1728 conicto
2304 1728 lineto
end_ol grestore 
gsave 31.376746 13.726667 translate 0.035278 -0.035278 scale
start_ol
448 3904 moveto
1344 3904 lineto
1344 0 lineto
448 0 lineto
448 3904 lineto
end_ol grestore 
gsave 31.609025 13.726667 translate 0.035278 -0.035278 scale
start_ol
1649 1280 moveto
1370 1280 1229 1181 conicto
1088 1082 1088 889 conicto
1088 712 1201 612 conicto
1315 512 1517 512 conicto
1768 512 1940 700 conicto
2112 889 2112 1173 conicto
2112 1280 lineto
1649 1280 lineto
3008 1605 moveto
3008 0 lineto
2112 0 lineto
2112 448 lineto
1933 180 1709 58 conicto
1485 -64 1164 -64 conicto
732 -64 462 188 conicto
192 441 192 844 conicto
192 1334 528 1563 conicto
865 1792 1586 1792 conicto
2112 1792 lineto
2112 1864 lineto
2112 2092 1946 2198 conicto
1781 2304 1431 2304 conicto
1147 2304 902 2240 conicto
658 2176 448 2048 conicto
448 2752 lineto
731 2815 1016 2847 conicto
1301 2880 1586 2880 conicto
2339 2880 2673 2580 conicto
3008 2280 3008 1605 conicto
end_ol grestore 
gsave 32.066093 13.726667 translate 0.035278 -0.035278 scale
start_ol
1408 3584 moveto
1408 2816 lineto
2304 2816 lineto
2304 2176 lineto
1408 2176 lineto
1408 976 lineto
1408 779 1484 709 conicto
1561 640 1787 640 conicto
2240 640 lineto
2240 0 lineto
1484 0 lineto
954 0 733 222 conicto
512 444 512 976 conicto
512 2176 lineto
64 2176 lineto
64 2816 lineto
512 2816 lineto
512 3584 lineto
1408 3584 lineto
end_ol grestore 
gsave 32.390787 13.726667 translate 0.035278 -0.035278 scale
start_ol
1732 2240 moveto
1449 2240 1300 2025 conicto
1152 1811 1152 1408 conicto
1152 1005 1300 790 conicto
1449 576 1732 576 conicto
2009 576 2156 790 conicto
2304 1005 2304 1408 conicto
2304 1811 2156 2025 conicto
2009 2240 1732 2240 conicto
1732 2880 moveto
2453 2880 2858 2489 conicto
3264 2099 3264 1408 conicto
3264 717 2858 326 conicto
2453 -64 1732 -64 conicto
1008 -64 600 326 conicto
192 717 192 1408 conicto
192 2099 600 2489 conicto
1008 2880 1732 2880 conicto
2111 4096 moveto
2816 4096 lineto
1896 3136 lineto
1408 3136 lineto
2111 4096 lineto
end_ol grestore 
gsave 32.855345 13.726667 translate 0.035278 -0.035278 scale
start_ol
2560 2048 moveto
2439 2113 2320 2144 conicto
2201 2176 2080 2176 conicto
1726 2176 1535 1948 conicto
1344 1721 1344 1297 conicto
1344 0 lineto
448 0 lineto
448 2816 lineto
1344 2816 lineto
1344 2368 lineto
1521 2635 1750 2757 conicto
1980 2880 2301 2880 conicto
2347 2880 2401 2876 conicto
2455 2873 2557 2861 conicto
2560 2048 lineto
end_ol grestore 
gsave 33.190027 13.726667 translate 0.035278 -0.035278 scale
start_ol
448 2816 moveto
1344 2816 lineto
1344 0 lineto
448 0 lineto
448 2816 lineto
448 3904 moveto
1344 3904 lineto
1344 3136 lineto
448 3136 lineto
448 3904 lineto
end_ol grestore 
gsave 33.422306 13.726667 translate 0.035278 -0.035278 scale
start_ol
1732 2240 moveto
1449 2240 1300 2025 conicto
1152 1811 1152 1408 conicto
1152 1005 1300 790 conicto
1449 576 1732 576 conicto
2009 576 2156 790 conicto
2304 1005 2304 1408 conicto
2304 1811 2156 2025 conicto
2009 2240 1732 2240 conicto
1732 2880 moveto
2453 2880 2858 2489 conicto
3264 2099 3264 1408 conicto
3264 717 2858 326 conicto
2453 -64 1732 -64 conicto
1008 -64 600 326 conicto
192 717 192 1408 conicto
192 2099 600 2489 conicto
1008 2880 1732 2880 conicto
end_ol grestore 
gsave 33.886865 13.726667 translate 0.035278 -0.035278 scale
start_ol
2624 2752 moveto
2624 2048 lineto
2341 2176 2078 2240 conicto
1815 2304 1582 2304 conicto
1331 2304 1209 2237 conicto
1088 2171 1088 2033 conicto
1088 1921 1181 1861 conicto
1275 1801 1516 1772 conicto
1673 1748 lineto
2349 1661 2582 1461 conicto
2816 1261 2816 833 conicto
2816 386 2486 161 conicto
2156 -64 1502 -64 conicto
1224 -64 928 -32 conicto
632 0 320 64 conicto
320 768 lineto
590 640 874 576 conicto
1158 512 1451 512 conicto
1716 512 1850 585 conicto
1984 658 1984 801 conicto
1984 922 1893 981 conicto
1802 1040 1531 1073 conicto
1374 1093 lineto
754 1169 505 1373 conicto
256 1578 256 1995 conicto
256 2445 563 2662 conicto
870 2880 1504 2880 conicto
1753 2880 2027 2849 conicto
2302 2818 2624 2752 conicto
end_ol grestore 
gsave 34.288982 13.726667 translate 0.035278 -0.035278 scale
start_ol
end_ol grestore 
gsave 34.523758 13.726667 translate 0.035278 -0.035278 scale
start_ol
2304 2432 moveto
2304 3904 lineto
3200 3904 lineto
3200 0 lineto
2304 0 lineto
2304 384 lineto
2118 152 1895 44 conicto
1672 -64 1378 -64 conicto
859 -64 525 348 conicto
192 760 192 1408 conicto
192 2056 525 2468 conicto
859 2880 1378 2880 conicto
1669 2880 1893 2771 conicto
2118 2662 2304 2432 conicto
1727 576 moveto
2008 576 2156 789 conicto
2304 1002 2304 1408 conicto
2304 1814 2156 2027 conicto
2008 2240 1727 2240 conicto
1448 2240 1300 2027 conicto
1152 1814 1152 1408 conicto
1152 1002 1300 789 conicto
1448 576 1727 576 conicto
end_ol grestore 
gsave 35.008301 13.726667 translate 0.035278 -0.035278 scale
start_ol
3200 1418 moveto
3200 1152 lineto
1088 1152 lineto
1121 832 1318 672 conicto
1516 512 1870 512 conicto
2156 512 2456 591 conicto
2756 671 3072 832 conicto
3072 128 lineto
2754 33 2435 -15 conicto
2117 -64 1799 -64 conicto
1037 -64 614 323 conicto
192 710 192 1408 conicto
192 2094 606 2487 conicto
1020 2880 1746 2880 conicto
2407 2880 2803 2482 conicto
3200 2084 3200 1418 conicto
2304 1728 moveto
2304 1987 2149 2145 conicto
1995 2304 1746 2304 conicto
1477 2304 1308 2155 conicto
1139 2007 1098 1728 conicto
2304 1728 lineto
end_ol grestore 
gsave 35.467866 13.726667 translate 0.035278 -0.035278 scale
start_ol
end_ol grestore 
gsave 35.702642 13.726667 translate 0.035278 -0.035278 scale
start_ol
1922 576 moveto
2202 576 2349 789 conicto
2496 1002 2496 1408 conicto
2496 1814 2349 2027 conicto
2202 2240 1922 2240 conicto
1643 2240 1493 2025 conicto
1344 1811 1344 1408 conicto
1344 1005 1493 790 conicto
1643 576 1922 576 conicto
1344 2432 moveto
1529 2662 1754 2771 conicto
1980 2880 2272 2880 conicto
2790 2880 3123 2468 conicto
3456 2056 3456 1408 conicto
3456 760 3123 348 conicto
2790 -64 2272 -64 conicto
1980 -64 1754 45 conicto
1529 154 1344 384 conicto
1344 0 lineto
448 0 lineto
448 3904 lineto
1344 3904 lineto
1344 2432 lineto
end_ol grestore 
gsave 36.187185 13.726667 translate 0.035278 -0.035278 scale
start_ol
448 1121 moveto
448 2816 lineto
1344 2816 lineto
1344 2538 lineto
1344 2313 1341 1972 conicto
1339 1631 1339 1517 conicto
1339 1183 1356 1035 conicto
1374 888 1417 821 conicto
1472 734 1561 687 conicto
1650 640 1766 640 conicto
2047 640 2207 853 conicto
2368 1066 2368 1445 conicto
2368 2816 lineto
3264 2816 lineto
3264 0 lineto
2368 0 lineto
2368 384 lineto
2166 154 1939 45 conicto
1713 -64 1441 -64 conicto
956 -64 702 239 conicto
448 543 448 1121 conicto
end_ol grestore 
gsave 36.669231 13.726667 translate 0.035278 -0.035278 scale
start_ol
2304 448 moveto
2118 217 1895 108 conicto
1672 0 1378 0 conicto
864 0 528 406 conicto
192 812 192 1441 conicto
192 2073 528 2476 conicto
864 2880 1378 2880 conicto
1672 2880 1895 2772 conicto
2118 2664 2304 2432 conicto
2304 2816 lineto
3200 2816 lineto
3200 266 lineto
3200 -393 2769 -740 conicto
2339 -1088 1522 -1088 conicto
1257 -1088 1009 -1056 conicto
762 -1025 512 -960 conicto
512 -256 lineto
751 -385 979 -448 conicto
1208 -512 1440 -512 conicto
1887 -512 2095 -323 conicto
2304 -135 2304 266 conicto
2304 448 lineto
1727 2240 moveto
1455 2240 1303 2030 conicto
1152 1821 1152 1439 conicto
1152 1046 1299 843 conicto
1446 640 1727 640 conicto
2001 640 2152 849 conicto
2304 1059 2304 1439 conicto
2304 1821 2152 2030 conicto
2001 2240 1727 2240 conicto
end_ol grestore 
gsave 37.153774 13.726667 translate 0.035278 -0.035278 scale
start_ol
512 960 moveto
1408 960 lineto
1408 211 lineto
768 -704 lineto
256 -704 lineto
512 211 lineto
512 960 lineto
end_ol grestore 
gsave 32.492500 14.573333 translate 0.035278 -0.035278 scale
start_ol
1344 384 moveto
1344 -1088 lineto
448 -1088 lineto
448 2816 lineto
1344 2816 lineto
1344 2432 lineto
1529 2662 1754 2771 conicto
1980 2880 2272 2880 conicto
2790 2880 3123 2468 conicto
3456 2056 3456 1408 conicto
3456 760 3123 348 conicto
2790 -64 2272 -64 conicto
1980 -64 1754 45 conicto
1529 154 1344 384 conicto
1922 2240 moveto
1643 2240 1493 2025 conicto
1344 1811 1344 1408 conicto
1344 1005 1493 790 conicto
1643 576 1922 576 conicto
2202 576 2349 789 conicto
2496 1002 2496 1408 conicto
2496 1814 2349 2027 conicto
2202 2240 1922 2240 conicto
end_ol grestore 
gsave 32.977043 14.573333 translate 0.035278 -0.035278 scale
start_ol
1649 1280 moveto
1370 1280 1229 1181 conicto
1088 1082 1088 889 conicto
1088 712 1201 612 conicto
1315 512 1517 512 conicto
1768 512 1940 700 conicto
2112 889 2112 1173 conicto
2112 1280 lineto
1649 1280 lineto
3008 1605 moveto
3008 0 lineto
2112 0 lineto
2112 448 lineto
1933 180 1709 58 conicto
1485 -64 1164 -64 conicto
732 -64 462 188 conicto
192 441 192 844 conicto
192 1334 528 1563 conicto
865 1792 1586 1792 conicto
2112 1792 lineto
2112 1864 lineto
2112 2092 1946 2198 conicto
1781 2304 1431 2304 conicto
1147 2304 902 2240 conicto
658 2176 448 2048 conicto
448 2752 lineto
731 2815 1016 2847 conicto
1301 2880 1586 2880 conicto
2339 2880 2673 2580 conicto
3008 2280 3008 1605 conicto
end_ol grestore 
gsave 33.434111 14.573333 translate 0.035278 -0.035278 scale
start_ol
1408 3584 moveto
1408 2816 lineto
2304 2816 lineto
2304 2176 lineto
1408 2176 lineto
1408 976 lineto
1408 779 1484 709 conicto
1561 640 1787 640 conicto
2240 640 lineto
2240 0 lineto
1484 0 lineto
954 0 733 222 conicto
512 444 512 976 conicto
512 2176 lineto
64 2176 lineto
64 2816 lineto
512 2816 lineto
512 3584 lineto
1408 3584 lineto
end_ol grestore 
gsave 33.758804 14.573333 translate 0.035278 -0.035278 scale
start_ol
2688 2688 moveto
2688 1984 lineto
2506 2115 2322 2177 conicto
2139 2240 1942 2240 conicto
1568 2240 1360 2020 conicto
1152 1801 1152 1408 conicto
1152 1015 1360 795 conicto
1568 576 1942 576 conicto
2152 576 2340 640 conicto
2528 705 2688 832 conicto
2688 128 lineto
2476 32 2257 -16 conicto
2039 -64 1820 -64 conicto
1055 -64 623 325 conicto
192 715 192 1408 conicto
192 2101 623 2490 conicto
1055 2880 1820 2880 conicto
2042 2880 2257 2832 conicto
2473 2784 2688 2688 conicto
end_ol grestore 
gsave 34.160921 14.573333 translate 0.035278 -0.035278 scale
start_ol
3264 1692 moveto
3264 0 lineto
2368 0 lineto
2368 275 lineto
2368 1290 lineto
2368 1655 2351 1791 conicto
2335 1928 2295 1992 conicto
2243 2079 2152 2127 conicto
2062 2176 1946 2176 conicto
1665 2176 1504 1961 conicto
1344 1747 1344 1367 conicto
1344 0 lineto
448 0 lineto
448 3904 lineto
1344 3904 lineto
1344 2432 lineto
1547 2662 1774 2771 conicto
2002 2880 2277 2880 conicto
2762 2880 3013 2576 conicto
3264 2272 3264 1692 conicto
end_ol grestore 
gsave 34.642967 14.573333 translate 0.035278 -0.035278 scale
start_ol
3200 1418 moveto
3200 1152 lineto
1088 1152 lineto
1121 832 1318 672 conicto
1516 512 1870 512 conicto
2156 512 2456 591 conicto
2756 671 3072 832 conicto
3072 128 lineto
2754 33 2435 -15 conicto
2117 -64 1799 -64 conicto
1037 -64 614 323 conicto
192 710 192 1408 conicto
192 2094 606 2487 conicto
1020 2880 1746 2880 conicto
2407 2880 2803 2482 conicto
3200 2084 3200 1418 conicto
2304 1728 moveto
2304 1987 2149 2145 conicto
1995 2304 1746 2304 conicto
1477 2304 1308 2155 conicto
1139 2007 1098 1728 conicto
2304 1728 lineto
end_ol grestore 
gsave 35.102532 14.573333 translate 0.035278 -0.035278 scale
start_ol
2624 2752 moveto
2624 2048 lineto
2341 2176 2078 2240 conicto
1815 2304 1582 2304 conicto
1331 2304 1209 2237 conicto
1088 2171 1088 2033 conicto
1088 1921 1181 1861 conicto
1275 1801 1516 1772 conicto
1673 1748 lineto
2349 1661 2582 1461 conicto
2816 1261 2816 833 conicto
2816 386 2486 161 conicto
2156 -64 1502 -64 conicto
1224 -64 928 -32 conicto
632 0 320 64 conicto
320 768 lineto
590 640 874 576 conicto
1158 512 1451 512 conicto
1716 512 1850 585 conicto
1984 658 1984 801 conicto
1984 922 1893 981 conicto
1802 1040 1531 1073 conicto
1374 1093 lineto
754 1169 505 1373 conicto
256 1578 256 1995 conicto
256 2445 563 2662 conicto
870 2880 1504 2880 conicto
1753 2880 2027 2849 conicto
2302 2818 2624 2752 conicto
end_ol grestore 
0.100000 slw
[] 0 sd
[] 0 sd
0 slc
n 38.500000 14.425000 m 38.500000 13.550000 l s
0 slj
n 38.250000 14.425000 m 38.500000 14.925000 l 38.750000 14.425000 l ef
0.100000 slw
[] 0 sd
0 slj
n 38.250000 14.425000 m 38.500000 14.925000 l 38.750000 14.425000 l cp s
0 slj
n 38.750000 13.550000 m 38.500000 13.050000 l 38.250000 13.550000 l ef
0.100000 slw
[] 0 sd
0 slj
n 38.750000 13.550000 m 38.500000 13.050000 l 38.250000 13.550000 l cp s
0.100000 slw
[] 0 sd
[] 0 sd
0 slc
n 38.500000 18.375000 m 39.500000 19.375000 l s
0.100000 slw
[] 0 sd
[] 0 sd
0 slc
n 38.500000 18.375000 m 37.500000 19.375000 l s
0.100000 slw
[] 0 sd
[] 0 sd
0 slc
n 38.500000 16.375000 m 38.500000 18.375000 l s
0.100000 slw
[] 0 sd
[] 0 sd
0 slc
n 38.500000 16.375000 m 37.500000 17.375000 l s
0.100000 slw
[] 0 sd
[] 0 sd
0 slc
n 38.500000 16.375000 m 39.500000 17.375000 l s
1.000000 1.000000 1.000000 srgb
n 38.500000 15.875000 0.500000 0.500000 0 360 ellipse f
0.100000 slw
[] 0 sd
[] 0 sd
0.000000 0.000000 0.000000 srgb
n 38.500000 15.875000 0.500000 0.500000 0 360 ellipse cp s
0.100000 slw
[] 0 sd
[] 0 sd
0 slc
n 48.500000 14.425000 m 48.500000 13.550000 l s
0 slj
n 48.250000 14.425000 m 48.500000 14.925000 l 48.750000 14.425000 l ef
0.100000 slw
[] 0 sd
0 slj
n 48.250000 14.425000 m 48.500000 14.925000 l 48.750000 14.425000 l cp s
0 slj
n 48.750000 13.550000 m 48.500000 13.050000 l 48.250000 13.550000 l ef
0.100000 slw
[] 0 sd
0 slj
n 48.750000 13.550000 m 48.500000 13.050000 l 48.250000 13.550000 l cp s
0.100000 slw
[] 0 sd
[] 0 sd
0 slc
n 48.500000 18.375000 m 49.500000 19.375000 l s
0.100000 slw
[] 0 sd
[] 0 sd
0 slc
n 48.500000 18.375000 m 47.500000 19.375000 l s
0.100000 slw
[] 0 sd
[] 0 sd
0 slc
n 48.500000 16.375000 m 48.500000 18.375000 l s
0.100000 slw
[] 0 sd
[] 0 sd
0 slc
n 48.500000 16.375000 m 47.500000 17.375000 l s
0.100000 slw
[] 0 sd
[] 0 sd
0 slc
n 48.500000 16.375000 m 49.500000 17.375000 l s
1.000000 1.000000 1.000000 srgb
n 48.500000 15.875000 0.500000 0.500000 0 360 ellipse f
0.100000 slw
[] 0 sd
[] 0 sd
0.000000 0.000000 0.000000 srgb
n 48.500000 15.875000 0.500000 0.500000 0 360 ellipse cp s
showpage
