<?xml version="1.0" encoding="UTF-8" standalone="no"?>
<!-- Created with Inkscape (http://www.inkscape.org/) -->

<svg
   xmlns:dc="http://purl.org/dc/elements/1.1/"
   xmlns:cc="http://creativecommons.org/ns#"
   xmlns:rdf="http://www.w3.org/1999/02/22-rdf-syntax-ns#"
   xmlns:svg="http://www.w3.org/2000/svg"
   xmlns="http://www.w3.org/2000/svg"
   xmlns:sodipodi="http://sodipodi.sourceforge.net/DTD/sodipodi-0.dtd"
   xmlns:inkscape="http://www.inkscape.org/namespaces/inkscape"
   width="744.09448819"
   height="1052.3622047"
   id="svg2"
   version="1.1"
   inkscape:version="0.47 r22583"
   sodipodi:docname="New document 1">
  <defs
     id="defs4">
    <inkscape:perspective
       sodipodi:type="inkscape:persp3d"
       inkscape:vp_x="0 : 526.18109 : 1"
       inkscape:vp_y="0 : 1000 : 0"
       inkscape:vp_z="744.09448 : 526.18109 : 1"
       inkscape:persp3d-origin="372.04724 : 350.78739 : 1"
       id="perspective10" />
    <clipPath
       id="clipPath2871"
       clipPathUnits="userSpaceOnUse">
      <path
         id="path2873"
         d="m 0,0 276,0 0,276.79999 -276,0 L 0,0 z" />
    </clipPath>
    <inkscape:perspective
       id="perspective2845"
       inkscape:persp3d-origin="0.5 : 0.33333333 : 1"
       inkscape:vp_z="1 : 0.5 : 1"
       inkscape:vp_y="0 : 1000 : 0"
       inkscape:vp_x="0 : 0.5 : 1"
       sodipodi:type="inkscape:persp3d" />
  </defs>
  <sodipodi:namedview
     id="base"
     pagecolor="#ffffff"
     bordercolor="#666666"
     borderopacity="1.0"
     inkscape:pageopacity="0.0"
     inkscape:pageshadow="2"
     inkscape:zoom="1.4"
     inkscape:cx="375"
     inkscape:cy="764.3269"
     inkscape:document-units="px"
     inkscape:current-layer="layer1"
     showgrid="false"
     inkscape:window-width="1440"
     inkscape:window-height="876"
     inkscape:window-x="0"
     inkscape:window-y="24"
     inkscape:window-maximized="0" />
  <metadata
     id="metadata7">
    <rdf:RDF>
      <cc:Work
         rdf:about="">
        <dc:format>image/svg+xml</dc:format>
        <dc:type
           rdf:resource="http://purl.org/dc/dcmitype/StillImage" />
        <dc:title></dc:title>
      </cc:Work>
    </rdf:RDF>
  </metadata>
  <g
     inkscape:label="Layer 1"
     inkscape:groupmode="layer"
     id="layer1">
    <g
       transform="matrix(0.93975,0,0,-0.93975,218.88455,393.34003)"
       id="g2863">
      <g
         id="g2865">
        <g
           id="g2867">
          <g
             clip-path="url(#clipPath2871)"
             id="g2869">
            <g
               id="g2875">
              <g
                 transform="matrix(1,0,0,-0.434936,0,276.79999)"
                 id="g2877">
                <path
                   id="path2879"
                   style="fill:#ff0000;fill-opacity:1;fill-rule:evenodd;stroke:#000000;stroke-width:2.80507898;stroke-linecap:butt;stroke-linejoin:miter;stroke-miterlimit:4;stroke-opacity:1;stroke-dasharray:none"
                   d="m 273.02,51.22 c 0,27.105 -60.911,49.082 -136.047,49.082 -75.137,0 -136.047,-21.977 -136.047,-49.082 0,-27.114 60.91,-49.091 136.047,-49.091 75.136,0 136.047,21.977 136.047,49.091 z" />
              </g>
              <path
                 id="path2881"
                 style="fill:#000000;fill-opacity:1;fill-rule:nonzero;stroke:none"
                 d="m 65.875,262.566 1.594,0 0,-7.094 c 0,-1.25 0.222,-2.152 0.672,-2.703 0.457,-0.543 1.191,-0.813 2.203,-0.813 1.008,0 1.738,0.27 2.187,0.813 0.457,0.551 0.688,1.453 0.688,2.703 l 0,7.094 1.593,0 0,-7.282 c 0,-1.523 -0.382,-2.672 -1.14,-3.453 -0.75,-0.781 -1.86,-1.172 -3.328,-1.172 -1.469,0 -2.586,0.391 -3.344,1.172 -0.75,0.781 -1.125,1.93 -1.125,3.453 l 0,7.282 z m 13.234,-10.36 0,-4.64 -1.453,0 0,12.078 1.453,0 0,-1.328 c 0.301,0.519 0.68,0.906 1.141,1.156 0.457,0.258 1.008,0.39 1.656,0.39 1.063,0 1.922,-0.421 2.578,-1.265 0.664,-0.844 1,-1.953 1,-3.328 0,-1.375 -0.336,-2.492 -1,-3.344 -0.656,-0.844 -1.515,-1.266 -2.578,-1.266 -0.648,0 -1.199,0.125 -1.656,0.375 -0.461,0.258 -0.84,0.649 -1.141,1.172 z M 84,255.269 c 0,1.051 -0.219,1.879 -0.656,2.484 -0.438,0.602 -1.039,0.906 -1.797,0.906 -0.762,0 -1.359,-0.304 -1.797,-0.906 -0.43,-0.605 -0.641,-1.433 -0.641,-2.484 0,-1.063 0.211,-1.899 0.641,-2.5 0.438,-0.594 1.035,-0.891 1.797,-0.891 0.758,0 1.359,0.297 1.797,0.891 0.437,0.601 0.656,1.437 0.656,2.5 z m 9.453,4.125 0,-1.36 c -0.406,0.207 -0.828,0.364 -1.265,0.469 -0.438,0.102 -0.891,0.156 -1.36,0.156 -0.719,0 -1.258,-0.109 -1.609,-0.328 -0.356,-0.219 -0.531,-0.547 -0.531,-0.984 0,-0.336 0.124,-0.602 0.374,-0.797 0.258,-0.188 0.774,-0.367 1.547,-0.531 l 0.485,-0.11 c 1.019,-0.218 1.742,-0.531 2.172,-0.937 0.437,-0.399 0.656,-0.949 0.656,-1.656 0,-0.813 -0.324,-1.461 -0.969,-1.938 -0.648,-0.48 -1.531,-0.719 -2.656,-0.719 -0.469,0 -0.961,0.047 -1.469,0.141 -0.5,0.094 -1.031,0.234 -1.594,0.422 l 0,1.484 c 0.532,-0.281 1.051,-0.492 1.563,-0.625 0.519,-0.136 1.031,-0.203 1.531,-0.203 0.676,0 1.195,0.113 1.563,0.344 0.363,0.226 0.547,0.555 0.547,0.984 0,0.383 -0.133,0.68 -0.391,0.891 -0.262,0.207 -0.84,0.41 -1.735,0.609 l -0.5,0.11 c -0.886,0.187 -1.527,0.472 -1.921,0.859 -0.399,0.395 -0.594,0.93 -0.594,1.609 0,0.821 0.289,1.457 0.875,1.907 0.582,0.445 1.41,0.671 2.484,0.671 0.532,0 1.032,-0.042 1.5,-0.125 0.469,-0.074 0.899,-0.187 1.297,-0.343 z m 4.188,2.734 0,-2.484 2.953,0 0,-1.11 -2.953,0 0,-4.75 c 0,-0.718 0.093,-1.183 0.281,-1.39 0.195,-0.199 0.598,-0.297 1.203,-0.297 l 1.469,0 0,-1.203 -1.469,0 c -1.117,0 -1.887,0.207 -2.313,0.625 -0.417,0.414 -0.624,1.172 -0.624,2.265 l 0,4.75 -1.047,0 0,1.11 1.047,0 0,2.484 1.453,0 z m 9.921,-3.828 c -0.156,0.094 -0.335,0.16 -0.531,0.203 -0.187,0.051 -0.398,0.078 -0.625,0.078 -0.812,0 -1.437,-0.265 -1.875,-0.797 -0.429,-0.531 -0.64,-1.293 -0.64,-2.281 l 0,-4.609 -1.453,0 0,8.75 1.453,0 0,-1.36 c 0.3,0.532 0.691,0.926 1.171,1.188 0.489,0.258 1.079,0.39 1.766,0.39 0.102,0 0.211,-0.011 0.328,-0.031 0.125,-0.011 0.258,-0.027 0.406,-0.047 l 0,-1.484 z m 8.672,-2.672 0,-0.703 -6.609,0 c 0.063,-0.992 0.359,-1.746 0.891,-2.266 0.531,-0.511 1.273,-0.765 2.234,-0.765 0.551,0 1.082,0.066 1.594,0.203 0.519,0.133 1.035,0.336 1.547,0.609 l 0,-1.359 c -0.512,-0.219 -1.039,-0.387 -1.579,-0.5 -0.542,-0.125 -1.093,-0.188 -1.656,-0.188 -1.398,0 -2.5,0.407 -3.312,1.219 -0.813,0.82 -1.219,1.926 -1.219,3.313 0,1.425 0.383,2.562 1.156,3.406 0.77,0.844 1.813,1.265 3.125,1.265 1.176,0 2.11,-0.382 2.797,-1.14 0.688,-0.762 1.031,-1.793 1.031,-3.094 z m -1.437,0.422 c -0.012,0.789 -0.235,1.422 -0.672,1.891 -0.43,0.468 -0.996,0.703 -1.703,0.703 -0.805,0 -1.445,-0.231 -1.922,-0.688 -0.48,-0.449 -0.758,-1.086 -0.828,-1.906 l 5.125,0 z m 7.765,-0.75 c -1.156,0 -1.96,-0.137 -2.406,-0.406 -0.449,-0.262 -0.672,-0.715 -0.672,-1.36 0,-0.511 0.164,-0.918 0.5,-1.218 0.332,-0.293 0.789,-0.438 1.375,-0.438 0.789,0 1.426,0.281 1.907,0.844 0.488,0.562 0.734,1.312 0.734,2.25 l 0,0.328 -1.438,0 z m 2.876,0.594 0,-5 -1.438,0 0,1.328 c -0.336,-0.531 -0.746,-0.93 -1.234,-1.188 -0.493,-0.25 -1.09,-0.375 -1.797,-0.375 -0.899,0 -1.61,0.25 -2.141,0.75 -0.523,0.508 -0.781,1.188 -0.781,2.032 0,0.988 0.328,1.734 0.984,2.234 0.657,0.5 1.641,0.75 2.953,0.75 l 2.016,0 0,0.141 c 0,0.656 -0.219,1.164 -0.656,1.531 -0.438,0.363 -1.047,0.547 -1.828,0.547 -0.5,0 -0.993,-0.063 -1.469,-0.188 -0.469,-0.117 -0.922,-0.293 -1.359,-0.531 l 0,1.328 c 0.519,0.195 1.023,0.348 1.515,0.453 0.5,0.102 0.985,0.156 1.453,0.156 1.27,0 2.219,-0.328 2.844,-0.984 0.625,-0.656 0.938,-1.652 0.938,-2.984 z m 9.781,2.078 c 0.351,0.644 0.781,1.117 1.281,1.422 0.5,0.312 1.086,0.468 1.766,0.468 0.914,0 1.617,-0.324 2.109,-0.968 0.5,-0.637 0.75,-1.543 0.75,-2.719 l 0,-5.281 -1.453,0 0,5.234 c 0,0.844 -0.152,1.469 -0.453,1.875 -0.293,0.406 -0.742,0.609 -1.344,0.609 -0.75,0 -1.344,-0.25 -1.781,-0.75 -0.43,-0.492 -0.641,-1.164 -0.641,-2.015 l 0,-4.953 -1.437,0 0,5.234 c 0,0.844 -0.153,1.469 -0.454,1.875 -0.292,0.406 -0.75,0.609 -1.374,0.609 -0.731,0 -1.313,-0.25 -1.75,-0.75 -0.43,-0.5 -0.641,-1.171 -0.641,-2.015 l 0,-4.953 -1.453,0 0,8.75 1.453,0 0,-1.36 c 0.32,0.539 0.711,0.938 1.172,1.188 0.457,0.258 1.004,0.39 1.64,0.39 0.633,0 1.172,-0.164 1.61,-0.484 0.445,-0.324 0.781,-0.793 1,-1.406 z m 15.515,3.297 0,-4.391 1.985,0 c 0.726,0 1.289,0.188 1.687,0.563 0.406,0.382 0.61,0.929 0.61,1.64 0,0.696 -0.204,1.235 -0.61,1.61 -0.398,0.382 -0.961,0.578 -1.687,0.578 l -1.985,0 z m -1.578,1.297 3.563,0 c 1.301,0 2.285,-0.297 2.953,-0.891 0.676,-0.594 1.016,-1.461 1.016,-2.594 0,-1.156 -0.34,-2.031 -1.016,-2.625 -0.668,-0.586 -1.652,-0.875 -2.953,-0.875 l -1.985,0 0,-4.687 -1.578,0 0,11.672 z m 14.375,-4.266 c -0.156,0.094 -0.336,0.16 -0.531,0.203 -0.188,0.051 -0.398,0.078 -0.625,0.078 -0.813,0 -1.437,-0.265 -1.875,-0.797 -0.43,-0.531 -0.641,-1.293 -0.641,-2.281 l 0,-4.609 -1.453,0 0,8.75 1.453,0 0,-1.36 c 0.301,0.532 0.692,0.926 1.172,1.188 0.489,0.258 1.078,0.39 1.766,0.39 0.101,0 0.211,-0.011 0.328,-0.031 0.125,-0.011 0.258,-0.027 0.406,-0.047 l 0,-1.484 z m 4.578,0.344 c -0.773,0 -1.382,-0.305 -1.828,-0.907 -0.449,-0.605 -0.672,-1.429 -0.672,-2.468 0,-1.055 0.219,-1.883 0.657,-2.485 0.445,-0.593 1.062,-0.89 1.843,-0.89 0.758,0 1.364,0.301 1.813,0.906 0.445,0.602 0.672,1.426 0.672,2.469 0,1.031 -0.227,1.847 -0.672,2.453 -0.449,0.613 -1.055,0.922 -1.813,0.922 z m 0,1.218 c 1.25,0 2.227,-0.406 2.938,-1.218 0.719,-0.813 1.078,-1.938 1.078,-3.375 0,-1.438 -0.359,-2.571 -1.078,-3.391 -0.711,-0.812 -1.688,-1.219 -2.938,-1.219 -1.261,0 -2.246,0.407 -2.953,1.219 -0.711,0.82 -1.062,1.953 -1.062,3.391 0,1.437 0.351,2.562 1.062,3.375 0.707,0.812 1.692,1.218 2.953,1.218 z m 6.391,-0.218 1.438,0 0,-8.907 c 0,-1.113 -0.215,-1.921 -0.641,-2.421 -0.43,-0.5 -1.109,-0.75 -2.047,-0.75 l -0.562,0 0,1.218 0.39,0 c 0.551,0 0.926,0.125 1.125,0.375 0.195,0.25 0.297,0.778 0.297,1.578 l 0,8.907 z m 0,3.406 1.438,0 0,-1.813 -1.438,0 0,1.813 z m 11.922,-7.422 0,-0.703 -6.61,0 c 0.063,-0.992 0.36,-1.746 0.891,-2.266 0.531,-0.511 1.274,-0.765 2.235,-0.765 0.55,0 1.082,0.066 1.593,0.203 0.52,0.133 1.035,0.336 1.547,0.609 l 0,-1.359 c -0.512,-0.219 -1.039,-0.387 -1.578,-0.5 -0.543,-0.125 -1.094,-0.188 -1.656,-0.188 -1.399,0 -2.5,0.407 -3.313,1.219 -0.812,0.82 -1.219,1.926 -1.219,3.313 0,1.425 0.383,2.562 1.157,3.406 0.769,0.844 1.812,1.265 3.125,1.265 1.176,0 2.109,-0.382 2.797,-1.14 0.687,-0.762 1.031,-1.793 1.031,-3.094 z m -1.438,0.422 c -0.011,0.789 -0.234,1.422 -0.672,1.891 -0.429,0.468 -0.996,0.703 -1.703,0.703 -0.804,0 -1.445,-0.231 -1.921,-0.688 -0.481,-0.449 -0.758,-1.086 -0.829,-1.906 l 5.125,0 z m 10.094,3.266 0,-1.344 c -0.406,0.219 -0.82,0.383 -1.234,0.5 -0.406,0.113 -0.821,0.172 -1.235,0.172 -0.929,0 -1.652,-0.297 -2.171,-0.891 -0.512,-0.594 -0.766,-1.422 -0.766,-2.484 0,-1.074 0.254,-1.907 0.766,-2.5 0.519,-0.586 1.242,-0.875 2.171,-0.875 0.414,0 0.829,0.051 1.235,0.156 0.414,0.113 0.828,0.285 1.234,0.516 l 0,-1.329 c -0.406,-0.187 -0.824,-0.328 -1.25,-0.421 -0.43,-0.102 -0.887,-0.157 -1.375,-0.157 -1.312,0 -2.359,0.414 -3.141,1.25 -0.773,0.832 -1.156,1.953 -1.156,3.36 0,1.426 0.391,2.547 1.172,3.359 0.781,0.82 1.852,1.234 3.219,1.234 0.445,0 0.879,-0.046 1.297,-0.14 0.426,-0.094 0.836,-0.231 1.234,-0.406 z m 3.938,2.812 0,-2.484 2.953,0 0,-1.11 -2.953,0 0,-4.75 c 0,-0.718 0.093,-1.183 0.281,-1.39 0.195,-0.199 0.598,-0.297 1.203,-0.297 l 1.469,0 0,-1.203 -1.469,0 c -1.117,0 -1.887,0.207 -2.312,0.625 -0.418,0.414 -0.626,1.172 -0.626,2.265 l 0,4.75 -1.046,0 0,1.11 1.046,0 0,2.484 1.454,0 z m 10.437,-2.734 0,-1.36 c -0.406,0.207 -0.828,0.364 -1.265,0.469 -0.438,0.102 -0.891,0.156 -1.36,0.156 -0.719,0 -1.258,-0.109 -1.609,-0.328 -0.356,-0.219 -0.531,-0.547 -0.531,-0.984 0,-0.336 0.124,-0.602 0.374,-0.797 0.258,-0.188 0.774,-0.367 1.547,-0.531 l 0.485,-0.11 c 1.019,-0.218 1.742,-0.531 2.172,-0.937 0.437,-0.399 0.656,-0.949 0.656,-1.656 0,-0.813 -0.324,-1.461 -0.969,-1.938 -0.648,-0.48 -1.531,-0.719 -2.656,-0.719 -0.469,0 -0.961,0.047 -1.469,0.141 -0.5,0.094 -1.031,0.234 -1.594,0.422 l 0,1.484 c 0.532,-0.281 1.051,-0.492 1.563,-0.625 0.519,-0.136 1.031,-0.203 1.531,-0.203 0.676,0 1.195,0.113 1.563,0.344 0.363,0.226 0.547,0.555 0.547,0.984 0,0.383 -0.133,0.68 -0.391,0.891 -0.262,0.207 -0.84,0.41 -1.735,0.609 l -0.5,0.11 c -0.886,0.187 -1.527,0.472 -1.921,0.859 -0.399,0.395 -0.594,0.93 -0.594,1.609 0,0.821 0.289,1.457 0.875,1.907 0.582,0.445 1.41,0.671 2.484,0.671 0.532,0 1.032,-0.042 1.5,-0.125 0.469,-0.074 0.899,-0.187 1.297,-0.343 z" />
              <g
                 transform="matrix(1,0,0,-0.664092,0,276.79999)"
                 id="g2883">
                <path
                   id="path2885"
                   style="fill:#0000ff;fill-opacity:1;fill-rule:evenodd;stroke:#2b0000;stroke-width:1.19785202;stroke-linecap:round;stroke-linejoin:miter;stroke-miterlimit:4;stroke-opacity:1;stroke-dasharray:none"
                   d="m 142.027,188.615 c 0,12.9 -21.988,23.358 -49.113,23.358 -27.125,0 -49.113,-10.458 -49.113,-23.358 0,-12.905 21.988,-23.363 49.113,-23.363 27.125,0 49.113,10.458 49.113,23.363 z" />
              </g>
              <path
                 id="path2887"
                 style="fill:#000000;fill-opacity:1;fill-rule:nonzero;stroke:none"
                 d="m 69.27,156.718 0,-9.078 1.906,0 c 1.601,0 2.781,0.363 3.531,1.094 0.75,0.726 1.125,1.878 1.125,3.453 0,1.562 -0.375,2.707 -1.125,3.437 -0.75,0.727 -1.93,1.094 -3.531,1.094 l -1.906,0 z m -1.579,1.297 3.235,0 c 2.258,0 3.914,-0.477 4.969,-1.422 1.062,-0.938 1.593,-2.406 1.593,-4.406 0,-2.012 -0.531,-3.492 -1.593,-4.438 -1.063,-0.937 -2.719,-1.406 -4.969,-1.406 l -3.235,0 0,11.672 z m 19.735,-6.938 0,-0.703 -6.61,0 c 0.063,-0.992 0.36,-1.746 0.891,-2.265 0.531,-0.512 1.273,-0.766 2.234,-0.766 0.551,0 1.082,0.066 1.594,0.203 0.52,0.133 1.035,0.336 1.547,0.609 l 0,-1.359 c -0.512,-0.219 -1.039,-0.387 -1.578,-0.5 -0.543,-0.125 -1.094,-0.187 -1.656,-0.187 -1.399,0 -2.5,0.406 -3.313,1.218 -0.812,0.821 -1.219,1.926 -1.219,3.313 0,1.426 0.383,2.562 1.157,3.406 0.769,0.844 1.812,1.266 3.125,1.266 1.175,0 2.109,-0.383 2.797,-1.141 0.687,-0.762 1.031,-1.793 1.031,-3.094 z m -1.438,0.422 c -0.011,0.789 -0.234,1.422 -0.672,1.891 -0.429,0.469 -0.996,0.703 -1.703,0.703 -0.804,0 -1.445,-0.231 -1.922,-0.688 -0.48,-0.449 -0.757,-1.085 -0.828,-1.906 l 5.125,0 z m 10.078,-0.781 c 0,1.051 -0.218,1.879 -0.656,2.484 -0.437,0.602 -1.039,0.907 -1.797,0.907 -0.761,0 -1.359,-0.305 -1.797,-0.907 -0.429,-0.605 -0.64,-1.433 -0.64,-2.484 0,-1.063 0.211,-1.898 0.64,-2.5 0.438,-0.594 1.036,-0.891 1.797,-0.891 0.758,0 1.36,0.297 1.797,0.891 0.438,0.602 0.656,1.437 0.656,2.5 z m -4.89,3.047 c 0.301,0.519 0.679,0.906 1.14,1.156 0.457,0.258 1.008,0.391 1.657,0.391 1.062,0 1.922,-0.422 2.578,-1.266 0.664,-0.844 1,-1.953 1,-3.328 0,-1.375 -0.336,-2.492 -1,-3.344 -0.656,-0.844 -1.516,-1.265 -2.578,-1.265 -0.649,0 -1.2,0.125 -1.657,0.375 -0.461,0.257 -0.839,0.648 -1.14,1.171 l 0,-1.312 -1.453,0 0,12.156 1.453,0 0,-4.734 z m 8.765,1.328 1.438,0 0,-8.75 -1.438,0 0,8.75 z m 0,3.406 1.438,0 0,-1.812 -1.438,0 0,1.812 z m 8.407,-7.75 c -1.157,0 -1.961,-0.137 -2.407,-0.406 -0.449,-0.262 -0.671,-0.715 -0.671,-1.359 0,-0.512 0.164,-0.918 0.5,-1.219 0.332,-0.293 0.789,-0.438 1.375,-0.438 0.789,0 1.425,0.282 1.906,0.844 0.488,0.563 0.734,1.313 0.734,2.25 l 0,0.328 -1.437,0 z m 2.875,0.594 0,-5 -1.438,0 0,1.328 c -0.336,-0.531 -0.746,-0.93 -1.234,-1.187 -0.492,-0.25 -1.09,-0.375 -1.797,-0.375 -0.899,0 -1.609,0.25 -2.141,0.75 -0.523,0.507 -0.781,1.187 -0.781,2.031 0,0.988 0.328,1.734 0.984,2.234 0.657,0.5 1.641,0.75 2.954,0.75 l 2.015,0 0,0.141 c 0,0.656 -0.219,1.164 -0.656,1.531 -0.438,0.363 -1.047,0.547 -1.828,0.547 -0.5,0 -0.992,-0.063 -1.469,-0.188 -0.469,-0.117 -0.922,-0.293 -1.359,-0.531 l 0,1.328 c 0.519,0.196 1.023,0.348 1.515,0.453 0.5,0.102 0.985,0.157 1.453,0.157 1.27,0 2.219,-0.328 2.844,-0.985 0.625,-0.656 0.938,-1.652 0.938,-2.984 z m 10.234,0.281 0,-5.281 -1.437,0 0,5.234 c 0,0.832 -0.165,1.453 -0.485,1.86 -0.324,0.414 -0.808,0.625 -1.453,0.625 -0.773,0 -1.383,-0.25 -1.828,-0.75 -0.449,-0.492 -0.672,-1.164 -0.672,-2.016 l 0,-4.953 -1.453,0 0,8.75 1.453,0 0,-1.359 c 0.344,0.531 0.742,0.925 1.203,1.187 0.469,0.258 1.008,0.391 1.625,0.391 1,0 1.754,-0.313 2.266,-0.938 0.519,-0.625 0.781,-1.543 0.781,-2.75 z" />
              <g
                 transform="matrix(1,0,0,-1,0,276.79999)"
                 id="g2889">
                <path
                   id="path2891"
                   style="fill:#15ff00;fill-opacity:1;fill-rule:evenodd;stroke:#00ff00;stroke-width:2.59750891;stroke-linecap:butt;stroke-linejoin:miter;stroke-miterlimit:4;stroke-opacity:1;stroke-dasharray:none"
                   d="m 55.797,40.023 7.418,72.219" />
              </g>
              <path
                 id="path2893"
                 style="fill:#000000;fill-opacity:1;fill-rule:evenodd;stroke:none"
                 d="m 68.082,178.718 -4.492,-17.582 -7.969,16.301 c 3.957,-2.328 8.988,-1.797 12.461,1.281 z" />
              <path
                 id="path2895"
                 style="fill:#00c107;fill-opacity:1;fill-rule:nonzero;stroke:none"
                 d="m 5.297,203.823 0,-1.046 c -0.418,0.195 -0.809,0.343 -1.172,0.437 -0.367,0.094 -0.719,0.141 -1.063,0.141 -0.585,0 -1.039,-0.118 -1.359,-0.344 -0.324,-0.231 -0.484,-0.555 -0.484,-0.969 0,-0.355 0.101,-0.625 0.312,-0.812 0.219,-0.18 0.625,-0.325 1.219,-0.438 l 0.656,-0.125 c 0.813,-0.156 1.41,-0.433 1.797,-0.828 0.383,-0.387 0.578,-0.902 0.578,-1.547 0,-0.781 -0.261,-1.375 -0.781,-1.781 -0.523,-0.399 -1.289,-0.594 -2.297,-0.594 -0.375,0 -0.781,0.047 -1.219,0.141 -0.429,0.082 -0.871,0.207 -1.328,0.375 l 0,1.109 c 0.446,-0.25 0.879,-0.437 1.297,-0.562 0.426,-0.125 0.844,-0.188 1.25,-0.188 0.625,0 1.102,0.117 1.438,0.36 0.332,0.25 0.5,0.597 0.5,1.046 0,0.395 -0.121,0.704 -0.36,0.922 -0.242,0.227 -0.636,0.399 -1.187,0.516 l -0.656,0.125 c -0.813,0.156 -1.403,0.406 -1.766,0.75 -0.367,0.344 -0.547,0.82 -0.547,1.437 0,0.707 0.25,1.266 0.75,1.672 0.5,0.414 1.191,0.625 2.078,0.625 0.375,0 0.754,-0.039 1.141,-0.109 0.394,-0.074 0.797,-0.18 1.203,-0.313 z m 4.594,-2.421 c -0.532,0 -0.953,-0.211 -1.266,-0.625 -0.305,-0.418 -0.453,-0.985 -0.453,-1.704 0,-0.718 0.148,-1.289 0.453,-1.703 0.301,-0.406 0.723,-0.609 1.266,-0.609 0.519,0 0.929,0.203 1.234,0.609 0.313,0.414 0.469,0.985 0.469,1.703 0,0.719 -0.156,1.286 -0.469,1.704 -0.305,0.414 -0.715,0.625 -1.234,0.625 z m 0,0.828 c 0.851,0 1.523,-0.282 2.015,-0.844 0.489,-0.555 0.735,-1.324 0.735,-2.313 0,-0.98 -0.246,-1.75 -0.735,-2.312 -0.492,-0.563 -1.164,-0.844 -2.015,-0.844 -0.868,0 -1.543,0.281 -2.032,0.844 -0.492,0.562 -0.734,1.332 -0.734,2.312 0,0.989 0.242,1.758 0.734,2.313 0.489,0.562 1.164,0.844 2.032,0.844 z m 7.55,2.203 0,-0.828 -0.937,0 c -0.356,0 -0.606,-0.075 -0.75,-0.219 -0.137,-0.137 -0.203,-0.391 -0.203,-0.766 l 0,-0.531 1.625,0 0,-0.766 -1.625,0 0,-5.25 -0.985,0 0,5.25 -0.953,0 0,0.766 0.953,0 0,0.422 c 0,0.664 0.149,1.148 0.454,1.453 0.312,0.313 0.804,0.469 1.484,0.469 l 0.937,0 z m 1.68,-0.641 0,-1.703 2.031,0 0,-0.766 -2.031,0 0,-3.265 c 0,-0.492 0.067,-0.809 0.203,-0.953 0.133,-0.137 0.406,-0.203 0.813,-0.203 l 1.015,0 0,-0.829 -1.015,0 c -0.762,0 -1.289,0.141 -1.578,0.422 -0.293,0.289 -0.438,0.813 -0.438,1.563 l 0,3.265 -0.719,0 0,0.766 0.719,0 0,1.703 1,0 z m 2.848,-1.703 0.984,0 1.235,-4.687 1.234,4.687 1.156,0 1.234,-4.687 1.235,4.687 0.984,0 -1.562,-6.016 -1.172,0 -1.297,4.938 -1.297,-4.938 -1.172,0 -1.562,6.016 z m 12.465,-2.984 c -0.793,0 -1.344,-0.094 -1.657,-0.282 -0.304,-0.187 -0.453,-0.5 -0.453,-0.937 0,-0.344 0.114,-0.621 0.344,-0.828 0.227,-0.211 0.539,-0.313 0.937,-0.313 0.551,0 0.989,0.192 1.313,0.578 0.332,0.395 0.5,0.911 0.5,1.547 l 0,0.235 -0.984,0 z m 1.968,0.406 0,-3.438 -0.984,0 0,0.907 c -0.219,-0.368 -0.5,-0.637 -0.844,-0.813 -0.336,-0.164 -0.746,-0.25 -1.234,-0.25 -0.617,0 -1.106,0.172 -1.469,0.516 -0.367,0.344 -0.547,0.804 -0.547,1.39 0,0.676 0.223,1.188 0.672,1.532 0.457,0.343 1.141,0.515 2.047,0.515 l 1.375,0 0,0.094 c 0,0.457 -0.152,0.813 -0.453,1.063 -0.293,0.25 -0.711,0.375 -1.25,0.375 -0.344,0 -0.684,-0.043 -1.016,-0.125 -0.324,-0.086 -0.637,-0.211 -0.937,-0.375 l 0,0.906 c 0.363,0.144 0.718,0.25 1.062,0.312 0.344,0.071 0.672,0.11 0.985,0.11 0.875,0 1.523,-0.227 1.953,-0.672 0.426,-0.449 0.64,-1.133 0.64,-2.047 z m 5.649,1.656 c -0.106,0.063 -0.227,0.11 -0.36,0.141 -0.125,0.031 -0.265,0.047 -0.421,0.047 -0.563,0 -0.997,-0.184 -1.297,-0.547 -0.293,-0.367 -0.438,-0.887 -0.438,-1.563 l 0,-3.172 -1,0 0,6.016 1,0 0,-0.937 c 0.195,0.363 0.461,0.632 0.797,0.812 0.332,0.176 0.738,0.266 1.219,0.266 0.07,0 0.144,-0.008 0.219,-0.016 0.082,0 0.175,-0.012 0.281,-0.031 l 0,-1.016 z m 6.047,-1.844 0,-0.484 -4.547,0 c 0.039,-0.68 0.242,-1.195 0.609,-1.547 0.363,-0.355 0.875,-0.531 1.531,-0.531 0.383,0 0.754,0.047 1.11,0.141 0.351,0.093 0.707,0.226 1.062,0.406 l 0,-0.922 c -0.355,-0.156 -0.718,-0.274 -1.093,-0.344 -0.375,-0.082 -0.75,-0.125 -1.125,-0.125 -0.969,0 -1.735,0.274 -2.297,0.828 -0.555,0.563 -0.828,1.321 -0.828,2.282 0,0.976 0.265,1.753 0.796,2.328 0.532,0.582 1.25,0.875 2.157,0.875 0.8,0 1.437,-0.262 1.906,-0.782 0.476,-0.523 0.719,-1.23 0.719,-2.125 z m -1,0.297 c 0,0.539 -0.153,0.973 -0.453,1.297 -0.293,0.32 -0.684,0.485 -1.172,0.485 -0.555,0 -0.996,-0.157 -1.328,-0.469 -0.325,-0.313 -0.512,-0.75 -0.563,-1.313 l 3.516,0 z" />
              <g
                 transform="matrix(1,0,0,-1,0,276.79999)"
                 id="g2897">
                <path
                   id="path2899"
                   style="fill:#15ff00;fill-opacity:1;fill-rule:evenodd;stroke:#00ff00;stroke-width:2.4000001;stroke-linecap:butt;stroke-linejoin:miter;stroke-miterlimit:4;stroke-opacity:1;stroke-dasharray:none"
                   d="m 77.969,42.473 2.078,66.734" />
              </g>
              <path
                 id="path2901"
                 style="fill:#000000;fill-opacity:1;fill-rule:evenodd;stroke:none"
                 d="m 85.461,180.323 -5.289,-15.906 -6.274,15.547 c 3.493,-2.406 8.161,-2.246 11.563,0.359 z" />
              <path
                 id="path2903"
                 style="fill:#ff8400;fill-opacity:1;fill-rule:nonzero;stroke:none"
                 d="m 218.699,87.261 0,-3.563 1.61,0 c 0.593,0 1.05,0.157 1.375,0.469 0.332,0.313 0.5,0.75 0.5,1.313 0,0.57 -0.168,1.007 -0.5,1.312 -0.325,0.313 -0.782,0.469 -1.375,0.469 l -1.61,0 z m -1.281,1.062 2.891,0 c 1.062,0 1.863,-0.246 2.406,-0.734 0.539,-0.48 0.812,-1.184 0.812,-2.109 0,-0.93 -0.273,-1.633 -0.812,-2.11 -0.543,-0.48 -1.344,-0.718 -2.406,-0.718 l -1.61,0 0,-3.813 -1.281,0 0,9.484 z m 10.32,-5.906 c -0.937,0 -1.59,-0.109 -1.953,-0.328 -0.367,-0.219 -0.547,-0.59 -0.547,-1.109 0,-0.407 0.133,-0.735 0.407,-0.985 0.269,-0.242 0.64,-0.359 1.109,-0.359 0.644,0 1.164,0.226 1.562,0.687 0.395,0.457 0.594,1.067 0.594,1.829 l 0,0.265 -1.172,0 z m 2.328,0.485 0,-4.063 -1.156,0 0,1.078 c -0.273,-0.43 -0.605,-0.746 -1,-0.953 -0.398,-0.207 -0.887,-0.312 -1.469,-0.312 -0.73,0 -1.308,0.203 -1.734,0.609 -0.43,0.414 -0.641,0.961 -0.641,1.641 0,0.8 0.266,1.406 0.797,1.812 0.539,0.406 1.344,0.609 2.407,0.609 l 1.64,0 0,0.125 c 0,0.532 -0.18,0.942 -0.531,1.235 -0.356,0.301 -0.856,0.453 -1.5,0.453 -0.406,0 -0.805,-0.055 -1.188,-0.156 -0.386,-0.094 -0.757,-0.243 -1.109,-0.438 l 0,1.078 c 0.426,0.164 0.844,0.289 1.25,0.375 0.406,0.082 0.797,0.125 1.172,0.125 1.031,0 1.797,-0.265 2.297,-0.797 0.508,-0.531 0.765,-1.339 0.765,-2.421 z m 7.414,2.781 0,-1.094 c -0.335,0.176 -0.668,0.313 -1,0.406 -0.335,0.094 -0.668,0.141 -1,0.141 -0.761,0 -1.351,-0.246 -1.765,-0.734 -0.418,-0.481 -0.625,-1.153 -0.625,-2.016 0,-0.867 0.207,-1.539 0.625,-2.016 0.414,-0.48 1.004,-0.718 1.765,-0.718 0.332,0 0.665,0.039 1,0.125 0.332,0.093 0.665,0.234 1,0.421 l 0,-1.093 c -0.324,-0.149 -0.664,-0.258 -1.015,-0.328 -0.344,-0.082 -0.715,-0.125 -1.11,-0.125 -1.074,0 -1.929,0.332 -2.562,1 -0.625,0.675 -0.938,1.585 -0.938,2.734 0,1.156 0.317,2.066 0.954,2.734 0.632,0.664 1.507,1 2.625,1 0.351,0 0.703,-0.039 1.046,-0.109 0.344,-0.074 0.676,-0.184 1,-0.328 z m 1.895,3.031 1.172,0 0,-5.828 3.484,3.062 1.485,0 -3.766,-3.328 3.922,-3.781 -1.516,0 -3.609,3.469 0,-3.469 -1.172,0 0,9.875 z m 10.465,-6.297 c -0.938,0 -1.59,-0.109 -1.953,-0.328 -0.367,-0.219 -0.547,-0.59 -0.547,-1.109 0,-0.407 0.133,-0.735 0.406,-0.985 0.27,-0.242 0.641,-0.359 1.109,-0.359 0.645,0 1.165,0.226 1.563,0.687 0.394,0.457 0.594,1.067 0.594,1.829 l 0,0.265 -1.172,0 z m 2.328,0.485 0,-4.063 -1.156,0 0,1.078 c -0.274,-0.43 -0.606,-0.746 -1,-0.953 -0.399,-0.207 -0.887,-0.312 -1.469,-0.312 -0.731,0 -1.309,0.203 -1.734,0.609 -0.43,0.414 -0.641,0.961 -0.641,1.641 0,0.8 0.266,1.406 0.797,1.812 0.539,0.406 1.344,0.609 2.406,0.609 l 1.641,0 0,0.125 c 0,0.532 -0.18,0.942 -0.532,1.235 -0.355,0.301 -0.855,0.453 -1.5,0.453 -0.406,0 -0.804,-0.055 -1.187,-0.156 -0.387,-0.094 -0.758,-0.243 -1.109,-0.438 l 0,1.078 c 0.425,0.164 0.843,0.289 1.25,0.375 0.406,0.082 0.796,0.125 1.171,0.125 1.032,0 1.797,-0.265 2.297,-0.797 0.508,-0.531 0.766,-1.339 0.766,-2.421 z m 6.973,-0.422 c 0,0.843 -0.18,1.492 -0.532,1.953 -0.343,0.469 -0.836,0.703 -1.468,0.703 -0.625,0 -1.118,-0.234 -1.469,-0.703 -0.344,-0.461 -0.516,-1.11 -0.516,-1.953 0,-0.844 0.172,-1.5 0.516,-1.969 0.351,-0.461 0.844,-0.688 1.469,-0.688 0.632,0 1.125,0.227 1.468,0.688 0.352,0.469 0.532,1.125 0.532,1.969 z m 1.171,-2.766 c 0,-1.207 -0.273,-2.102 -0.812,-2.687 -0.543,-0.594 -1.367,-0.891 -2.469,-0.891 -0.406,0 -0.793,0.031 -1.156,0.094 -0.367,0.062 -0.719,0.156 -1.063,0.281 l 0,1.141 c 0.344,-0.188 0.68,-0.321 1.016,-0.407 0.332,-0.093 0.672,-0.14 1.016,-0.14 0.769,0 1.344,0.199 1.718,0.593 0.383,0.399 0.579,1 0.579,1.813 l 0,0.578 c -0.243,-0.418 -0.555,-0.73 -0.938,-0.937 -0.375,-0.211 -0.824,-0.313 -1.344,-0.313 -0.875,0 -1.578,0.332 -2.109,1 -0.531,0.664 -0.797,1.547 -0.797,2.641 0,1.093 0.266,1.972 0.797,2.64 0.531,0.664 1.234,1 2.109,1 0.52,0 0.969,-0.105 1.344,-0.312 0.383,-0.211 0.695,-0.524 0.938,-0.938 l 0,1.078 1.171,0 0,-6.234 z m 8.36,2.969 0,-0.563 -5.375,0 c 0.051,-0.812 0.289,-1.429 0.719,-1.843 0.437,-0.418 1.039,-0.625 1.812,-0.625 0.445,0 0.879,0.05 1.297,0.156 0.426,0.113 0.848,0.281 1.266,0.5 l 0,-1.11 c -0.418,-0.179 -0.852,-0.312 -1.297,-0.406 -0.438,-0.094 -0.883,-0.14 -1.328,-0.14 -1.137,0 -2.039,0.328 -2.704,0.984 -0.656,0.664 -0.984,1.562 -0.984,2.687 0,1.164 0.313,2.086 0.938,2.766 0.632,0.688 1.484,1.031 2.546,1.031 0.958,0 1.711,-0.308 2.266,-0.922 0.563,-0.617 0.844,-1.453 0.844,-2.515 z m -1.172,0.344 c -0.012,0.632 -0.195,1.144 -0.547,1.531 -0.344,0.383 -0.805,0.578 -1.375,0.578 -0.656,0 -1.183,-0.188 -1.578,-0.563 -0.387,-0.367 -0.609,-0.882 -0.672,-1.546 l 4.172,0 z m 7.484,2.718 0,-1.109 c -0.324,0.164 -0.664,0.289 -1.015,0.375 -0.356,0.082 -0.727,0.125 -1.11,0.125 -0.586,0 -1.023,-0.09 -1.312,-0.266 -0.281,-0.179 -0.422,-0.445 -0.422,-0.797 0,-0.273 0.098,-0.484 0.297,-0.64 0.207,-0.149 0.629,-0.293 1.266,-0.438 l 0.39,-0.093 c 0.832,-0.18 1.422,-0.43 1.766,-0.75 0.351,-0.325 0.531,-0.774 0.531,-1.344 0,-0.668 -0.262,-1.196 -0.781,-1.578 -0.524,-0.387 -1.242,-0.578 -2.156,-0.578 -0.387,0 -0.79,0.039 -1.204,0.109 -0.406,0.074 -0.839,0.187 -1.296,0.344 l 0,1.203 c 0.437,-0.231 0.863,-0.403 1.281,-0.516 0.414,-0.105 0.828,-0.156 1.234,-0.156 0.551,0 0.973,0.094 1.266,0.281 0.301,0.188 0.453,0.453 0.453,0.797 0,0.313 -0.11,0.551 -0.328,0.719 -0.211,0.176 -0.672,0.344 -1.391,0.5 l -0.406,0.094 c -0.731,0.156 -1.258,0.39 -1.578,0.703 -0.324,0.312 -0.485,0.742 -0.485,1.297 0,0.664 0.235,1.179 0.704,1.546 0.476,0.364 1.156,0.547 2.031,0.547 0.426,0 0.832,-0.031 1.219,-0.093 0.382,-0.063 0.734,-0.157 1.046,-0.282 z" />
              <g
                 transform="matrix(1,0,0,-1,0,276.79999)"
                 id="g2905">
                <path
                   id="path2907"
                   style="fill:none;stroke:#ff9300;stroke-width:2.4000001;stroke-linecap:butt;stroke-linejoin:miter;stroke-miterlimit:4;stroke-opacity:1;stroke-dasharray:none"
                   d="m 139.766,132.074 40.074,21.645" />
              </g>
              <path
                 id="path2909"
                 style="fill:#000000;fill-opacity:1;fill-rule:evenodd;stroke:none"
                 d="m 171.555,134.159 11.093,-12.57 -16.593,2.387 c 3.836,1.812 6.043,5.929 5.5,10.183 z" />
              <g
                 transform="matrix(1,0,0,-1,0,276.79999)"
                 id="g2911">
                <path
                   id="path2913"
                   style="fill:none;stroke:#00ff00;stroke-width:2.43868399;stroke-linecap:butt;stroke-linejoin:miter;stroke-miterlimit:4;stroke-opacity:1;stroke-dasharray:none"
                   d="m 215.207,40.66 c -1.199,52.063 -1.918,76.195 -4.129,104.86" />
              </g>
              <path
                 id="path2915"
                 style="fill:#000000;fill-opacity:1;fill-rule:evenodd;stroke:none"
                 d="m 217.945,143.546 -7.09,-15.484 -4.632,16.39 c 3.261,-2.812 8,-3.164 11.722,-0.906 z" />
              <g
                 transform="matrix(1,0,0,-0.664092,0,276.79999)"
                 id="g2917">
                <path
                   id="path2919"
                   style="fill:#ff5200;fill-opacity:1;fill-rule:evenodd;stroke:#2b0000;stroke-width:1.19785202;stroke-linecap:round;stroke-linejoin:miter;stroke-miterlimit:4;stroke-opacity:1;stroke-dasharray:none"
                   d="m 274.234,244.701 c 0,12.899 -21.988,23.358 -49.109,23.358 -27.125,0 -49.113,-10.459 -49.113,-23.358 0,-12.899 21.988,-23.358 49.113,-23.358 27.121,0 49.109,10.459 49.109,23.358 z" />
              </g>
              <path
                 id="path2921"
                 style="fill:#000000;fill-opacity:1;fill-rule:nonzero;stroke:none"
                 d="m 199.715,120.769 1.594,0 0,-7.094 c 0,-1.25 0.222,-2.152 0.671,-2.703 0.458,-0.543 1.192,-0.813 2.204,-0.813 1.007,0 1.738,0.27 2.187,0.813 0.457,0.551 0.688,1.453 0.688,2.703 l 0,7.094 1.593,0 0,-7.282 c 0,-1.523 -0.382,-2.671 -1.14,-3.453 -0.75,-0.781 -1.86,-1.172 -3.328,-1.172 -1.469,0 -2.586,0.391 -3.344,1.172 -0.75,0.782 -1.125,1.93 -1.125,3.453 l 0,7.282 z m 18.125,-7.297 c 0,1.051 -0.219,1.879 -0.656,2.484 -0.438,0.602 -1.039,0.906 -1.797,0.906 -0.762,0 -1.36,-0.304 -1.797,-0.906 -0.43,-0.605 -0.641,-1.433 -0.641,-2.484 0,-1.063 0.211,-1.899 0.641,-2.5 0.437,-0.594 1.035,-0.891 1.797,-0.891 0.758,0 1.359,0.297 1.797,0.891 0.437,0.601 0.656,1.437 0.656,2.5 z m -4.891,3.047 c 0.301,0.519 0.68,0.906 1.141,1.156 0.457,0.258 1.008,0.391 1.656,0.391 1.063,0 1.922,-0.422 2.578,-1.266 0.664,-0.844 1,-1.953 1,-3.328 0,-1.375 -0.336,-2.492 -1,-3.344 -0.656,-0.844 -1.515,-1.266 -2.578,-1.266 -0.648,0 -1.199,0.125 -1.656,0.375 -0.461,0.258 -0.84,0.649 -1.141,1.172 l 0,-1.312 -1.453,0 0,12.156 1.453,0 0,-4.734 z m 8.61,-3.969 0,5.297 1.437,0 0,-5.235 c 0,-0.835 0.16,-1.46 0.484,-1.875 0.321,-0.406 0.805,-0.609 1.454,-0.609 0.781,0 1.394,0.242 1.843,0.734 0.446,0.5 0.672,1.176 0.672,2.032 l 0,4.953 1.438,0 0,-8.75 -1.438,0 0,1.344 c -0.344,-0.532 -0.75,-0.93 -1.219,-1.188 -0.46,-0.258 -0.992,-0.391 -1.593,-0.391 -1.012,0 -1.778,0.313 -2.297,0.938 -0.524,0.633 -0.781,1.551 -0.781,2.75 z m 3.625,5.516 0,0 z m 13.953,-3.688 0,-5.281 -1.438,0 0,5.234 c 0,0.832 -0.164,1.453 -0.484,1.86 -0.324,0.414 -0.809,0.625 -1.453,0.625 -0.774,0 -1.383,-0.25 -1.828,-0.75 -0.45,-0.493 -0.672,-1.164 -0.672,-2.016 l 0,-4.953 -1.453,0 0,8.75 1.453,0 0,-1.36 c 0.343,0.532 0.742,0.926 1.203,1.188 0.469,0.258 1.008,0.391 1.625,0.391 1,0 1.754,-0.313 2.265,-0.938 0.52,-0.625 0.782,-1.543 0.782,-2.75 z m 4.312,5.953 0,-2.484 2.953,0 0,-1.11 -2.953,0 0,-4.75 c 0,-0.718 0.094,-1.183 0.281,-1.39 0.196,-0.199 0.598,-0.297 1.204,-0.297 l 1.468,0 0,-1.203 -1.468,0 c -1.118,0 -1.887,0.207 -2.313,0.625 -0.418,0.414 -0.625,1.172 -0.625,2.265 l 0,4.75 -1.047,0 0,1.11 1.047,0 0,2.484 1.453,0 z m 4.703,-7.781 0,5.297 1.438,0 0,-5.235 c 0,-0.835 0.16,-1.46 0.484,-1.875 0.321,-0.406 0.805,-0.609 1.453,-0.609 0.782,0 1.395,0.242 1.844,0.734 0.445,0.5 0.672,1.176 0.672,2.032 l 0,4.953 1.437,0 0,-8.75 -1.437,0 0,1.344 c -0.344,-0.532 -0.75,-0.93 -1.219,-1.188 -0.461,-0.258 -0.992,-0.391 -1.594,-0.391 -1.011,0 -1.777,0.313 -2.296,0.938 -0.524,0.633 -0.782,1.551 -0.782,2.75 z m 3.625,5.516 0,0 z" />
              <g
                 transform="matrix(1,0,0,-1,0,276.79999)"
                 id="g2923">
                <path
                   id="path2925"
                   style="fill:none;stroke:#ff9300;stroke-width:2.4000001;stroke-linecap:butt;stroke-linejoin:miter;stroke-miterlimit:4;stroke-opacity:1;stroke-dasharray:none"
                   d="m 217.301,177.812 -10.637,35.477" />
              </g>
              <path
                 id="path2927"
                 style="fill:#000000;fill-opacity:1;fill-rule:evenodd;stroke:none"
                 d="M 215.836,73.866 205.773,60.46 204.75,77.191 c 2.551,-3.387 7.031,-4.715 11.086,-3.325 z" />
              <path
                 id="path2929"
                 style="fill:#000000;fill-opacity:1;fill-rule:nonzero;stroke:none"
                 d="m 200.422,7.62 c -1.074,3.778 -2.563,8.735 -3.305,11.016 l -1.347,4.144 -0.665,-4.664 c -0.796,-5.636 -2.527,-12.804 -3.578,-14.839 -1.418,-2.743 -1.609,-1.52 -0.347,2.238 2.422,7.219 3.371,13.894 3.433,24.133 0.032,5.203 -0.082,9.402 -0.258,9.328 -0.171,-0.071 -1.867,-1.961 -3.765,-4.203 -3.559,-4.2 -8.485,-8.93 -8.883,-8.528 -0.125,0.125 1.426,1.848 3.453,3.825 2.024,1.976 4.555,4.878 5.625,6.445 1.922,2.816 3.996,5.031 4.32,4.621 0.09,-0.117 0.844,-1.149 1.672,-2.289 2.332,-3.215 7.946,-9.223 9.61,-10.285 1.965,-1.254 1.945,-2.149 -0.02,-1.133 -0.84,0.433 -3.578,3.082 -6.09,5.887 l -4.57,5.097 -0.148,-5.742 c -0.121,-4.586 0.05,-6.371 0.859,-8.851 0.992,-3.059 1.562,-4.965 4.727,-15.809 0.871,-2.992 1.71,-5.852 1.867,-6.348 0.156,-0.5 0.078,-0.91 -0.176,-0.91 -0.25,0 -1.336,3.09 -2.414,6.867 z m -6.512,35.442 c -4.722,3.972 -4.879,11.859 -0.289,14.695 1.199,0.742 2.59,1.047 4.766,1.047 2.894,0 3.187,-0.117 5.074,-2.051 1.969,-2.019 2.004,-2.121 2.051,-6.129 0.039,-3.695 -0.09,-4.258 -1.391,-5.961 -2.402,-3.152 -7.43,-3.941 -10.211,-1.601 z m 7.778,0.461 c 2.031,1.05 3.089,3.265 3.089,6.461 0,4.589 -1.707,7.293 -4.832,7.644 -5.898,0.664 -8.64,-1.531 -8.64,-6.918 0,-2.598 1.812,-6.433 3.507,-7.422 1.348,-0.785 5.153,-0.656 6.876,0.235 z" />
              <g
                 transform="matrix(1,0,0,-1,0,276.79999)"
                 id="g2931">
                <path
                   id="path2933"
                   style="fill:none;stroke:#00ff00;stroke-width:2.42716908;stroke-linecap:butt;stroke-linejoin:miter;stroke-miterlimit:4;stroke-opacity:1;stroke-dasharray:none"
                   d="m 238.223,37.418 c -1.203,51.512 -1.922,75.387 -4.137,103.738" />
              </g>
              <path
                 id="path2935"
                 style="fill:#000000;fill-opacity:1;fill-rule:evenodd;stroke:none"
                 d="m 240.934,147.843 -7.075,-15.406 -4.593,16.316 c 3.246,-2.801 7.957,-3.156 11.668,-0.91 z" />
              <g
                 transform="matrix(1,0,0,-1,0,276.79999)"
                 id="g2937">
                <path
                   id="path2939"
                   style="fill:#15ff00;fill-opacity:1;fill-rule:evenodd;stroke:#00ff00;stroke-width:2.4000001;stroke-linecap:butt;stroke-linejoin:miter;stroke-miterlimit:4;stroke-opacity:1;stroke-dasharray:none"
                   d="m 99.852,44.066 -2.153,63.68" />
              </g>
              <path
                 id="path2941"
                 style="fill:#000000;fill-opacity:1;fill-rule:evenodd;stroke:none"
                 d="m 103.93,181.405 -6.317,-15.531 -5.25,15.922 c 3.328,-2.629 8,-2.773 11.567,-0.391 z" />
              <g
                 transform="matrix(1,0,0,-1,0,276.79999)"
                 id="g2943">
                <path
                   id="path2945"
                   style="fill:#15ff00;fill-opacity:1;fill-rule:evenodd;stroke:#00ff00;stroke-width:2.4000001;stroke-linecap:butt;stroke-linejoin:miter;stroke-miterlimit:4;stroke-opacity:1;stroke-dasharray:none"
                   d="m 120.188,44.484 -4.969,65.09" />
              </g>
              <path
                 id="path2947"
                 style="fill:#000000;fill-opacity:1;fill-rule:evenodd;stroke:none"
                 d="m 121.965,179.304 -6.965,-15.25 -4.57,16.129 c 3.215,-2.766 7.875,-3.106 11.535,-0.879 z" />
              <g
                 transform="matrix(1,0,0,-1,0,276.79999)"
                 id="g2949">
                <path
                   id="path2951"
                   style="fill:#15ff00;fill-opacity:1;fill-rule:evenodd;stroke:#00ff00;stroke-width:2.4000001;stroke-linecap:butt;stroke-linejoin:miter;stroke-miterlimit:4;stroke-opacity:1;stroke-dasharray:none"
                   d="m 143.512,44.312 -13.289,68.485" />
              </g>
              <path
                 id="path2953"
                 style="fill:#000000;fill-opacity:1;fill-rule:evenodd;stroke:none"
                 d="m 138.316,175.222 -8.675,-14.344 -2.684,16.547 c 2.875,-3.117 7.465,-3.992 11.359,-2.203 z" />
            </g>
          </g>
        </g>
      </g>
    </g>
  </g>
</svg>
