<?xml version="1.0" encoding="UTF-8" standalone="no"?>
<!-- Created with Inkscape (http://www.inkscape.org/) -->

<svg
   xmlns:dc="http://purl.org/dc/elements/1.1/"
   xmlns:cc="http://creativecommons.org/ns#"
   xmlns:rdf="http://www.w3.org/1999/02/22-rdf-syntax-ns#"
   xmlns:svg="http://www.w3.org/2000/svg"
   xmlns="http://www.w3.org/2000/svg"
   xmlns:sodipodi="http://sodipodi.sourceforge.net/DTD/sodipodi-0.dtd"
   xmlns:inkscape="http://www.inkscape.org/namespaces/inkscape"
   width="744.09448819"
   height="1052.3622047"
   id="svg2"
   version="1.1"
   inkscape:version="0.47 r22583"
   sodipodi:docname="New document 1">
  <defs
     id="defs4">
    <inkscape:perspective
       sodipodi:type="inkscape:persp3d"
       inkscape:vp_x="0 : 526.18109 : 1"
       inkscape:vp_y="0 : 1000 : 0"
       inkscape:vp_z="744.09448 : 526.18109 : 1"
       inkscape:persp3d-origin="372.04724 : 350.78739 : 1"
       id="perspective10" />
    <clipPath
       id="clipPath2871"
       clipPathUnits="userSpaceOnUse">
      <path
         id="path2873"
         d="m 0,0 195.2,0 0,255.2 L 0,255.2 0,0 z" />
    </clipPath>
    <inkscape:perspective
       id="perspective2845"
       inkscape:persp3d-origin="0.5 : 0.33333333 : 1"
       inkscape:vp_z="1 : 0.5 : 1"
       inkscape:vp_y="0 : 1000 : 0"
       inkscape:vp_x="0 : 0.5 : 1"
       sodipodi:type="inkscape:persp3d" />
  </defs>
  <sodipodi:namedview
     id="base"
     pagecolor="#ffffff"
     bordercolor="#666666"
     borderopacity="1.0"
     inkscape:pageopacity="0.0"
     inkscape:pageshadow="2"
     inkscape:zoom="1.4"
     inkscape:cx="375"
     inkscape:cy="676.60033"
     inkscape:document-units="px"
     inkscape:current-layer="layer1"
     showgrid="false"
     inkscape:window-width="1440"
     inkscape:window-height="876"
     inkscape:window-x="0"
     inkscape:window-y="24"
     inkscape:window-maximized="0" />
  <metadata
     id="metadata7">
    <rdf:RDF>
      <cc:Work
         rdf:about="">
        <dc:format>image/svg+xml</dc:format>
        <dc:type
           rdf:resource="http://purl.org/dc/dcmitype/StillImage" />
        <dc:title></dc:title>
      </cc:Work>
    </rdf:RDF>
  </metadata>
  <g
     inkscape:label="Layer 1"
     inkscape:groupmode="layer"
     id="layer1">
    <g
       transform="matrix(1.0063,0,0,-1.0063,236.78563,503.11361)"
       id="g2863">
      <g
         id="g2865">
        <g
           id="g2867">
          <g
             clip-path="url(#clipPath2871)"
             id="g2869">
            <g
               id="g2875">
              <g
                 transform="matrix(1,0,0,-0.664092,0,255.2)"
                 id="g2877">
                <path
                   id="path2879"
                   style="fill:#0000ff;fill-opacity:1;fill-rule:evenodd;stroke:#2b0000;stroke-width:1.19785202;stroke-linecap:round;stroke-linejoin:miter;stroke-miterlimit:4;stroke-opacity:1;stroke-dasharray:none"
                   d="m 119.793,123.336 c 0,12.899 -21.988,23.358 -49.113,23.358 -27.121,0 -49.11,-10.459 -49.11,-23.358 0,-12.9 21.989,-23.358 49.11,-23.358 27.125,0 49.113,10.458 49.113,23.358 z" />
              </g>
              <path
                 id="path2881"
                 style="fill:#000000;fill-opacity:1;fill-rule:nonzero;stroke:none"
                 d="m 47.039,178.47 0,-9.079 1.906,0 c 1.602,0 2.782,0.364 3.532,1.094 0.75,0.727 1.125,1.879 1.125,3.453 0,1.563 -0.375,2.707 -1.125,3.438 -0.75,0.726 -1.93,1.094 -3.532,1.094 l -1.906,0 z m -1.578,1.296 3.234,0 c 2.258,0 3.914,-0.476 4.969,-1.421 1.063,-0.938 1.594,-2.407 1.594,-4.407 0,-2.011 -0.531,-3.492 -1.594,-4.437 -1.062,-0.938 -2.719,-1.406 -4.969,-1.406 l -3.234,0 0,11.671 z m 19.734,-6.937 0,-0.703 -6.609,0 c 0.062,-0.992 0.359,-1.746 0.891,-2.266 0.531,-0.512 1.273,-0.765 2.234,-0.765 0.551,0 1.082,0.066 1.594,0.203 0.519,0.132 1.035,0.336 1.547,0.609 l 0,-1.359 c -0.512,-0.219 -1.04,-0.387 -1.579,-0.5 -0.543,-0.125 -1.093,-0.188 -1.656,-0.188 -1.398,0 -2.5,0.406 -3.312,1.219 -0.813,0.82 -1.219,1.926 -1.219,3.312 0,1.426 0.383,2.563 1.156,3.407 0.77,0.843 1.813,1.265 3.125,1.265 1.176,0 2.11,-0.383 2.797,-1.14 0.688,-0.762 1.031,-1.793 1.031,-3.094 z m -1.437,0.422 c -0.012,0.789 -0.235,1.422 -0.672,1.89 -0.43,0.469 -0.996,0.704 -1.703,0.704 -0.805,0 -1.445,-0.231 -1.922,-0.688 -0.481,-0.449 -0.758,-1.086 -0.828,-1.906 l 5.125,0 z m 10.078,-0.781 c 0,1.05 -0.219,1.878 -0.656,2.484 -0.438,0.601 -1.039,0.906 -1.797,0.906 -0.762,0 -1.36,-0.305 -1.797,-0.906 -0.43,-0.606 -0.641,-1.434 -0.641,-2.484 0,-1.063 0.211,-1.899 0.641,-2.5 0.437,-0.594 1.035,-0.891 1.797,-0.891 0.758,0 1.359,0.297 1.797,0.891 0.437,0.601 0.656,1.437 0.656,2.5 z m -4.891,3.046 c 0.301,0.52 0.68,0.907 1.141,1.157 0.457,0.257 1.008,0.39 1.656,0.39 1.063,0 1.922,-0.422 2.578,-1.265 0.664,-0.844 1,-1.953 1,-3.328 0,-1.375 -0.336,-2.493 -1,-3.344 -0.656,-0.844 -1.515,-1.266 -2.578,-1.266 -0.648,0 -1.199,0.125 -1.656,0.375 -0.461,0.258 -0.84,0.649 -1.141,1.172 l 0,-1.312 -1.453,0 0,12.156 1.453,0 0,-4.735 z m 8.766,1.329 1.437,0 0,-8.75 -1.437,0 0,8.75 z m 0,3.406 1.437,0 0,-1.813 -1.437,0 0,1.813 z m 8.406,-7.75 c -1.156,0 -1.961,-0.137 -2.406,-0.406 -0.449,-0.262 -0.672,-0.715 -0.672,-1.36 0,-0.512 0.164,-0.918 0.5,-1.219 0.332,-0.293 0.789,-0.437 1.375,-0.437 0.789,0 1.426,0.281 1.906,0.844 0.489,0.562 0.735,1.312 0.735,2.25 l 0,0.328 -1.438,0 z m 2.875,0.594 0,-5 -1.437,0 0,1.328 c -0.336,-0.532 -0.746,-0.93 -1.235,-1.188 -0.492,-0.25 -1.09,-0.375 -1.797,-0.375 -0.898,0 -1.609,0.25 -2.14,0.75 -0.524,0.508 -0.781,1.188 -0.781,2.031 0,0.989 0.328,1.735 0.984,2.235 0.656,0.5 1.641,0.75 2.953,0.75 l 2.016,0 0,0.14 c 0,0.657 -0.219,1.164 -0.657,1.532 -0.437,0.363 -1.046,0.547 -1.828,0.547 -0.5,0 -0.992,-0.063 -1.468,-0.188 -0.469,-0.117 -0.922,-0.293 -1.36,-0.531 l 0,1.328 c 0.52,0.195 1.024,0.348 1.516,0.453 0.5,0.102 0.984,0.156 1.453,0.156 1.269,0 2.219,-0.328 2.844,-0.984 0.625,-0.656 0.937,-1.652 0.937,-2.984 z m 10.235,0.281 0,-5.281 -1.438,0 0,5.234 c 0,0.832 -0.164,1.453 -0.484,1.859 -0.325,0.414 -0.809,0.625 -1.453,0.625 -0.774,0 -1.383,-0.25 -1.829,-0.75 -0.449,-0.492 -0.671,-1.164 -0.671,-2.015 l 0,-4.953 -1.454,0 0,8.75 1.454,0 0,-1.36 c 0.343,0.531 0.742,0.926 1.203,1.188 0.468,0.257 1.007,0.39 1.625,0.39 1,0 1.754,-0.312 2.265,-0.937 0.52,-0.625 0.782,-1.543 0.782,-2.75 z" />
              <g
                 transform="matrix(1,0,0,-0.664092,0,255.2)"
                 id="g2883">
                <path
                   id="path2885"
                   style="fill:#ff5200;fill-opacity:1;fill-rule:evenodd;stroke:#2b0000;stroke-width:1.19785202;stroke-linecap:round;stroke-linejoin:miter;stroke-miterlimit:4;stroke-opacity:1;stroke-dasharray:none"
                   d="m 150.098,359.467 c 0,12.899 -21.989,23.357 -49.11,23.357 -27.125,0 -49.113,-10.458 -49.113,-23.357 0,-12.9 21.988,-23.358 49.113,-23.358 27.121,0 49.11,10.458 49.11,23.358 z" />
              </g>
              <path
                 id="path2887"
                 style="fill:#000000;fill-opacity:1;fill-rule:nonzero;stroke:none"
                 d="m 75.578,22.954 1.594,0 0,-7.094 c 0,-1.25 0.223,-2.152 0.672,-2.703 0.457,-0.543 1.191,-0.812 2.203,-0.812 1.008,0 1.738,0.269 2.187,0.812 0.457,0.551 0.688,1.453 0.688,2.703 l 0,7.094 1.594,0 0,-7.281 c 0,-1.524 -0.383,-2.672 -1.141,-3.453 -0.75,-0.782 -1.859,-1.172 -3.328,-1.172 -1.469,0 -2.586,0.39 -3.344,1.172 -0.75,0.781 -1.125,1.929 -1.125,3.453 l 0,7.281 z m 18.125,-7.297 c 0,1.051 -0.219,1.879 -0.656,2.484 -0.438,0.602 -1.039,0.907 -1.797,0.907 -0.762,0 -1.359,-0.305 -1.797,-0.907 -0.43,-0.605 -0.641,-1.433 -0.641,-2.484 0,-1.062 0.211,-1.898 0.641,-2.5 0.438,-0.594 1.035,-0.891 1.797,-0.891 0.758,0 1.359,0.297 1.797,0.891 0.437,0.602 0.656,1.438 0.656,2.5 z m -4.891,3.047 c 0.301,0.519 0.68,0.906 1.141,1.156 0.457,0.258 1.008,0.391 1.656,0.391 1.063,0 1.922,-0.422 2.579,-1.266 0.664,-0.844 1,-1.953 1,-3.328 0,-1.375 -0.336,-2.492 -1,-3.344 -0.657,-0.843 -1.516,-1.265 -2.579,-1.265 -0.648,0 -1.199,0.125 -1.656,0.375 -0.461,0.257 -0.84,0.648 -1.141,1.172 l 0,-1.313 -1.453,0 0,12.156 1.453,0 0,-4.734 z m 8.61,-3.969 0,5.297 1.437,0 0,-5.234 c 0,-0.836 0.161,-1.461 0.485,-1.875 0.32,-0.407 0.804,-0.61 1.453,-0.61 0.781,0 1.394,0.242 1.844,0.735 0.445,0.5 0.671,1.175 0.671,2.031 l 0,4.953 1.438,0 0,-8.75 -1.438,0 0,1.344 c -0.343,-0.531 -0.75,-0.93 -1.218,-1.188 -0.461,-0.258 -0.992,-0.39 -1.594,-0.39 -1.012,0 -1.777,0.312 -2.297,0.937 -0.523,0.633 -0.781,1.551 -0.781,2.75 z m 3.625,5.516 0,0 z M 115,16.563 l 0,-5.281 -1.438,0 0,5.234 c 0,0.832 -0.164,1.454 -0.484,1.86 -0.324,0.414 -0.808,0.625 -1.453,0.625 -0.773,0 -1.383,-0.25 -1.828,-0.75 -0.449,-0.492 -0.672,-1.164 -0.672,-2.016 l 0,-4.953 -1.453,0 0,8.75 1.453,0 0,-1.359 c 0.344,0.531 0.742,0.925 1.203,1.187 0.469,0.258 1.008,0.391 1.625,0.391 1,0 1.754,-0.313 2.266,-0.938 0.519,-0.625 0.781,-1.543 0.781,-2.75 z m 4.312,5.953 0,-2.484 2.954,0 0,-1.109 -2.954,0 0,-4.75 c 0,-0.719 0.094,-1.184 0.282,-1.391 0.195,-0.199 0.597,-0.297 1.203,-0.297 l 1.469,0 0,-1.203 -1.469,0 c -1.117,0 -1.887,0.207 -2.313,0.625 -0.418,0.414 -0.625,1.172 -0.625,2.266 l 0,4.75 -1.047,0 0,1.109 1.047,0 0,2.484 1.453,0 z m 4.704,-7.781 0,5.297 1.437,0 0,-5.234 c 0,-0.836 0.16,-1.461 0.485,-1.875 0.32,-0.407 0.804,-0.61 1.453,-0.61 0.781,0 1.394,0.242 1.843,0.735 0.446,0.5 0.672,1.175 0.672,2.031 l 0,4.953 1.438,0 0,-8.75 -1.438,0 0,1.344 c -0.344,-0.531 -0.75,-0.93 -1.218,-1.188 -0.461,-0.258 -0.993,-0.39 -1.594,-0.39 -1.012,0 -1.778,0.312 -2.297,0.937 -0.524,0.633 -0.781,1.551 -0.781,2.75 z m 3.625,5.516 0,0 z" />
              <g
                 transform="matrix(1,0,0,-0.333639,0,255.2)"
                 id="g2889">
                <path
                   id="path2891"
                   style="fill:#ff0000;fill-opacity:1;fill-rule:evenodd;stroke:#2b0000;stroke-width:2.35475111;stroke-linecap:round;stroke-linejoin:miter;stroke-miterlimit:4;stroke-opacity:1;stroke-dasharray:none"
                   d="m 193.77,47.956 c 0,25.36 -43.223,45.919 -96.543,45.919 C 43.906,93.875 0.68,73.316 0.68,47.956 0.68,22.596 43.906,2.037 97.227,2.037 c 53.32,0 96.543,20.559 96.543,45.919 z" />
              </g>
              <path
                 id="path2893"
                 style="fill:#000000;fill-opacity:1;fill-rule:nonzero;stroke:none"
                 d="m 24.902,245.673 1.594,0 0,-7.094 c 0,-1.25 0.223,-2.152 0.672,-2.703 0.457,-0.543 1.191,-0.813 2.203,-0.813 1.008,0 1.738,0.27 2.188,0.813 0.457,0.551 0.687,1.453 0.687,2.703 l 0,7.094 1.594,0 0,-7.282 c 0,-1.523 -0.383,-2.671 -1.141,-3.453 -0.75,-0.781 -1.859,-1.172 -3.328,-1.172 -1.469,0 -2.586,0.391 -3.344,1.172 -0.75,0.782 -1.125,1.93 -1.125,3.453 l 0,7.282 z m 13.235,-10.36 0,-4.64 -1.453,0 0,12.078 1.453,0 0,-1.328 c 0.301,0.519 0.679,0.906 1.14,1.156 0.457,0.258 1.008,0.391 1.657,0.391 1.062,0 1.921,-0.422 2.578,-1.266 0.664,-0.844 1,-1.953 1,-3.328 0,-1.375 -0.336,-2.492 -1,-3.344 -0.657,-0.844 -1.516,-1.266 -2.578,-1.266 -0.649,0 -1.2,0.125 -1.657,0.375 -0.461,0.258 -0.839,0.649 -1.14,1.172 z m 4.89,3.063 c 0,1.051 -0.218,1.879 -0.656,2.484 -0.437,0.602 -1.039,0.906 -1.797,0.906 -0.762,0 -1.359,-0.304 -1.797,-0.906 -0.429,-0.605 -0.64,-1.433 -0.64,-2.484 0,-1.063 0.211,-1.899 0.64,-2.5 0.438,-0.594 1.035,-0.891 1.797,-0.891 0.758,0 1.36,0.297 1.797,0.891 0.438,0.601 0.656,1.437 0.656,2.5 z m 9.453,4.125 0,-1.36 c -0.406,0.207 -0.828,0.364 -1.265,0.469 -0.438,0.102 -0.891,0.156 -1.36,0.156 -0.718,0 -1.257,-0.109 -1.609,-0.328 -0.355,-0.218 -0.531,-0.547 -0.531,-0.984 0,-0.336 0.125,-0.602 0.375,-0.797 0.258,-0.187 0.773,-0.367 1.547,-0.531 l 0.484,-0.11 c 1.02,-0.218 1.742,-0.531 2.172,-0.937 0.437,-0.399 0.656,-0.949 0.656,-1.656 0,-0.813 -0.324,-1.461 -0.969,-1.938 -0.648,-0.48 -1.531,-0.719 -2.656,-0.719 -0.469,0 -0.961,0.047 -1.469,0.141 -0.5,0.094 -1.031,0.234 -1.593,0.422 l 0,1.484 c 0.531,-0.281 1.05,-0.492 1.562,-0.625 0.52,-0.136 1.031,-0.203 1.531,-0.203 0.676,0 1.196,0.113 1.563,0.344 0.363,0.226 0.547,0.555 0.547,0.984 0,0.383 -0.133,0.68 -0.391,0.891 -0.262,0.207 -0.84,0.41 -1.734,0.609 l -0.5,0.11 c -0.887,0.187 -1.528,0.472 -1.922,0.859 -0.398,0.395 -0.594,0.93 -0.594,1.609 0,0.821 0.289,1.457 0.875,1.907 0.582,0.445 1.41,0.672 2.485,0.672 0.531,0 1.031,-0.043 1.5,-0.125 0.468,-0.075 0.898,-0.188 1.296,-0.344 z m 4.188,2.734 0,-2.484 2.953,0 0,-1.11 -2.953,0 0,-4.75 c 0,-0.718 0.094,-1.183 0.281,-1.39 0.196,-0.199 0.598,-0.297 1.203,-0.297 l 1.469,0 0,-1.203 -1.469,0 c -1.117,0 -1.886,0.207 -2.312,0.625 -0.418,0.414 -0.625,1.172 -0.625,2.265 l 0,4.75 -1.047,0 0,1.11 1.047,0 0,2.484 1.453,0 z m 9.922,-3.828 c -0.156,0.094 -0.336,0.16 -0.531,0.203 -0.188,0.051 -0.399,0.078 -0.625,0.078 -0.813,0 -1.438,-0.265 -1.875,-0.797 -0.43,-0.531 -0.641,-1.293 -0.641,-2.281 l 0,-4.609 -1.453,0 0,8.75 1.453,0 0,-1.36 c 0.301,0.532 0.691,0.926 1.172,1.188 0.488,0.258 1.078,0.391 1.765,0.391 0.102,0 0.211,-0.012 0.329,-0.032 0.125,-0.011 0.257,-0.027 0.406,-0.047 l 0,-1.484 z m 8.672,-2.672 0,-0.703 -6.61,0 c 0.063,-0.992 0.36,-1.746 0.891,-2.266 0.531,-0.511 1.273,-0.765 2.234,-0.765 0.551,0 1.082,0.066 1.594,0.203 0.52,0.133 1.035,0.336 1.547,0.609 l 0,-1.359 c -0.512,-0.219 -1.039,-0.387 -1.578,-0.5 -0.543,-0.125 -1.094,-0.188 -1.656,-0.188 -1.399,0 -2.5,0.407 -3.313,1.219 -0.812,0.82 -1.219,1.926 -1.219,3.313 0,1.425 0.383,2.562 1.157,3.406 0.769,0.844 1.812,1.266 3.125,1.266 1.175,0 2.109,-0.383 2.796,-1.141 0.688,-0.762 1.032,-1.793 1.032,-3.094 z m -1.438,0.422 c -0.012,0.789 -0.234,1.422 -0.672,1.891 -0.429,0.468 -0.996,0.703 -1.703,0.703 -0.804,0 -1.445,-0.231 -1.922,-0.688 -0.48,-0.449 -0.757,-1.086 -0.828,-1.906 l 5.125,0 z m 7.766,-0.75 c -1.156,0 -1.961,-0.137 -2.406,-0.406 -0.45,-0.262 -0.672,-0.715 -0.672,-1.36 0,-0.511 0.164,-0.918 0.5,-1.218 0.332,-0.293 0.789,-0.438 1.375,-0.438 0.789,0 1.425,0.281 1.906,0.844 0.488,0.562 0.734,1.312 0.734,2.25 l 0,0.328 -1.437,0 z m 2.875,0.594 0,-5 -1.438,0 0,1.328 c -0.336,-0.531 -0.746,-0.93 -1.234,-1.188 -0.492,-0.25 -1.09,-0.375 -1.797,-0.375 -0.898,0 -1.609,0.25 -2.141,0.75 -0.523,0.508 -0.781,1.188 -0.781,2.032 0,0.988 0.328,1.734 0.985,2.234 0.656,0.5 1.64,0.75 2.953,0.75 l 2.015,0 0,0.141 c 0,0.656 -0.218,1.164 -0.656,1.531 -0.437,0.363 -1.047,0.547 -1.828,0.547 -0.5,0 -0.992,-0.063 -1.469,-0.188 -0.469,-0.117 -0.922,-0.293 -1.359,-0.531 l 0,1.328 c 0.519,0.195 1.023,0.348 1.515,0.453 0.5,0.102 0.985,0.157 1.454,0.157 1.269,0 2.218,-0.329 2.843,-0.985 0.625,-0.656 0.938,-1.652 0.938,-2.984 z m 9.781,2.078 c 0.352,0.644 0.781,1.117 1.281,1.422 0.5,0.312 1.086,0.469 1.766,0.469 0.914,0 1.617,-0.325 2.109,-0.969 0.5,-0.637 0.75,-1.543 0.75,-2.719 l 0,-5.281 -1.453,0 0,5.234 c 0,0.844 -0.152,1.469 -0.453,1.875 -0.293,0.406 -0.742,0.61 -1.344,0.61 -0.75,0 -1.343,-0.25 -1.781,-0.75 -0.43,-0.493 -0.641,-1.165 -0.641,-2.016 l 0,-4.953 -1.437,0 0,5.234 c 0,0.844 -0.152,1.469 -0.453,1.875 -0.293,0.406 -0.75,0.61 -1.375,0.61 -0.731,0 -1.313,-0.25 -1.75,-0.75 -0.43,-0.5 -0.641,-1.172 -0.641,-2.016 l 0,-4.953 -1.453,0 0,8.75 1.453,0 0,-1.36 c 0.321,0.539 0.711,0.938 1.172,1.188 0.457,0.258 1.004,0.391 1.641,0.391 0.633,0 1.172,-0.165 1.609,-0.485 0.445,-0.324 0.781,-0.793 1,-1.406 z m 15.266,-5.766 0,-4.64 -1.453,0 0,12.078 1.453,0 0,-1.328 c 0.3,0.519 0.679,0.906 1.14,1.156 0.457,0.258 1.008,0.391 1.657,0.391 1.062,0 1.921,-0.422 2.578,-1.266 0.664,-0.844 1,-1.953 1,-3.328 0,-1.375 -0.336,-2.492 -1,-3.344 -0.657,-0.844 -1.516,-1.266 -2.578,-1.266 -0.649,0 -1.2,0.125 -1.657,0.375 -0.461,0.258 -0.84,0.649 -1.14,1.172 z m 4.89,3.063 c 0,1.051 -0.218,1.879 -0.656,2.484 -0.437,0.602 -1.039,0.906 -1.797,0.906 -0.761,0 -1.359,-0.304 -1.797,-0.906 -0.429,-0.605 -0.64,-1.433 -0.64,-2.484 0,-1.063 0.211,-1.899 0.64,-2.5 0.438,-0.594 1.036,-0.891 1.797,-0.891 0.758,0 1.36,0.297 1.797,0.891 0.438,0.601 0.656,1.437 0.656,2.5 z m 8.938,3.031 c -0.156,0.094 -0.336,0.16 -0.531,0.203 -0.188,0.051 -0.399,0.078 -0.625,0.078 -0.813,0 -1.438,-0.265 -1.875,-0.797 -0.43,-0.531 -0.641,-1.293 -0.641,-2.281 l 0,-4.609 -1.453,0 0,8.75 1.453,0 0,-1.36 c 0.301,0.532 0.691,0.926 1.172,1.188 0.488,0.258 1.078,0.391 1.765,0.391 0.102,0 0.211,-0.012 0.329,-0.032 0.125,-0.011 0.257,-0.027 0.406,-0.047 l 0,-1.484 z m 4.578,0.344 c -0.773,0 -1.383,-0.305 -1.828,-0.906 -0.449,-0.606 -0.672,-1.43 -0.672,-2.469 0,-1.055 0.219,-1.883 0.656,-2.485 0.446,-0.593 1.063,-0.89 1.844,-0.89 0.758,0 1.363,0.301 1.812,0.906 0.446,0.602 0.672,1.426 0.672,2.469 0,1.031 -0.226,1.847 -0.672,2.453 -0.449,0.613 -1.054,0.922 -1.812,0.922 z m 0,1.219 c 1.25,0 2.227,-0.407 2.937,-1.219 0.719,-0.813 1.079,-1.938 1.079,-3.375 0,-1.438 -0.36,-2.571 -1.079,-3.391 -0.71,-0.812 -1.687,-1.219 -2.937,-1.219 -1.262,0 -2.246,0.407 -2.953,1.219 -0.711,0.82 -1.063,1.953 -1.063,3.391 0,1.437 0.352,2.562 1.063,3.375 0.707,0.812 1.691,1.219 2.953,1.219 z m 6.391,-0.219 1.437,0 0,-8.906 c 0,-1.114 -0.215,-1.922 -0.641,-2.422 -0.429,-0.5 -1.109,-0.75 -2.046,-0.75 l -0.563,0 0,1.218 0.391,0 c 0.551,0 0.925,0.125 1.125,0.375 0.195,0.25 0.297,0.778 0.297,1.579 l 0,8.906 z m 0,3.406 1.437,0 0,-1.812 -1.437,0 0,1.812 z m 11.921,-7.422 0,-0.703 -6.609,0 c 0.063,-0.992 0.359,-1.746 0.891,-2.266 0.531,-0.511 1.273,-0.765 2.234,-0.765 0.551,0 1.082,0.066 1.594,0.203 0.519,0.133 1.035,0.336 1.547,0.609 l 0,-1.359 c -0.512,-0.219 -1.039,-0.387 -1.578,-0.5 -0.543,-0.125 -1.094,-0.188 -1.657,-0.188 -1.398,0 -2.5,0.407 -3.312,1.219 -0.813,0.82 -1.219,1.926 -1.219,3.313 0,1.425 0.383,2.562 1.156,3.406 0.77,0.844 1.813,1.266 3.125,1.266 1.176,0 2.11,-0.383 2.797,-1.141 0.688,-0.762 1.031,-1.793 1.031,-3.094 z m -1.437,0.422 c -0.012,0.789 -0.234,1.422 -0.672,1.891 -0.43,0.468 -0.996,0.703 -1.703,0.703 -0.805,0 -1.445,-0.231 -1.922,-0.688 -0.48,-0.449 -0.758,-1.086 -0.828,-1.906 l 5.125,0 z m 10.094,3.266 0,-1.344 c -0.407,0.219 -0.821,0.383 -1.235,0.5 -0.406,0.113 -0.82,0.172 -1.234,0.172 -0.93,0 -1.652,-0.297 -2.172,-0.891 -0.512,-0.594 -0.766,-1.422 -0.766,-2.484 0,-1.074 0.254,-1.906 0.766,-2.5 0.52,-0.586 1.242,-0.875 2.172,-0.875 0.414,0 0.828,0.051 1.234,0.156 0.414,0.113 0.828,0.285 1.235,0.516 l 0,-1.328 c -0.407,-0.188 -0.825,-0.329 -1.25,-0.422 -0.43,-0.102 -0.887,-0.157 -1.375,-0.157 -1.313,0 -2.36,0.414 -3.141,1.25 -0.773,0.832 -1.156,1.954 -1.156,3.36 0,1.426 0.39,2.547 1.172,3.359 0.781,0.82 1.851,1.235 3.218,1.235 0.446,0 0.879,-0.047 1.297,-0.141 0.426,-0.094 0.836,-0.231 1.235,-0.406 z m 3.937,2.812 0,-2.484 2.953,0 0,-1.11 -2.953,0 0,-4.75 c 0,-0.718 0.094,-1.183 0.281,-1.39 0.196,-0.199 0.598,-0.297 1.204,-0.297 l 1.468,0 0,-1.203 -1.468,0 c -1.118,0 -1.887,0.207 -2.313,0.625 -0.418,0.414 -0.625,1.172 -0.625,2.265 l 0,4.75 -1.047,0 0,1.11 1.047,0 0,2.484 1.453,0 z m 10.438,-2.734 0,-1.36 c -0.407,0.207 -0.828,0.364 -1.266,0.469 -0.437,0.102 -0.891,0.156 -1.359,0.156 -0.719,0 -1.258,-0.109 -1.61,-0.328 -0.355,-0.218 -0.531,-0.547 -0.531,-0.984 0,-0.336 0.125,-0.602 0.375,-0.797 0.258,-0.187 0.774,-0.367 1.547,-0.531 l 0.484,-0.11 c 1.02,-0.218 1.743,-0.531 2.172,-0.937 0.438,-0.399 0.656,-0.949 0.656,-1.656 0,-0.813 -0.324,-1.461 -0.968,-1.938 -0.649,-0.48 -1.532,-0.719 -2.657,-0.719 -0.468,0 -0.96,0.047 -1.468,0.141 -0.5,0.094 -1.032,0.234 -1.594,0.422 l 0,1.484 c 0.531,-0.281 1.051,-0.492 1.562,-0.625 0.52,-0.136 1.032,-0.203 1.532,-0.203 0.675,0 1.195,0.113 1.562,0.344 0.363,0.226 0.547,0.555 0.547,0.984 0,0.383 -0.133,0.68 -0.391,0.891 -0.261,0.207 -0.839,0.41 -1.734,0.609 l -0.5,0.11 c -0.887,0.187 -1.527,0.472 -1.922,0.859 -0.398,0.395 -0.594,0.93 -0.594,1.609 0,0.821 0.29,1.457 0.875,1.907 0.582,0.445 1.411,0.672 2.485,0.672 0.531,0 1.031,-0.043 1.5,-0.125 0.469,-0.075 0.898,-0.188 1.297,-0.344 z" />
              <g
                 transform="matrix(1,0,0,-1,0,255.2)"
                 id="g2895">
                <path
                   id="path2897"
                   style="fill:#ff5200;fill-opacity:1;fill-rule:evenodd;stroke:#280b0b;stroke-width:0.37960899;stroke-linecap:round;stroke-linejoin:miter;stroke-miterlimit:4;stroke-opacity:1;stroke-dasharray:none"
                   d="m 32.441,132.078 43.121,0 c 0.008,0 0.012,0.004 0.012,0.008 l 0,16.75 c 0,0.008 -0.004,0.012 -0.012,0.012 l -43.121,0 c -0.003,0 -0.007,-0.004 -0.007,-0.012 l 0,-16.75 c 0,-0.004 0.004,-0.008 0.007,-0.008 z" />
              </g>
              <path
                 id="path2899"
                 style="fill:#000000;fill-opacity:1;fill-rule:nonzero;stroke:none"
                 d="m 37.941,118.911 0,-3.563 1.61,0 c 0.594,0 1.051,0.157 1.375,0.469 0.332,0.313 0.5,0.75 0.5,1.313 0,0.57 -0.168,1.007 -0.5,1.312 -0.324,0.313 -0.781,0.469 -1.375,0.469 l -1.61,0 z m -1.281,1.062 2.891,0 c 1.062,0 1.863,-0.246 2.406,-0.734 0.539,-0.48 0.813,-1.184 0.813,-2.109 0,-0.93 -0.274,-1.633 -0.813,-2.11 -0.543,-0.48 -1.344,-0.718 -2.406,-0.718 l -1.61,0 0,-3.813 -1.281,0 0,9.484 z m 10.324,-5.906 c -0.937,0 -1.589,-0.109 -1.953,-0.328 -0.367,-0.219 -0.547,-0.59 -0.547,-1.109 0,-0.407 0.133,-0.735 0.407,-0.985 0.269,-0.242 0.64,-0.359 1.109,-0.359 0.645,0 1.164,0.226 1.562,0.687 0.395,0.457 0.594,1.067 0.594,1.829 l 0,0.265 -1.172,0 z m 2.328,0.485 0,-4.063 -1.156,0 0,1.078 c -0.273,-0.43 -0.605,-0.746 -1,-0.953 -0.398,-0.207 -0.886,-0.312 -1.468,-0.312 -0.731,0 -1.309,0.203 -1.735,0.609 -0.43,0.414 -0.641,0.961 -0.641,1.641 0,0.8 0.266,1.406 0.797,1.812 0.539,0.406 1.344,0.609 2.407,0.609 l 1.64,0 0,0.125 c 0,0.532 -0.179,0.942 -0.531,1.235 -0.355,0.301 -0.855,0.453 -1.5,0.453 -0.406,0 -0.805,-0.055 -1.187,-0.156 -0.387,-0.094 -0.758,-0.243 -1.11,-0.438 l 0,1.078 c 0.426,0.164 0.844,0.289 1.25,0.375 0.406,0.082 0.797,0.125 1.172,0.125 1.031,0 1.797,-0.265 2.297,-0.797 0.508,-0.531 0.765,-1.339 0.765,-2.421 z m 3.442,5.062 0,-2.016 2.406,0 0,-0.906 -2.406,0 0,-3.859 c 0,-0.586 0.078,-0.961 0.234,-1.125 0.164,-0.156 0.492,-0.235 0.985,-0.235 l 1.187,0 0,-0.984 -1.187,0 c -0.907,0 -1.532,0.164 -1.875,0.5 -0.344,0.344 -0.516,0.957 -0.516,1.844 l 0,3.859 -0.859,0 0,0.906 0.859,0 0,2.016 1.172,0 z m 8.996,-2.281 0,-1.094 c -0.336,0.176 -0.668,0.313 -1,0.406 -0.336,0.094 -0.668,0.141 -1,0.141 -0.762,0 -1.352,-0.246 -1.766,-0.734 -0.418,-0.481 -0.625,-1.153 -0.625,-2.016 0,-0.867 0.207,-1.539 0.625,-2.016 0.414,-0.48 1.004,-0.718 1.766,-0.718 0.332,0 0.664,0.039 1,0.125 0.332,0.093 0.664,0.234 1,0.421 l 0,-1.093 c -0.324,-0.149 -0.664,-0.258 -1.016,-0.328 -0.343,-0.082 -0.714,-0.125 -1.109,-0.125 -1.074,0 -1.93,0.332 -2.563,1 -0.624,0.675 -0.937,1.585 -0.937,2.734 0,1.156 0.316,2.066 0.953,2.734 0.633,0.664 1.508,1 2.625,1 0.352,0 0.703,-0.039 1.047,-0.109 0.344,-0.074 0.676,-0.184 1,-0.328 z m 7.848,-2.547 0,-4.297 -1.172,0 0,4.25 c 0,0.676 -0.133,1.18 -0.391,1.516 -0.262,0.332 -0.656,0.5 -1.187,0.5 -0.625,0 -1.121,-0.203 -1.485,-0.61 -0.367,-0.398 -0.547,-0.945 -0.547,-1.64 l 0,-4.016 -1.171,0 0,9.875 1.171,0 0,-3.875 c 0.282,0.426 0.61,0.742 0.985,0.953 0.375,0.219 0.812,0.328 1.312,0.328 0.813,0 1.426,-0.258 1.844,-0.765 0.426,-0.5 0.641,-1.243 0.641,-2.219 z" />
              <g
                 transform="matrix(1,0,0,-1,0,255.2)"
                 id="g2901">
                <path
                   id="path2903"
                   style="fill:#ffffff;fill-opacity:1;fill-rule:evenodd;stroke:#000000;stroke-width:2.4000001;stroke-linecap:butt;stroke-linejoin:miter;stroke-miterlimit:4;stroke-opacity:1;stroke-dasharray:none"
                   d="m 121.008,31.953 c 52.957,114.406 25.039,146.406 11.14,192.692" />
              </g>
              <path
                 id="path2905"
                 style="fill:#000000;fill-opacity:1;fill-rule:evenodd;stroke:none"
                 d="m 141.32,40.907 -10.066,-13.402 -1.016,16.73 c 2.551,-3.39 7.028,-4.719 11.082,-3.328 z" />
              <g
                 transform="matrix(1,0,0,-1,0,255.2)"
                 id="g2907">
                <path
                   id="path2909"
                   style="fill:none;stroke:#000000;stroke-width:2.4000001;stroke-linecap:butt;stroke-linejoin:miter;stroke-miterlimit:4;stroke-opacity:1;stroke-dasharray:none"
                   d="M 88.195,31.93 C 78.23,45.125 77.301,54.707 74.66,64.973" />
              </g>
              <path
                 id="path2911"
                 style="fill:#000000;fill-opacity:1;fill-rule:evenodd;stroke:none"
                 d="m 83.414,200.938 -9.527,-13.797 -1.68,16.68 c 2.684,-3.285 7.211,-4.437 11.207,-2.883 z" />
              <g
                 transform="matrix(1,0,0,-1,0,255.2)"
                 id="g2913">
                <path
                   id="path2915"
                   style="fill:none;stroke:#000000;stroke-width:2.4000001;stroke-linecap:butt;stroke-linejoin:miter;stroke-miterlimit:4;stroke-opacity:1;stroke-dasharray:none"
                   d="m 66.805,96.684 c -9.387,8.308 -10.77,20.621 -12.43,32.789" />
              </g>
              <path
                 id="path2917"
                 style="fill:#000000;fill-opacity:1;fill-rule:evenodd;stroke:none"
                 d="m 61.828,137.38 -7.859,-14.805 -3.606,16.367 c 3.043,-2.949 7.676,-3.566 11.465,-1.562 z" />
              <g
                 transform="matrix(1,0,0,-1,0,255.2)"
                 id="g2919">
                <path
                   id="path2921"
                   style="fill:none;stroke:#000000;stroke-width:2.4000001;stroke-linecap:butt;stroke-linejoin:miter;stroke-miterlimit:4;stroke-opacity:1;stroke-dasharray:none"
                   d="m 94.555,96.105 c 14.984,41.848 7.89,83.7 -1.395,125.547" />
              </g>
              <path
                 id="path2923"
                 style="fill:#000000;fill-opacity:1;fill-rule:evenodd;stroke:none"
                 d="m 101.551,44.548 -9.059,-14.11 -2.238,16.614 c 2.789,-3.192 7.355,-4.192 11.297,-2.504 z" />
              <g
                 transform="matrix(1,0,0,-1,0,255.2)"
                 id="g2925">
                <path
                   id="path2927"
                   style="fill:none;stroke:#000000;stroke-width:2.4000001;stroke-linecap:butt;stroke-linejoin:miter;stroke-miterlimit:4;stroke-opacity:1;stroke-dasharray:none"
                   d="m 56.18,150.879 10.121,75.094" />
              </g>
              <path
                 id="path2929"
                 style="fill:#000000;fill-opacity:1;fill-rule:evenodd;stroke:none"
                 d="M 70.379,42.446 66.746,26.083 58.91,40.903 c 3.723,-2.035 8.352,-1.398 11.469,1.543 z" />
            </g>
          </g>
        </g>
      </g>
    </g>
  </g>
</svg>
