%!PS-Adobe-3.0 EPSF-3.0
%%Creator: graphviz version 2.26.3 (20100126.1600)
%%Title: Results
%%Pages: 1
%%BoundingBox: 36 36 275 416
%%EndComments
save
%%BeginProlog
/DotDict 200 dict def
DotDict begin

/setupLatin1 {
mark
/EncodingVector 256 array def
 EncodingVector 0

ISOLatin1Encoding 0 255 getinterval putinterval
EncodingVector 45 /hyphen put

% Set up ISO Latin 1 character encoding
/starnetISO {
        dup dup findfont dup length dict begin
        { 1 index /FID ne { def }{ pop pop } ifelse
        } forall
        /Encoding EncodingVector def
        currentdict end definefont
} def
/Times-Roman starnetISO def
/Times-Italic starnetISO def
/Times-Bold starnetISO def
/Times-BoldItalic starnetISO def
/Helvetica starnetISO def
/Helvetica-Oblique starnetISO def
/Helvetica-Bold starnetISO def
/Helvetica-BoldOblique starnetISO def
/Courier starnetISO def
/Courier-Oblique starnetISO def
/Courier-Bold starnetISO def
/Courier-BoldOblique starnetISO def
cleartomark
} bind def

%%BeginResource: procset graphviz 0 0
/coord-font-family /Times-Roman def
/default-font-family /Times-Roman def
/coordfont coord-font-family findfont 8 scalefont def

/InvScaleFactor 1.0 def
/set_scale {
       dup 1 exch div /InvScaleFactor exch def
       scale
} bind def

% styles
/solid { [] 0 setdash } bind def
/dashed { [9 InvScaleFactor mul dup ] 0 setdash } bind def
/dotted { [1 InvScaleFactor mul 6 InvScaleFactor mul] 0 setdash } bind def
/invis {/fill {newpath} def /stroke {newpath} def /show {pop newpath} def} bind def
/bold { 2 setlinewidth } bind def
/filled { } bind def
/unfilled { } bind def
/rounded { } bind def
/diagonals { } bind def

% hooks for setting color 
/nodecolor { sethsbcolor } bind def
/edgecolor { sethsbcolor } bind def
/graphcolor { sethsbcolor } bind def
/nopcolor {pop pop pop} bind def

/beginpage {	% i j npages
	/npages exch def
	/j exch def
	/i exch def
	/str 10 string def
	npages 1 gt {
		gsave
			coordfont setfont
			0 0 moveto
			(\() show i str cvs show (,) show j str cvs show (\)) show
		grestore
	} if
} bind def

/set_font {
	findfont exch
	scalefont setfont
} def

% draw text fitted to its expected width
/alignedtext {			% width text
	/text exch def
	/width exch def
	gsave
		width 0 gt {
			[] 0 setdash
			text stringwidth pop width exch sub text length div 0 text ashow
		} if
	grestore
} def

/boxprim {				% xcorner ycorner xsize ysize
		4 2 roll
		moveto
		2 copy
		exch 0 rlineto
		0 exch rlineto
		pop neg 0 rlineto
		closepath
} bind def

/ellipse_path {
	/ry exch def
	/rx exch def
	/y exch def
	/x exch def
	matrix currentmatrix
	newpath
	x y translate
	rx ry scale
	0 0 1 0 360 arc
	setmatrix
} bind def

/endpage { showpage } bind def
/showpage { } def

/layercolorseq
	[	% layer color sequence - darkest to lightest
		[0 0 0]
		[.2 .8 .8]
		[.4 .8 .8]
		[.6 .8 .8]
		[.8 .8 .8]
	]
def

/layerlen layercolorseq length def

/setlayer {/maxlayer exch def /curlayer exch def
	layercolorseq curlayer 1 sub layerlen mod get
	aload pop sethsbcolor
	/nodecolor {nopcolor} def
	/edgecolor {nopcolor} def
	/graphcolor {nopcolor} def
} bind def

/onlayer { curlayer ne {invis} if } def

/onlayers {
	/myupper exch def
	/mylower exch def
	curlayer mylower lt
	curlayer myupper gt
	or
	{invis} if
} def

/curlayer 0 def

%%EndResource
%%EndProlog
%%BeginSetup
14 default-font-family set_font
1 setmiterlimit
% /arrowlength 10 def
% /arrowwidth 5 def

% make sure pdfmark is harmless for PS-interpreters other than Distiller
/pdfmark where {pop} {userdict /pdfmark /cleartomark load put} ifelse
% make '<<' and '>>' safe on PS Level 1 devices
/languagelevel where {pop languagelevel}{1} ifelse
2 lt {
    userdict (<<) cvn ([) cvn load put
    userdict (>>) cvn ([) cvn load put
} if

%%EndSetup
setupLatin1
%%Page: 1 1
%%PageBoundingBox: 36 36 275 416
%%PageOrientation: Portrait
0 0 1 beginpage
gsave
36 36 239 380 boxprim clip newpath
1 1 set_scale 0 rotate 40 41 translate
% foo\n14.11
gsave
0.51765 0.23137 0.90196 nodecolor
newpath 77.86 324.02 moveto
79.75 324.15 lineto
81.62 324.34 lineto
83.47 324.61 lineto
85.28 324.93 lineto
87.04 325.32 lineto
88.76 325.77 lineto
90.43 326.29 lineto
92.03 326.86 lineto
93.56 327.49 lineto
95.02 328.17 lineto
96.4 328.91 lineto
97.7 329.71 lineto
98.92 330.55 lineto
100.04 331.44 lineto
101.06 332.38 lineto
101.99 333.35 lineto
102.83 334.37 lineto
103.56 335.43 lineto
104.19 336.52 lineto
104.72 337.64 lineto
105.15 338.79 lineto
105.48 339.97 lineto
105.71 341.17 lineto
105.84 342.38 lineto
105.87 343.62 lineto
105.82 344.86 lineto
105.67 346.11 lineto
105.43 347.37 lineto
105.11 348.63 lineto
104.7 349.89 lineto
104.22 351.14 lineto
103.67 352.38 lineto
103.04 353.62 lineto
102.36 354.83 lineto
101.61 356.03 lineto
100.8 357.21 lineto
99.94 358.36 lineto
99.03 359.48 lineto
98.07 360.57 lineto
97.08 361.63 lineto
96.05 362.65 lineto
94.98 363.62 lineto
93.89 364.56 lineto
92.77 365.45 lineto
91.62 366.29 lineto
90.46 367.09 lineto
89.28 367.83 lineto
88.08 368.51 lineto
86.87 369.14 lineto
85.64 369.71 lineto
84.41 370.23 lineto
83.17 370.68 lineto
81.92 371.07 lineto
80.67 371.39 lineto
79.42 371.66 lineto
78.16 371.85 lineto
76.89 371.98 lineto
75.63 372.05 lineto
74.37 372.05 lineto
73.11 371.98 lineto
71.84 371.85 lineto
70.58 371.66 lineto
69.33 371.39 lineto
68.08 371.07 lineto
66.83 370.68 lineto
65.59 370.23 lineto
64.36 369.71 lineto
63.13 369.14 lineto
61.92 368.51 lineto
60.72 367.83 lineto
59.54 367.09 lineto
58.38 366.29 lineto
57.23 365.45 lineto
56.11 364.56 lineto
55.02 363.62 lineto
53.95 362.65 lineto
52.92 361.63 lineto
51.93 360.57 lineto
50.97 359.48 lineto
50.06 358.36 lineto
49.2 357.21 lineto
48.39 356.03 lineto
47.64 354.83 lineto
46.96 353.62 lineto
46.33 352.38 lineto
45.78 351.14 lineto
45.3 349.89 lineto
44.89 348.63 lineto
44.57 347.37 lineto
44.33 346.11 lineto
44.18 344.86 lineto
44.13 343.62 lineto
44.16 342.38 lineto
44.29 341.17 lineto
44.52 339.97 lineto
44.85 338.79 lineto
45.28 337.64 lineto
45.81 336.52 lineto
46.44 335.43 lineto
47.17 334.37 lineto
48.01 333.35 lineto
48.94 332.38 lineto
49.96 331.44 lineto
51.08 330.55 lineto
52.3 329.71 lineto
53.6 328.91 lineto
54.98 328.17 lineto
56.44 327.49 lineto
57.97 326.86 lineto
59.57 326.29 lineto
61.24 325.77 lineto
62.96 325.32 lineto
64.72 324.93 lineto
66.53 324.61 lineto
68.38 324.34 lineto
70.25 324.15 lineto
72.14 324.02 lineto
74.05 323.95 lineto
75.95 323.95 lineto
closepath fill
1 setlinewidth
filled
0.51765 0.23137 0.90196 nodecolor
newpath 77.86 324.02 moveto
79.75 324.15 lineto
81.62 324.34 lineto
83.47 324.61 lineto
85.28 324.93 lineto
87.04 325.32 lineto
88.76 325.77 lineto
90.43 326.29 lineto
92.03 326.86 lineto
93.56 327.49 lineto
95.02 328.17 lineto
96.4 328.91 lineto
97.7 329.71 lineto
98.92 330.55 lineto
100.04 331.44 lineto
101.06 332.38 lineto
101.99 333.35 lineto
102.83 334.37 lineto
103.56 335.43 lineto
104.19 336.52 lineto
104.72 337.64 lineto
105.15 338.79 lineto
105.48 339.97 lineto
105.71 341.17 lineto
105.84 342.38 lineto
105.87 343.62 lineto
105.82 344.86 lineto
105.67 346.11 lineto
105.43 347.37 lineto
105.11 348.63 lineto
104.7 349.89 lineto
104.22 351.14 lineto
103.67 352.38 lineto
103.04 353.62 lineto
102.36 354.83 lineto
101.61 356.03 lineto
100.8 357.21 lineto
99.94 358.36 lineto
99.03 359.48 lineto
98.07 360.57 lineto
97.08 361.63 lineto
96.05 362.65 lineto
94.98 363.62 lineto
93.89 364.56 lineto
92.77 365.45 lineto
91.62 366.29 lineto
90.46 367.09 lineto
89.28 367.83 lineto
88.08 368.51 lineto
86.87 369.14 lineto
85.64 369.71 lineto
84.41 370.23 lineto
83.17 370.68 lineto
81.92 371.07 lineto
80.67 371.39 lineto
79.42 371.66 lineto
78.16 371.85 lineto
76.89 371.98 lineto
75.63 372.05 lineto
74.37 372.05 lineto
73.11 371.98 lineto
71.84 371.85 lineto
70.58 371.66 lineto
69.33 371.39 lineto
68.08 371.07 lineto
66.83 370.68 lineto
65.59 370.23 lineto
64.36 369.71 lineto
63.13 369.14 lineto
61.92 368.51 lineto
60.72 367.83 lineto
59.54 367.09 lineto
58.38 366.29 lineto
57.23 365.45 lineto
56.11 364.56 lineto
55.02 363.62 lineto
53.95 362.65 lineto
52.92 361.63 lineto
51.93 360.57 lineto
50.97 359.48 lineto
50.06 358.36 lineto
49.2 357.21 lineto
48.39 356.03 lineto
47.64 354.83 lineto
46.96 353.62 lineto
46.33 352.38 lineto
45.78 351.14 lineto
45.3 349.89 lineto
44.89 348.63 lineto
44.57 347.37 lineto
44.33 346.11 lineto
44.18 344.86 lineto
44.13 343.62 lineto
44.16 342.38 lineto
44.29 341.17 lineto
44.52 339.97 lineto
44.85 338.79 lineto
45.28 337.64 lineto
45.81 336.52 lineto
46.44 335.43 lineto
47.17 334.37 lineto
48.01 333.35 lineto
48.94 332.38 lineto
49.96 331.44 lineto
51.08 330.55 lineto
52.3 329.71 lineto
53.6 328.91 lineto
54.98 328.17 lineto
56.44 327.49 lineto
57.97 326.86 lineto
59.57 326.29 lineto
61.24 325.77 lineto
62.96 325.32 lineto
64.72 324.93 lineto
66.53 324.61 lineto
68.38 324.34 lineto
70.25 324.15 lineto
72.14 324.02 lineto
74.05 323.95 lineto
75.95 323.95 lineto
closepath stroke
0.66667 1 0.50196 nodecolor
10 /Helvetica set_font
68 352 moveto 14 (foo) alignedtext
0.66667 1 0.50196 nodecolor
10 /Helvetica set_font
62.5 339 moveto 25 (14.11) alignedtext
grestore
% baz\n9.62
gsave
0 0 0.82745 nodecolor
122 180 27 24.04 ellipse_path fill
1 setlinewidth
filled
0 0 0 nodecolor
122 180 27 24.04 ellipse_path stroke
0 0 0 nodecolor
10 /Helvetica set_font
114 184 moveto 16 (baz) alignedtext
0 0 0 nodecolor
10 /Helvetica set_font
112.5 171 moveto 19 (9.62) alignedtext
grestore
% foo\n14.11->baz\n9.62
gsave
1 setlinewidth
0 0 0 edgecolor
newpath 64.19 324.73 moveto
55.35 302.21 46.08 267.52 58 240 curveto
64.95 223.95 78.55 210.23 91.43 199.97 curveto
stroke
0 0 0 edgecolor
newpath 93.82 202.55 moveto
99.71 193.74 lineto
89.61 196.95 lineto
closepath fill
1 setlinewidth
solid
0 0 0 edgecolor
newpath 93.82 202.55 moveto
99.71 193.74 lineto
89.61 196.95 lineto
closepath stroke
0 0 0 edgecolor
14 /Times-Roman set_font
58 260.4 moveto 28 (198) alignedtext
grestore
% quux\n1.19
gsave
0 0 0.82745 nodecolor
187 96 27 24.04 ellipse_path fill
1 setlinewidth
filled
0 0 0 nodecolor
187 96 27 24.04 ellipse_path stroke
0 0 0 nodecolor
10 /Helvetica set_font
176 100 moveto 22 (quux) alignedtext
0 0 0 nodecolor
10 /Helvetica set_font
177.5 87 moveto 19 (1.19) alignedtext
grestore
% foo\n14.11->quux\n1.19
gsave
1 setlinewidth
0 0 0 edgecolor
newpath 103.51 335.02 moveto
113.94 329.59 125.51 322.74 135 315 curveto
180.39 277.99 190.97 260.6 206 204 curveto
212.67 178.9 206.83 149.89 199.93 128.26 curveto
stroke
0 0 0 edgecolor
newpath 203.17 126.91 moveto
196.62 118.58 lineto
196.55 129.18 lineto
closepath fill
1 setlinewidth
solid
0 0 0 edgecolor
newpath 203.17 126.91 moveto
196.62 118.58 lineto
196.55 129.18 lineto
closepath stroke
0 0 0 edgecolor
14 /Times-Roman set_font
203 218.4 moveto 28 (340) alignedtext
grestore
% bar\n7.62
gsave
0 0 0.82745 nodecolor
122 264 27 24.04 ellipse_path fill
1 setlinewidth
filled
0 0 0 nodecolor
122 264 27 24.04 ellipse_path stroke
0 0 0 nodecolor
10 /Helvetica set_font
115 268 moveto 14 (bar) alignedtext
0 0 0 nodecolor
10 /Helvetica set_font
112.5 255 moveto 19 (7.62) alignedtext
grestore
% foo\n14.11->bar\n7.62
gsave
1 setlinewidth
0 0 0 edgecolor
newpath 87.84 325.05 moveto
93.09 315.67 99.23 304.7 104.85 294.66 curveto
stroke
0 0 0 edgecolor
newpath 107.99 296.2 moveto
109.82 285.77 lineto
101.88 292.79 lineto
closepath fill
1 setlinewidth
solid
0 0 0 edgecolor
newpath 107.99 296.2 moveto
109.82 285.77 lineto
101.88 292.79 lineto
closepath stroke
0 0 0 edgecolor
14 /Times-Roman set_font
103 302.4 moveto 28 (147) alignedtext
grestore
% None Of The Above
gsave
0 0 0.82745 nodecolor
newpath 90 36 moveto
-.04 18 lineto
90 0 lineto
180.04 18 lineto
closepath fill
1 setlinewidth
filled
0 0 0 nodecolor
newpath 90 36 moveto
-.04 18 lineto
90 0 lineto
180.04 18 lineto
closepath stroke
0 1 1 nodecolor
10 /Helvetica set_font
46 15.5 moveto 88 (None Of The Above) alignedtext
grestore
% foo\n14.11->None Of The Above
gsave
1 setlinewidth
0 0 0 edgecolor
newpath 49.01 332.13 moveto
28.38 317.33 3 293.2 3 264 curveto
3 264 3 264 3 96 curveto
3 68.24 27.86 47.87 51 34.92 curveto
stroke
0 0 0 edgecolor
newpath 52.84 37.91 moveto
60.06 30.16 lineto
49.58 31.72 lineto
closepath fill
1 setlinewidth
solid
0 0 0 edgecolor
newpath 52.84 37.91 moveto
60.06 30.16 lineto
49.58 31.72 lineto
closepath stroke
0 0 0 edgecolor
14 /Times-Roman set_font
3 176.4 moveto 28 (367) alignedtext
grestore
% baz\n9.62->quux\n1.19
gsave
1 setlinewidth
0 0 0 edgecolor
newpath 130.67 157.21 moveto
134.82 147.93 140.34 137.44 147 129 curveto
150.2 124.95 153.96 121.06 157.89 117.47 curveto
stroke
0 0 0 edgecolor
newpath 160.19 120.1 moveto
165.52 110.94 lineto
155.64 114.78 lineto
closepath fill
1 setlinewidth
solid
0 0 0 edgecolor
newpath 160.19 120.1 moveto
165.52 110.94 lineto
155.64 114.78 lineto
closepath stroke
0 0 0 edgecolor
14 /Times-Roman set_font
147 134.4 moveto 28 (287) alignedtext
grestore
% baz\n9.62->None Of The Above
gsave
1 setlinewidth
0 0 0 edgecolor
newpath 117.28 156.1 moveto
111.46 126.65 101.6 76.72 95.46 45.65 curveto
stroke
0 0 0 edgecolor
newpath 98.83 44.65 moveto
93.46 35.51 lineto
91.96 46 lineto
closepath fill
1 setlinewidth
solid
0 0 0 edgecolor
newpath 98.83 44.65 moveto
93.46 35.51 lineto
91.96 46 lineto
closepath stroke
0 0 0 edgecolor
14 /Times-Roman set_font
110 92.4 moveto 28 (336) alignedtext
grestore
% quux\n1.19->None Of The Above
gsave
1 setlinewidth
0 0 0 edgecolor
newpath 167.58 78.86 moveto
155.98 68.78 140.85 55.92 127 45 curveto
124.23 42.82 121.31 40.58 118.37 38.37 curveto
stroke
0 0 0 edgecolor
newpath 120.29 35.44 moveto
110.17 32.31 lineto
116.13 41.07 lineto
closepath fill
1 setlinewidth
solid
0 0 0 edgecolor
newpath 120.29 35.44 moveto
110.17 32.31 lineto
116.13 41.07 lineto
closepath stroke
0 0 0 edgecolor
14 /Times-Roman set_font
148 50.4 moveto 19 (34) alignedtext
grestore
% bar\n7.62->baz\n9.62
gsave
1 setlinewidth
0 0 0 edgecolor
newpath 122 239.7 moveto
122 231.78 122 222.83 122 214.31 curveto
stroke
0 0 0 edgecolor
newpath 125.5 214.24 moveto
122 204.24 lineto
118.5 214.24 lineto
closepath fill
1 setlinewidth
solid
0 0 0 edgecolor
newpath 125.5 214.24 moveto
122 204.24 lineto
118.5 214.24 lineto
closepath stroke
0 0 0 edgecolor
14 /Times-Roman set_font
122 218.4 moveto 19 (30) alignedtext
grestore
% bar\n7.62->quux\n1.19
gsave
1 setlinewidth
0 0 0 edgecolor
newpath 136.88 243.74 moveto
139.7 239.6 142.53 235.22 145 231 curveto
163.64 199.1 174.88 158.04 180.98 129.62 curveto
stroke
0 0 0 edgecolor
newpath 184.42 130.27 moveto
182.99 119.77 lineto
177.56 128.86 lineto
closepath fill
1 setlinewidth
solid
0 0 0 edgecolor
newpath 184.42 130.27 moveto
182.99 119.77 lineto
177.56 128.86 lineto
closepath stroke
0 0 0 edgecolor
14 /Times-Roman set_font
174 176.4 moveto 28 (279) alignedtext
grestore
% bar\n7.62->None Of The Above
gsave
1 setlinewidth
0 0 0 edgecolor
newpath 106.87 244.02 moveto
99.24 232.85 90.65 218.33 86 204 curveto
68.43 149.9 76.93 82.21 83.94 45.23 curveto
stroke
0 0 0 edgecolor
newpath 87.42 45.71 moveto
85.95 35.22 lineto
80.55 44.33 lineto
closepath fill
1 setlinewidth
solid
0 0 0 edgecolor
newpath 87.42 45.71 moveto
85.95 35.22 lineto
80.55 44.33 lineto
closepath stroke
0 0 0 edgecolor
14 /Times-Roman set_font
77 134.4 moveto 28 (318) alignedtext
grestore
endpage
showpage
grestore
%%PageTrailer
%%EndPage: 1
%%Trailer
end
restore
%%EOF
