digraph Results {
  ranksep=0.25;
 "foo\n14.11" [ style="filled" , color="powderblue", shape=egg, fontcolor="NavyBlue", fontname="Helvetica", fontsize=10  ];
 "foo\n14.11" -> "baz\n9.62" [ label="198" ];
 "foo\n14.11" -> "quux\n1.19" [ label="340" ];
 "foo\n14.11" -> "bar\n7.62" [ label="147" ];
 "foo\n14.11" -> "None Of The Above" [ label="367" ];
 "baz\n9.62" [ style="filled" , fontname="Helvetica", fontsize=10  ];
 "baz\n9.62" -> "quux\n1.19" [ label="287" ];
 "baz\n9.62" -> "None Of The Above" [ label="336" ];
 "quux\n1.19" [ style="filled" , fontname="Helvetica", fontsize=10  ];
 "quux\n1.19" -> "None Of The Above" [ label="34" ];
 "bar\n7.62" [ style="filled" , fontname="Helvetica", fontsize=10  ];
 "bar\n7.62" -> "baz\n9.62" [ label="30" ];
 "bar\n7.62" -> "quux\n1.19" [ label="279" ];
 "bar\n7.62" -> "None Of The Above" [ label="318" ];
 "None Of The Above" [ style="filled" , shape=diamond, fontcolor="Red", fontname="Helvetica", fontsize=10  ];
}
